200 80
2
68 81 3 81 47 52 64 29 98 6 28 39 58 41 14 5 1 5 15 100 20 66 76 24 29 44 27 98 18 90 80 85 12 40 63 50 67 68 67 7 96 56 91 28 37 88 19 7 38 68 13 88 35 23 55 90 89 88 31 2 78 71 78 1 4 51 34 44 94 21 53 33 30 81 16 32 12 15 29 70 58 45 17 80 80 24 6 32 15 80 52 51 30 51 97 24 77 2 32 94 88 9 85 85 46 37 99 96 68 40 22 94 27 56 68 25 32 75 20 68 95 69 65 47 97 23 36 65 66 11 17 70 85 64 94 38 33 80 5 20 20 40 16 80 85 39 3 72 11 62 18 95 68 100 62 73 38 81 12 16 37 72 49 85 95 41 43 56 65 48 61 96 74 32 43 41 16 1 80 43 36 64 57 94 62 93 58 33 33 99 59 19 84 83 2 16 70 41 35 8
20 86 84 83 58 14 33 53 100 26 55 50 51 56 71 11 99 87 77 28 45 45 31 6 75 1 77 20 65 35 24 93 48 89 19 49 35 46 2 67 35 86 22 34 5 80 54 40 92 60 97 74 59 51 21 70 80 70 42 1 74 4 81 15 31 22 55 21 26 5 99 22 20 61 15 89 79 35 41 37 74 42 29 69 14 79 43 95 27 38 88 71 5 35 2 83 42 24 73 88 11 51 37 73 93 54 75 32 58 50 74 6 24 5 98 53 49 48 4 84 85 3 63 56 39 50 89 60 49 73 70 53 83 57 62 50 60 62 90 25 37 56 34 68 83 20 6 100 51 75 77 96 4 30 99 45 40 27 2 5 98 2 14 25 29 87 33 17 40 69 45 25 12 7 50 20 59 68 39 51 6 55 18 46 11 28 42 49 3 93 42 21 20 74 44 26 46 20 17 33
25
1 5 6 33 36 39 48 49 57 71 96 104 105 111 112 113 116 130 138 152 157 162 165 173 189
21
8 10 29 37 61 67 70 73 74 92 118 126 137 141 142 151 158 167 178 184 186
24
6 9 15 16 33 69 70 71 82 83 88 110 111 121 123 133 145 147 154 157 170 172 183 189
19
10 12 30 32 33 45 48 74 77 89 108 140 145 159 166 169 173 181 197
24
2 4 6 9 68 71 72 74 76 78 83 85 86 93 130 132 135 161 164 165 166 168 172 189
15
7 8 23 58 60 71 81 87 99 120 131 135 152 154 170
19
4 10 12 28 69 85 88 111 118 126 140 149 154 155 157 167 172 183 196
25
12 29 46 50 78 82 83 85 87 103 105 109 119 131 135 148 150 162 165 177 185 186 190 191 198
24
10 31 32 52 54 58 76 84 85 86 90 99 112 143 148 150 152 153 163 166 176 178 190 200
19
3 18 20 24 35 51 56 67 70 86 108 112 114 124 135 171 179 187 196
20
15 19 23 34 38 40 60 68 102 103 107 129 137 144 163 164 168 169 190 196
23
19 20 24 29 48 71 74 77 81 83 93 95 103 105 106 126 138 144 148 175 189 190 195
21
1 16 34 40 87 93 110 112 115 124 137 138 139 140 142 148 155 164 171 177 194
22
14 18 36 49 56 58 64 66 67 74 81 82 92 122 130 131 133 149 152 178 182 185
28
5 9 11 21 34 39 60 61 91 99 114 120 123 127 129 132 136 153 154 165 166 175 176 177 183 188 190 196
25
4 9 10 28 51 53 57 77 79 84 108 117 124 126 130 131 142 143 150 158 160 176 179 193 194
23
1 18 22 55 62 71 83 100 102 111 123 125 135 138 141 143 147 157 165 169 172 184 196
17
12 30 39 43 65 74 93 116 131 135 136 137 146 160 167 184 186
24
3 10 15 18 19 40 53 65 88 112 117 119 128 129 145 146 152 154 160 166 167 168 171 173
22
13 40 58 60 64 68 89 115 119 126 129 130 136 144 145 148 159 167 177 180 186 188
18
2 44 50 61 71 80 115 127 135 140 150 159 167 173 174 189 190 192
24
1 6 12 13 17 32 43 49 63 67 82 84 103 104 120 122 125 126 133 136 138 139 146 165
13
23 46 83 99 106 148 169 177 185 187 188 189 195
16
7 17 36 41 63 71 77 79 126 130 133 141 148 167 187 189
25
5 6 18 19 22 33 36 50 54 59 67 80 84 85 109 116 130 140 152 160 169 178 190 196 200
22
2 12 28 35 38 40 50 59 61 68 69 75 76 83 86 107 133 146 151 170 174 186
23
2 18 38 41 43 52 70 78 86 95 103 125 129 133 135 143 146 148 149 158 165 173 195
15
22 43 53 56 67 71 84 89 111 131 140 160 176 183 196
25
31 36 61 63 64 65 79 80 87 91 104 112 118 129 140 142 144 149 152 158 164 166 184 191 194
20
21 35 71 92 93 99 104 109 130 131 136 138 147 151 155 159 160 170 199 200
15
3 27 54 56 78 79 86 90 110 111 114 123 164 166 184
20
1 4 49 55 60 69 82 88 95 98 105 109 116 122 151 160 161 184 187 197
20
19 20 42 44 53 59 62 65 83 117 119 122 123 129 136 156 161 164 166 197
22
4 6 7 24 29 31 33 41 53 67 68 72 83 106 124 148 156 165 170 176 177 191
17
5 6 9 11 31 32 33 37 42 46 90 93 133 140 143 165 183
12
1 25 51 60 63 66 91 112 129 147 183 197
21
12 27 50 58 61 66 67 75 79 84 88 96 101 116 143 161 165 173 178 190 193
17
13 28 43 68 70 82 105 117 120 127 140 142 163 164 168 182 183
22
10 14 16 21 23 24 28 32 58 61 77 85 86 92 94 98 123 146 149 161 193 194
19
17 24 62 67 83 90 96 128 142 143 145 148 157 158 160 167 170 189 200
30
8 9 41 51 52 58 61 65 76 84 90 92 106 113 114 117 118 130 132 137 140 141 157 167 168 172 178 185 190 196
22
1 7 18 20 41 86 89 99 105 106 109 136 156 162 163 170 172 174 190 191 195 197
17
21 29 68 73 83 100 103 106 144 154 156 168 174 177 189 193 197
23
2 34 38 44 45 50 72 74 83 90 91 95 97 101 114 131 135 139 144 150 168 188 189
18
10 14 29 33 43 47 59 89 99 103 118 138 143 148 173 184 186 190
21
6 26 43 44 64 67 82 97 113 117 118 128 147 167 170 174 178 191 192 193 200
19
39 48 64 68 74 75 95 99 105 111 124 129 158 162 165 171 182 185 187
20
10 20 26 27 49 53 55 66 80 90 91 126 134 142 146 147 148 169 183 186
17
16 22 53 74 79 110 119 132 134 138 153 168 171 177 191 197 200
19
18 40 49 54 63 68 71 93 95 102 104 119 122 134 145 147 170 173 199
16
12 26 29 35 44 47 86 102 107 108 113 121 133 138 176 197
23
2 18 19 50 51 67 72 75 87 92 98 99 135 148 150 154 163 166 171 174 179 188 198
16
13 18 44 71 76 85 99 104 108 113 123 133 144 146 151 187
13
4 22 46 68 70 77 141 157 169 178 179 185 191
18
13 22 24 44 54 90 97 104 110 115 137 149 153 160 182 183 191 196
16
29 31 35 36 44 52 72 124 128 147 149 166 172 176 187 193
20
16 35 43 72 73 82 94 97 108 116 126 135 137 138 151 153 156 173 185 199
18
12 22 25 26 29 36 84 91 100 103 104 105 107 125 129 158 173 193
20
4 12 18 22 26 33 37 66 68 85 117 124 140 145 148 161 167 185 189 199
26
7 16 21 43 64 67 73 82 84 98 99 100 118 119 133 136 140 146 155 163 168 179 181 187 195 196
22
14 21 33 37 40 47 52 61 68 82 98 99 105 109 123 130 149 160 178 181 183 195
20
4 19 34 45 73 82 98 105 106 110 123 135 157 160 166 168 186 187 188 197
9
25 33 38 51 121 143 151 167 177
20
38 40 54 56 63 73 95 97 108 136 138 142 146 154 179 185 190 193 194 200
15
17 23 33 36 57 59 71 72 91 111 125 140 165 192 199
23
2 24 33 40 43 51 52 54 56 65 66 74 76 77 84 102 108 119 146 154 171 196 198
14
13 16 18 30 42 47 48 82 95 117 121 131 153 162
21
6 9 10 21 28 29 43 45 63 68 75 79 82 86 95 123 134 149 162 179 191
24
14 27 29 32 47 52 69 83 89 94 97 103 105 109 122 130 139 141 150 151 163 164 187 188
13
9 10 13 26 33 48 92 112 118 143 152 158 195
24
20 35 37 41 44 53 57 72 90 96 109 121 123 126 154 155 156 164 166 168 184 186 197 199
19
5 16 23 52 58 63 67 72 107 111 121 125 127 134 167 172 179 181 197
18
16 17 34 45 72 84 87 88 107 108 119 128 144 156 166 168 175 188
17
1 16 22 32 48 73 83 88 96 114 138 139 166 172 179 180 194
25
8 19 20 43 48 53 55 56 67 76 77 81 91 96 100 106 119 120 122 127 128 179 186 192 195
16
3 4 24 35 45 56 71 78 88 114 122 127 135 145 160 175
22
8 24 26 36 39 40 44 53 54 65 68 76 80 83 88 111 132 139 146 155 178 195
25
7 16 21 22 30 40 47 51 53 56 69 72 86 103 105 118 139 144 162 169 170 179 190 198 200
21
27 31 46 52 54 105 110 119 120 128 134 142 145 149 151 152 159 166 173 188 194
22
3 5 19 22 43 78 82 87 88 97 98 110 114 140 144 155 157 158 166 182 184 186
