150 60
2
82 9 18 24 19 81 87 59 4 10 34 44 63 48 27 16 70 74 4 12 46 40 89 52 43 44 67 59 18 74 76 96 79 29 32 65 66 70 87 30 94 1 8 98 95 30 14 32 5 90 67 59 25 48 20 78 48 4 26 71 52 38 26 10 61 67 53 94 93 21 61 64 25 30 49 75 30 73 66 22 39 83 85 66 1 69 23 83 92 43 96 76 33 88 39 11 60 85 66 40 91 48 39 15 22 70 80 30 63 88 15 28 53 57 40 40 13 62 94 20 80 19 5 75 19 76 34 57 95 93 48 21 26 86 59 17 89 97 97 63 98 61 51 98 61 79 34 79 98 6
54 37 6 9 27 20 72 22 63 86 50 13 7 30 42 50 31 85 57 97 94 71 3 22 75 55 95 71 82 6 30 68 64 37 16 59 9 67 81 67 7 53 31 56 69 20 4 50 62 13 93 49 97 54 73 78 50 40 67 2 62 53 15 21 4 75 69 39 96 39 31 91 9 40 3 35 73 35 50 49 7 10 30 55 8 93 86 57 74 75 1 95 5 85 84 75 14 82 97 83 70 26 56 49 87 35 41 27 49 58 47 32 55 62 17 59 71 11 62 45 94 39 32 71 87 9 11 17 35 52 57 41 89 67 17 34 20 20 85 94 44 25 84 15 14 28 37 34 28 23
10
11 17 18 37 53 61 76 109 131 143
20
5 9 17 21 29 35 53 54 60 79 81 82 94 95 123 124 125 132 148 150
20
5 10 13 18 23 26 46 59 64 82 87 89 90 96 98 99 125 138 143 144
17
12 17 24 30 36 44 51 62 69 81 96 101 110 111 135 144 150
17
8 15 20 25 46 57 72 74 80 89 91 93 105 109 122 133 140
13
3 23 24 38 42 48 50 117 134 144 145 146 149
15
5 11 12 24 48 64 96 104 107 110 118 129 132 133 144
15
3 12 20 26 31 47 48 52 65 73 81 84 105 134 149
19
11 13 15 20 31 36 59 60 62 72 75 83 95 102 128 132 140 143 149
16
9 22 34 46 47 58 59 68 72 105 128 129 134 137 143 149
23
3 13 17 26 27 28 30 41 45 47 53 62 67 71 94 111 116 127 136 138 139 140 141
17
3 9 11 13 15 21 51 84 85 90 93 98 127 132 134 137 143
18
6 15 19 21 26 32 39 45 72 73 91 94 106 111 122 125 139 145
20
5 8 9 11 12 19 39 42 61 68 70 72 75 76 82 88 112 118 119 149
20
2 9 12 33 42 55 71 86 88 89 90 91 96 101 123 124 125 128 129 149
19
19 20 46 53 57 61 73 74 79 86 103 104 106 120 126 127 134 137 142
19
29 38 39 43 44 53 55 57 63 74 80 91 106 113 117 127 133 136 148
19
7 9 23 39 40 61 62 67 69 75 83 86 88 91 99 104 118 130 144
19
11 16 20 21 31 32 36 39 63 79 82 96 106 109 115 121 127 140 144
16
5 31 37 51 76 79 80 81 88 101 107 108 131 132 136 147
19
4 18 25 40 45 48 49 65 66 71 81 91 93 98 101 140 141 147 149
15
45 53 60 61 64 75 77 79 87 92 94 110 113 117 141
18
27 37 59 79 84 86 88 93 101 104 114 116 120 123 129 137 140 141
17
13 24 32 34 38 47 55 57 63 73 92 102 117 129 130 136 141
18
3 11 12 46 52 79 87 97 100 106 108 110 114 121 130 133 142 146
17
3 8 30 41 45 48 54 78 82 86 89 94 99 106 118 127 128
18
5 12 13 23 32 48 57 58 59 61 70 71 90 101 127 129 139 148
9
5 19 41 61 74 86 92 105 124
12
3 5 9 27 57 58 60 68 76 113 124 125
22
9 25 28 36 40 54 59 62 67 69 75 88 91 100 101 105 109 115 124 126 139 147
16
3 5 17 21 40 43 59 63 71 86 90 105 106 110 137 150
17
2 10 19 23 45 52 60 63 75 85 88 102 109 112 114 115 120
14
15 61 62 65 80 81 90 111 118 124 128 137 144 145
19
11 16 36 48 61 75 80 84 92 93 103 104 110 116 119 130 135 137 143
15
8 9 27 34 64 65 92 94 95 105 125 126 131 136 147
17
2 31 40 59 79 80 82 85 88 89 97 101 102 110 136 138 149
13
15 24 51 53 63 83 90 91 98 115 119 120 150
14
13 24 25 28 31 35 37 82 93 97 102 111 116 121
12
1 10 18 26 34 41 46 58 80 90 92 131
17
10 30 48 66 70 72 73 77 91 99 104 114 120 126 127 128 133
19
7 9 11 15 22 33 36 38 41 53 55 68 69 83 87 95 114 132 136
14
10 27 28 47 86 90 96 101 102 107 111 115 118 120
14
7 30 34 47 51 86 89 93 100 105 134 138 146 149
13
13 38 52 56 57 65 67 82 103 104 117 144 149
18
9 12 35 36 40 47 54 62 71 79 82 100 103 122 123 130 132 136
18
27 30 40 49 50 51 53 67 71 73 96 98 100 109 117 125 131 132
14
23 41 43 70 90 94 95 101 104 106 114 128 144 147
18
12 13 16 17 40 55 59 66 68 75 77 95 100 115 128 133 139 145
11
24 37 42 61 65 72 103 106 107 121 149
17
8 10 15 24 32 43 56 63 79 85 100 106 114 121 123 127 132
23
1 5 8 17 27 37 39 50 57 58 59 63 67 74 87 92 93 96 97 102 105 107 138
10
9 15 24 40 69 101 108 112 117 146
18
5 15 17 20 31 33 38 41 67 94 116 117 124 126 135 141 143 148
15
2 3 4 19 21 35 42 51 65 106 114 119 132 133 135
18
3 4 12 39 68 70 75 76 80 82 91 95 98 107 118 124 128 134
18
10 14 15 20 22 50 58 81 83 98 102 110 111 120 128 130 141 144
24
1 2 5 11 18 21 23 26 27 47 48 53 60 70 93 108 115 117 119 121 122 126 141 146
13
9 12 15 17 20 35 42 46 50 69 78 92 108
20
5 22 28 32 34 43 47 48 56 66 68 74 75 88 97 103 105 122 149 150
18
3 5 8 12 21 38 60 62 68 72 99 102 107 119 123 124 143 146
