150 40
2
84 27 11 30 42 82 46 10 34 61 82 73 100 19 89 6 56 28 21 66 31 57 27 16 75 44 68 67 95 43 22 64 94 97 87 69 39 40 4 19 34 35 58 52 70 90 88 78 98 32 91 93 23 48 57 70 71 11 48 11 96 21 45 89 53 68 50 85 60 65 46 41 60 52 79 60 48 87 22 44 49 90 45 62 8 83 45 50 10 70 64 34 77 53 6 22 26 11 51 4 53 71 58 46 27 90 33 84 45 39 70 98 79 60 11 77 79 41 37 20 99 18 50 19 79 61 16 12 10 2 86 84 38 10 28 46 54 49 62 63 63 51 45 94 83 76 6 58 89 62
20 51 55 97 55 23 11 69 99 56 10 5 79 30 49 93 26 79 9 2 4 30 49 1 62 83 51 12 83 6 52 99 36 45 26 32 24 5 74 39 100 37 79 53 63 1 87 15 97 21 77 45 78 31 26 62 1 29 68 91 47 97 29 6 69 21 98 57 97 78 69 7 84 19 9 46 12 67 99 91 93 87 25 80 26 6 78 98 82 62 96 9 11 26 8 63 5 39 52 45 60 81 89 83 76 55 60 80 47 41 83 98 38 61 5 97 81 5 38 89 64 56 12 72 63 20 48 55 56 29 51 11 59 1 3 91 83 68 48 21 43 26 19 47 53 82 54 12 12 97
33
6 13 26 33 34 35 38 45 47 55 57 66 69 70 80 81 83 84 85 98 100 101 109 112 114 116 121 127 135 141 144 147 148
29
18 25 37 39 43 46 48 52 53 71 83 84 85 88 104 108 109 112 113 123 126 127 131 135 141 143 144 146 149
31
2 14 18 21 22 25 39 41 43 47 53 59 60 61 64 65 70 74 80 101 103 105 108 113 116 120 122 130 134 137 139
28
1 6 14 15 41 44 52 55 63 65 72 74 78 81 85 95 96 100 103 104 106 119 124 126 137 140 141 148
29
2 11 21 22 26 28 32 33 36 45 52 55 57 64 68 79 80 81 84 87 92 104 107 118 128 132 136 139 148
23
10 13 37 39 56 58 65 71 73 74 84 85 87 93 95 104 114 116 129 132 135 139 140
32
3 7 9 10 11 13 17 22 29 33 35 38 41 48 51 67 80 88 90 95 100 102 106 124 125 127 129 134 138 144 146 148
36
3 7 13 16 20 21 26 28 36 40 44 46 47 52 56 57 61 63 68 73 78 86 92 94 99 109 110 119 122 123 127 131 138 141 142 149
27
1 6 8 17 18 19 25 28 32 36 69 81 86 87 91 94 98 99 101 104 114 118 120 125 126 132 135
37
2 4 6 7 8 9 11 17 18 21 23 31 42 43 44 50 52 54 58 60 69 79 86 87 89 91 92 96 107 110 113 118 121 123 130 142 149
36
1 7 9 10 20 22 23 25 26 31 37 38 47 48 49 52 54 61 65 72 80 81 87 94 98 101 102 105 106 111 121 137 142 144 146 148
37
5 14 22 24 33 36 38 39 42 47 48 50 55 61 65 67 73 79 84 85 86 89 93 94 99 101 106 107 108 118 119 121 122 130 139 141 144
27
2 11 12 13 15 18 24 27 28 43 52 54 55 57 58 68 72 96 102 108 111 124 127 129 130 131 135
32
7 8 10 18 26 39 42 45 48 53 58 60 61 73 76 85 87 94 96 100 103 105 110 114 119 127 128 134 138 141 144 149
28
8 12 16 18 23 24 29 41 44 45 61 63 67 68 70 71 74 76 77 80 81 93 116 124 131 134 142 148
24
1 7 12 13 27 41 58 59 67 71 72 78 79 92 95 106 107 110 120 129 130 140 141 142
31
11 28 37 38 39 44 58 62 64 70 71 72 74 76 78 95 98 100 106 107 108 117 129 132 133 141 142 144 145 147 150
25
1 4 11 20 26 29 39 43 48 73 77 84 100 104 106 109 114 121 124 129 136 139 140 142 147
29
1 10 19 21 39 49 60 61 62 70 73 74 87 100 101 104 106 111 116 117 118 122 123 124 128 129 134 139 148
39
4 5 14 15 18 39 41 42 43 44 46 55 58 64 66 75 82 83 89 90 91 94 101 106 108 114 115 119 120 123 124 125 126 132 135 137 142 145 148
23
1 12 24 29 32 37 40 45 47 59 64 67 76 82 88 91 94 107 108 125 142 144 146
32
12 13 15 17 18 20 21 28 35 39 46 47 52 53 63 67 71 72 75 76 81 86 95 103 105 107 116 130 132 139 141 143
31
10 14 24 28 29 31 34 35 45 48 53 56 62 64 68 73 76 85 87 98 100 101 106 107 115 116 122 123 130 133 146
27
1 2 6 23 29 32 34 35 40 41 49 51 52 65 74 88 104 105 107 111 114 116 122 130 137 140 147
37
3 5 6 16 24 25 37 39 42 49 54 55 58 61 62 65 68 73 78 82 84 85 86 88 89 92 103 104 106 113 117 123 124 131 134 140 150
30
11 18 20 24 26 31 34 39 52 56 57 62 66 73 74 78 86 87 88 95 97 99 104 112 119 127 129 144 146 148
37
3 9 15 22 29 32 35 52 55 57 59 62 64 70 78 82 87 90 91 96 97 102 103 105 106 108 111 114 115 116 130 137 141 144 147 148 150
32
4 6 8 9 10 13 19 26 29 30 40 44 45 46 71 73 81 83 85 86 93 97 100 108 110 122 131 133 135 138 140 147
28
6 7 19 24 26 31 32 35 63 71 72 74 79 81 83 87 91 93 94 95 101 105 108 112 129 138 147 150
24
2 16 19 21 25 29 57 60 63 64 66 71 73 89 92 98 101 109 112 114 134 142 145 147
26
3 15 17 18 19 36 46 47 48 56 61 73 90 91 95 98 102 113 119 124 125 126 131 135 139 147
28
2 3 10 12 16 25 30 40 44 48 54 64 70 82 89 95 112 113 116 117 119 123 129 134 136 138 140 149
37
2 6 8 10 13 15 16 18 23 28 32 37 42 45 52 53 61 65 71 77 83 86 88 89 91 92 97 101 102 109 114 126 127 128 140 147 149
35
5 11 14 17 19 22 23 25 29 35 36 39 47 55 69 75 78 83 87 89 102 103 109 110 114 117 123 125 131 136 137 138 139 142 150
18
7 11 14 24 30 35 49 55 61 64 69 85 90 94 105 106 122 146
30
7 10 23 32 35 36 48 53 56 63 71 80 89 97 103 107 112 121 123 124 127 132 134 135 136 137 140 145 147 149
28
6 16 21 27 28 29 33 35 37 38 52 56 63 76 84 87 116 117 119 124 125 129 131 134 136 138 144 146
34
7 8 14 21 22 23 26 27 28 32 38 40 50 53 58 68 69 74 78 97 100 103 114 115 116 117 119 124 126 127 135 137 146 149
31
8 19 20 22 24 27 29 31 41 51 58 59 62 69 74 77 79 84 94 107 109 113 114 120 131 133 136 141 146 147 150
26
3 4 5 8 9 13 15 26 29 47 48 63 65 66 67 69 77 81 82 91 96 112 131 133 137 143
