variance <  -2.7952;variance = (-2.7952 - -0.4031);variance = (-0.4031 - 0.320165);variance = (0.320165 - 1.7907);variance = (1.7907 - 2.3921);variance >=  2.3921;skewness <  -6.94555;skewness = (-6.94555 - -5.62225);skewness = (-5.62225 - -4.9818);skewness = (-4.9818 - -2.3021);skewness = (-2.3021 - 5.21045);skewness = (5.21045 - 9.61695);skewness >=  9.61695;curtosis <  -4.42285;curtosis = (-4.42285 - 8.83885);curtosis >=  8.83885;class
0;1;0;0;0;0;0;0;0;0;0;0;1;0;1;0;0
0;0;0;0;0;1;0;0;1;0;0;0;0;0;1;0;0
1;0;0;0;0;0;0;0;0;0;1;0;0;0;1;0;1
0;0;0;1;0;0;0;0;0;0;1;0;0;0;1;0;1
0;0;0;1;0;0;0;0;0;1;0;0;0;0;1;0;0
0;1;0;0;0;0;0;0;0;0;1;0;0;0;1;0;0
1;0;0;0;0;0;1;0;0;0;0;0;0;0;0;1;1
0;0;0;1;0;0;0;0;0;0;1;0;0;0;1;0;0
0;0;0;0;0;1;0;0;0;1;0;0;0;0;1;0;0
0;1;0;0;0;0;0;0;0;0;1;0;0;0;1;0;1
0;0;0;1;0;0;0;0;0;0;1;0;0;1;0;0;1
0;0;0;0;0;1;0;0;0;0;0;1;0;0;1;0;0
0;0;0;1;0;0;0;0;0;0;0;1;0;0;1;0;0
0;0;0;0;0;1;0;0;0;0;1;0;0;0;1;0;0
0;1;0;0;0;0;0;1;0;0;0;0;0;0;1;0;1
0;0;0;1;0;0;0;0;0;0;1;0;0;0;1;0;1
0;1;0;0;0;0;0;0;0;0;0;0;1;0;1;0;0
0;1;0;0;0;0;0;0;0;0;1;0;0;0;1;0;1
1;0;0;0;0;0;0;1;0;0;0;0;0;0;0;1;1
0;0;0;0;0;1;0;0;0;0;0;1;0;0;1;0;0
0;0;0;0;0;1;0;0;0;1;0;0;0;0;1;0;0
0;0;1;0;0;0;0;0;0;0;1;0;0;0;1;0;0
0;1;0;0;0;0;0;0;0;0;1;0;0;0;1;0;1
0;0;1;0;0;0;0;0;0;0;0;1;0;0;1;0;0
1;0;0;0;0;0;1;0;0;0;0;0;0;0;0;1;1
0;0;0;1;0;0;0;0;1;0;0;0;0;0;1;0;0
1;0;0;0;0;0;0;0;0;0;1;0;0;0;1;0;1
1;0;0;0;0;0;0;0;0;0;0;1;0;0;1;0;1
0;0;0;0;1;0;0;1;0;0;0;0;0;0;1;0;0
0;1;0;0;0;0;0;0;0;0;1;0;0;0;1;0;1
0;0;1;0;0;0;0;0;0;0;1;0;0;0;1;0;1
0;0;0;1;0;0;0;0;0;0;1;0;0;0;1;0;0
0;0;0;0;0;1;0;0;0;0;0;0;1;0;1;0;0
0;0;0;1;0;0;0;0;0;0;1;0;0;0;1;0;0
0;0;0;1;0;0;0;0;0;0;1;0;0;0;1;0;0
1;0;0;0;0;0;1;0;0;0;0;0;0;0;0;1;1
0;1;0;0;0;0;0;0;0;0;1;0;0;0;1;0;1
0;1;0;0;0;0;0;0;0;0;1;0;0;0;1;0;1
0;0;0;0;0;1;0;0;0;0;1;0;0;0;1;0;0
0;1;0;0;0;0;0;0;0;0;1;0;0;0;1;0;1
1;0;0;0;0;0;1;0;0;0;0;0;0;0;0;1;1
0;0;0;0;0;1;0;0;0;1;0;0;0;0;1;0;0
0;0;0;0;1;0;0;0;1;0;0;0;0;0;1;0;0
0;0;0;0;0;1;0;0;1;0;0;0;0;0;1;0;0
1;0;0;0;0;0;0;0;1;0;0;0;0;0;0;1;1
0;0;0;0;0;1;0;0;0;0;1;0;0;0;1;0;0
0;0;0;0;0;1;0;0;0;0;1;0;0;0;1;0;0
0;0;0;0;1;0;0;0;0;0;1;0;0;0;1;0;0
0;0;0;0;0;1;0;0;0;1;0;0;0;0;1;0;0
0;0;0;0;0;1;0;0;0;1;0;0;0;0;1;0;0
0;1;0;0;0;0;0;0;0;0;1;0;0;0;1;0;1
0;1;0;0;0;0;0;0;0;0;1;0;0;0;1;0;1
0;1;0;0;0;0;0;1;0;0;0;0;0;0;1;0;1
0;0;0;1;0;0;0;0;0;0;1;0;0;0;1;0;0
0;1;0;0;0;0;0;0;0;0;1;0;0;0;1;0;1
0;1;0;0;0;0;0;0;0;0;0;1;0;0;1;0;0
0;0;0;1;0;0;0;0;0;0;1;0;0;0;1;0;1
0;1;0;0;0;0;0;0;0;0;0;0;1;0;1;0;0
0;1;0;0;0;0;0;0;0;0;1;0;0;0;1;0;1
0;0;0;0;0;1;0;0;0;0;0;1;0;0;1;0;0
0;0;0;0;0;1;0;0;0;0;1;0;0;0;1;0;0
0;0;0;0;1;0;0;0;0;0;0;0;1;0;1;0;0
0;0;1;0;0;0;0;0;0;0;1;0;0;0;1;0;1
0;0;0;0;0;1;0;0;0;0;1;0;0;0;1;0;0
0;1;0;0;0;0;0;0;0;0;0;1;0;0;1;0;0
0;0;0;0;0;1;0;0;0;0;1;0;0;0;1;0;0
0;0;1;0;0;0;0;0;0;0;0;1;0;0;1;0;0
0;0;0;0;0;1;0;0;0;0;0;1;0;0;1;0;0
0;1;0;0;0;0;0;0;0;0;1;0;0;0;1;0;1
0;1;0;0;0;0;0;0;0;0;1;0;0;0;1;0;1
0;0;0;1;0;0;0;0;0;0;0;1;0;0;1;0;0
0;0;1;0;0;0;0;0;0;0;1;0;0;0;1;0;1
0;1;0;0;0;0;0;0;0;0;1;0;0;0;1;0;1
0;0;0;0;0;1;0;0;0;0;1;0;0;0;1;0;0
0;0;0;0;0;1;0;0;0;0;0;1;0;0;1;0;0
0;0;1;0;0;0;0;0;0;0;0;1;0;0;1;0;0
0;0;0;0;1;0;0;0;0;0;1;0;0;0;1;0;0
0;0;0;0;0;1;0;0;0;0;1;0;0;0;1;0;0
0;0;1;0;0;0;0;0;0;0;1;0;0;0;1;0;1
0;0;0;0;0;1;0;0;0;0;1;0;0;0;1;0;0
0;0;0;0;0;1;0;0;0;0;0;1;0;0;1;0;0
0;0;1;0;0;0;0;0;0;0;1;0;0;0;1;0;0
0;0;0;0;0;1;0;0;0;0;1;0;0;0;1;0;0
0;1;0;0;0;0;0;0;0;0;1;0;0;0;1;0;1
0;0;0;0;1;0;0;0;0;0;1;0;0;0;1;0;0
0;1;0;0;0;0;1;0;0;0;0;0;0;0;1;0;1
0;0;0;0;0;1;0;0;0;0;0;1;0;0;1;0;0
0;0;0;0;0;1;0;0;0;0;0;0;1;0;1;0;0
0;1;0;0;0;0;0;0;0;0;1;0;0;0;1;0;1
0;1;0;0;0;0;1;0;0;0;0;0;0;0;0;1;1
0;0;0;0;0;1;0;0;0;0;0;1;0;0;1;0;0
1;0;0;0;0;0;0;1;0;0;0;0;0;0;0;1;1
0;1;0;0;0;0;0;0;0;0;1;0;0;0;1;0;1
0;0;0;0;0;1;0;0;0;0;0;0;1;0;1;0;0
0;1;0;0;0;0;0;0;0;0;1;0;0;0;1;0;1
1;0;0;0;0;0;0;0;0;0;1;0;0;0;1;0;1
0;0;1;0;0;0;0;0;0;0;1;0;0;0;1;0;1
0;0;0;0;0;1;0;0;0;1;0;0;0;0;1;0;0
0;0;1;0;0;0;0;0;0;0;1;0;0;0;1;0;1
0;0;0;1;0;0;0;0;0;0;0;1;0;0;1;0;0
0;0;0;0;0;1;0;0;0;0;0;0;1;0;1;0;0
1;0;0;0;0;0;0;0;0;0;1;0;0;0;1;0;1
0;0;0;0;0;1;0;0;0;0;0;0;1;0;1;0;0
0;0;0;1;0;0;0;0;0;0;0;1;0;0;1;0;0
0;0;0;0;0;1;0;0;0;0;1;0;0;0;1;0;0
0;0;0;1;0;0;0;0;0;0;1;0;0;0;1;0;0
0;1;0;0;0;0;0;1;0;0;0;0;0;0;1;0;1
0;0;0;1;0;0;0;0;0;1;0;0;0;0;1;0;0
0;1;0;0;0;0;0;0;0;1;0;0;0;0;1;0;1
0;1;0;0;0;0;0;0;0;0;1;0;0;0;1;0;1
0;0;0;1;0;0;0;0;0;0;1;0;0;0;1;0;1
0;1;0;0;0;0;0;0;0;0;1;0;0;0;1;0;1
0;0;0;0;0;1;0;0;0;0;0;1;0;0;1;0;0
0;0;0;1;0;0;0;0;0;0;0;1;0;0;1;0;0
1;0;0;0;0;0;0;0;0;0;0;1;0;0;1;0;1
0;0;0;0;0;1;0;0;0;0;1;0;0;0;1;0;0
0;0;0;0;1;0;0;0;0;0;1;0;0;0;1;0;0
0;0;1;0;0;0;0;0;0;0;1;0;0;0;1;0;1
0;0;1;0;0;0;0;0;0;0;0;1;0;0;1;0;0
0;1;0;0;0;0;0;0;0;0;1;0;0;0;1;0;1
0;1;0;0;0;0;0;0;0;0;0;0;1;0;1;0;0
1;0;0;0;0;0;0;0;0;0;1;0;0;0;1;0;1
0;1;0;0;0;0;0;0;0;0;1;0;0;0;1;0;1
0;0;0;1;0;0;0;0;0;0;1;0;0;0;1;0;0
0;0;1;0;0;0;0;0;0;0;0;1;0;0;1;0;0
0;0;0;1;0;0;0;0;0;0;1;0;0;0;1;0;0
1;0;0;0;0;0;1;0;0;0;0;0;0;0;0;1;1
0;0;0;1;0;0;0;0;0;0;0;1;0;0;1;0;0
0;0;0;1;0;0;0;0;0;0;1;0;0;0;1;0;0
0;0;0;0;0;1;0;0;0;1;0;0;0;0;1;0;0
0;0;0;0;1;0;0;0;0;0;1;0;0;0;1;0;0
0;0;0;0;1;0;0;0;0;0;1;0;0;0;1;0;0
1;0;0;0;0;0;0;0;0;0;1;0;0;0;1;0;1
0;0;0;0;0;1;0;0;0;1;0;0;0;0;1;0;0
0;0;0;0;0;1;0;0;0;0;1;0;0;0;1;0;0
0;0;0;0;0;1;0;0;0;0;0;0;1;0;1;0;0
0;1;0;0;0;0;0;0;0;0;1;0;0;0;1;0;1
1;0;0;0;0;0;0;0;0;0;0;1;0;0;1;0;1
0;1;0;0;0;0;0;0;0;1;0;0;0;0;1;0;1
0;0;0;0;0;1;0;0;0;0;1;0;0;0;1;0;0
0;1;0;0;0;0;0;0;0;0;0;0;1;0;1;0;0
0;0;0;0;0;1;0;0;0;0;0;0;1;0;1;0;0
0;1;0;0;0;0;0;0;0;0;1;0;0;0;1;0;1
0;0;0;0;0;1;0;0;0;0;0;1;0;0;1;0;0
1;0;0;0;0;0;1;0;0;0;0;0;0;0;0;1;1
0;0;0;1;0;0;0;0;0;0;1;0;0;0;1;0;1
0;0;0;0;0;1;0;0;0;0;1;0;0;0;1;0;0
0;0;1;0;0;0;0;0;0;0;0;1;0;0;1;0;0
0;1;0;0;0;0;0;0;0;0;1;0;0;0;1;0;1
0;0;0;0;0;1;0;0;0;0;1;0;0;0;1;0;0
0;1;0;0;0;0;0;0;0;0;1;0;0;0;1;0;1
0;0;0;1;0;0;0;0;0;0;1;0;0;1;0;0;1
1;0;0;0;0;0;0;0;0;0;1;0;0;0;1;0;1
0;0;0;0;0;1;0;0;0;0;1;0;0;0;1;0;0
0;1;0;0;0;0;0;1;0;0;0;0;0;0;1;0;1
0;0;0;1;0;0;0;0;0;1;0;0;0;0;1;0;0
0;0;0;1;0;0;0;0;0;1;0;0;0;0;1;0;0
1;0;0;0;0;0;0;0;0;0;1;0;0;0;1;0;1
0;0;0;0;1;0;0;0;0;1;0;0;0;0;1;0;0
0;0;0;0;0;1;0;0;0;0;1;0;0;0;1;0;0
0;1;0;0;0;0;0;1;0;0;0;0;0;0;1;0;1
1;0;0;0;0;0;1;0;0;0;0;0;0;0;0;1;1
0;0;1;0;0;0;0;0;0;0;0;1;0;0;1;0;0
0;0;0;0;1;0;0;0;0;0;0;1;0;0;1;0;0
0;0;0;1;0;0;0;0;0;0;1;0;0;0;1;0;0
0;0;0;0;0;1;0;0;0;0;0;1;0;0;1;0;0
0;0;0;0;0;1;0;0;0;0;1;0;0;0;1;0;0
1;0;0;0;0;0;0;0;0;0;1;0;0;0;1;0;1
0;1;0;0;0;0;0;0;0;0;1;0;0;0;1;0;1
0;0;0;0;1;0;0;1;0;0;0;0;0;0;1;0;0
0;0;0;0;0;1;0;0;0;1;0;0;0;0;1;0;0
0;1;0;0;0;0;0;0;0;0;0;0;1;0;1;0;0
0;0;0;0;0;1;0;0;0;0;0;1;0;0;1;0;0
0;0;0;1;0;0;0;0;0;0;1;0;0;0;1;0;0
0;0;0;0;0;1;0;0;0;1;0;0;0;0;1;0;0
0;1;0;0;0;0;0;0;0;0;1;0;0;0;1;0;1
0;1;0;0;0;0;0;0;0;0;1;0;0;0;1;0;1
0;0;0;1;0;0;0;0;0;0;0;1;0;0;1;0;0
0;1;0;0;0;0;0;0;0;0;1;0;0;0;1;0;1
0;1;0;0;0;0;0;0;0;0;1;0;0;0;1;0;1
1;0;0;0;0;0;1;0;0;0;0;0;0;0;0;1;1
0;0;0;0;0;1;0;0;0;0;1;0;0;0;1;0;0
0;1;0;0;0;0;0;0;0;0;1;0;0;0;1;0;1
0;1;0;0;0;0;0;0;0;0;1;0;0;0;1;0;0
1;0;0;0;0;0;0;0;0;0;1;0;0;0;1;0;1
0;0;0;0;0;1;0;0;0;0;0;1;0;0;1;0;0
0;0;0;0;1;0;0;0;0;0;1;0;0;0;1;0;0
0;0;0;0;0;1;0;0;0;0;0;0;1;0;1;0;0
0;0;0;0;0;1;0;0;0;0;1;0;0;0;1;0;0
0;0;1;0;0;0;0;0;0;0;1;0;0;0;1;0;1
0;0;1;0;0;0;0;0;0;0;0;1;0;0;1;0;0
1;0;0;0;0;0;0;0;0;0;1;0;0;0;1;0;1
0;0;1;0;0;0;0;0;0;0;1;0;0;0;1;0;1
0;1;0;0;0;0;0;0;0;0;1;0;0;0;1;0;1
0;1;0;0;0;0;1;0;0;0;0;0;0;0;1;0;1
0;0;0;0;0;1;0;0;0;0;0;1;0;0;1;0;0
0;0;1;0;0;0;0;0;0;0;1;0;0;0;1;0;1
0;1;0;0;0;0;0;0;0;0;0;0;1;0;1;0;0
0;0;0;1;0;0;0;0;0;0;0;1;0;0;1;0;0
0;0;0;0;0;1;0;0;0;0;0;1;0;0;1;0;0
0;0;0;0;0;1;0;0;0;0;0;1;0;0;1;0;0
0;0;0;0;0;1;0;0;0;0;1;0;0;0;1;0;0
0;0;0;0;0;1;0;0;0;0;1;0;0;0;1;0;0
0;0;0;0;1;0;0;0;0;0;0;1;0;0;1;0;0
0;0;0;0;1;0;0;1;0;0;0;0;0;0;1;0;0
0;1;0;0;0;0;0;0;0;0;0;0;1;0;1;0;0
0;0;1;0;0;0;0;0;0;0;1;0;0;1;0;0;1
1;0;0;0;0;0;0;1;0;0;0;0;0;0;0;1;1
0;0;0;1;0;0;0;0;0;0;0;0;1;0;1;0;0
0;0;0;1;0;0;0;0;0;0;1;0;0;0;1;0;0
0;0;0;0;1;0;0;0;0;0;0;1;0;0;1;0;0
0;0;1;0;0;0;0;0;0;0;0;1;0;0;1;0;0
0;1;0;0;0;0;0;0;0;0;0;1;0;0;1;0;0
0;1;0;0;0;0;0;0;0;0;1;0;0;0;1;0;1
0;0;0;0;0;1;0;0;0;0;0;1;0;0;1;0;0
0;0;1;0;0;0;0;0;0;0;1;0;0;0;1;0;1
1;0;0;0;0;0;0;0;0;0;0;1;0;0;1;0;1
0;0;1;0;0;0;0;0;0;0;0;0;1;0;1;0;0
1;0;0;0;0;0;0;0;0;0;1;0;0;0;1;0;1
1;0;0;0;0;0;0;1;0;0;0;0;0;0;0;1;1
0;0;0;0;0;1;0;0;0;1;0;0;0;0;1;0;0
0;0;0;0;0;1;0;0;0;0;1;0;0;0;1;0;0
1;0;0;0;0;0;0;0;0;0;1;0;0;0;1;0;1
0;0;0;0;0;1;0;0;0;1;0;0;0;0;1;0;0
1;0;0;0;0;0;0;0;1;0;0;0;0;0;0;1;1
0;1;0;0;0;0;0;0;0;0;1;0;0;0;1;0;1
0;0;0;1;0;0;0;0;0;0;0;0;1;0;1;0;0
0;0;0;0;0;1;0;0;0;0;1;0;0;0;1;0;0
0;0;0;0;0;1;0;0;0;1;0;0;0;0;1;0;0
0;0;0;1;0;0;0;0;0;0;0;1;0;0;1;0;0
0;0;0;1;0;0;0;0;0;0;1;0;0;0;1;0;0
1;0;0;0;0;0;0;0;0;0;0;1;0;0;1;0;1
0;0;0;0;0;1;0;0;0;1;0;0;0;0;1;0;0
1;0;0;0;0;0;1;0;0;0;0;0;0;0;0;1;1
0;1;0;0;0;0;0;0;0;0;1;0;0;0;1;0;1
0;1;0;0;0;0;0;0;0;0;0;0;1;0;1;0;0
0;0;0;1;0;0;0;1;0;0;0;0;0;0;1;0;0
0;0;0;0;0;1;0;0;0;0;1;0;0;0;1;0;0
1;0;0;0;0;0;0;0;0;0;1;0;0;0;1;0;1
0;0;0;0;0;1;0;0;0;0;1;0;0;0;1;0;0
0;0;0;1;0;0;0;0;0;0;1;0;0;0;1;0;0
0;0;0;0;0;1;0;0;0;0;0;1;0;0;1;0;0
1;0;0;0;0;0;0;0;0;0;0;1;0;0;1;0;1
1;0;0;0;0;0;0;0;0;0;1;0;0;0;1;0;1
0;0;0;0;0;1;0;0;0;1;0;0;0;0;1;0;0
1;0;0;0;0;0;0;0;0;0;1;0;0;0;1;0;1
0;0;0;0;0;1;0;0;0;0;0;1;0;0;1;0;0
0;1;0;0;0;0;0;0;0;0;1;0;0;0;1;0;1
0;0;0;0;0;1;0;0;0;0;0;1;0;0;1;0;0
0;1;0;0;0;0;0;1;0;0;0;0;0;0;1;0;1
1;0;0;0;0;0;0;1;0;0;0;0;0;0;0;1;1
0;1;0;0;0;0;0;0;0;0;0;0;1;0;1;0;0
0;0;0;0;0;1;0;0;0;0;0;0;1;0;1;0;0
0;0;0;1;0;0;0;0;0;0;1;0;0;0;1;0;1
0;0;0;0;0;1;0;0;0;0;1;0;0;0;1;0;0
0;0;0;0;0;1;0;0;0;1;0;0;0;0;1;0;0
0;0;0;1;0;0;0;0;0;0;0;1;0;0;1;0;0
1;0;0;0;0;0;0;0;0;0;1;0;0;0;1;0;1
0;1;0;0;0;0;1;0;0;0;0;0;0;0;0;1;1
0;1;0;0;0;0;0;0;0;0;1;0;0;0;1;0;1
0;1;0;0;0;0;0;0;0;0;1;0;0;0;1;0;1
0;0;0;0;0;1;0;0;0;0;1;0;0;0;1;0;0
0;0;0;0;0;1;0;0;0;0;0;0;1;0;1;0;0
0;0;0;1;0;0;0;0;0;0;1;0;0;0;1;0;0
0;0;1;0;0;0;0;0;0;0;1;0;0;0;1;0;1
0;0;1;0;0;0;0;0;0;0;1;0;0;0;1;0;1
0;1;0;0;0;0;0;0;1;0;0;0;0;0;1;0;1
0;0;0;0;0;1;0;0;0;0;1;0;0;0;1;0;0
0;0;0;1;0;0;0;0;0;0;1;0;0;0;1;0;1
0;0;0;0;0;1;0;0;0;1;0;0;0;0;1;0;0
0;0;0;1;0;0;0;0;0;1;0;0;0;0;1;0;1
1;0;0;0;0;0;1;0;0;0;0;0;0;0;0;1;1
0;0;0;0;0;1;0;0;0;0;0;1;0;0;1;0;0
0;1;0;0;0;0;0;0;0;0;1;0;0;0;1;0;1
0;1;0;0;0;0;0;0;0;0;1;0;0;0;1;0;1
1;0;0;0;0;0;0;0;0;0;0;1;0;0;1;0;1
0;1;0;0;0;0;0;0;0;0;0;0;1;0;1;0;0
0;1;0;0;0;0;0;0;0;0;1;0;0;0;1;0;1
0;0;0;0;0;1;0;0;0;0;1;0;0;0;1;0;0
0;0;0;0;1;0;0;0;0;0;0;1;0;0;1;0;0
0;1;0;0;0;0;0;0;0;0;1;0;0;0;1;0;1
0;0;0;0;0;1;0;0;0;0;0;1;0;0;1;0;0
0;0;0;0;0;1;0;0;0;0;1;0;0;0;1;0;0
0;0;1;0;0;0;0;0;0;0;1;0;0;0;1;0;1
0;0;0;1;0;0;0;0;0;0;1;0;0;0;1;0;0
0;0;0;0;1;0;0;0;0;0;0;1;0;0;1;0;0
0;0;0;1;0;0;0;0;0;0;1;0;0;0;1;0;1
1;0;0;0;0;0;1;0;0;0;0;0;0;0;0;1;1
0;0;0;1;0;0;0;0;0;0;0;1;0;0;1;0;0
0;0;1;0;0;0;0;0;0;0;1;0;0;0;1;0;1
0;0;0;0;0;1;0;0;0;0;1;0;0;0;1;0;0
0;0;0;0;1;0;0;0;0;0;0;1;0;0;1;0;0
0;1;0;0;0;0;0;0;0;0;0;0;1;0;1;0;0
0;1;0;0;0;0;0;0;0;0;1;0;0;0;1;0;1
0;0;1;0;0;0;0;0;0;0;0;1;0;0;1;0;0
0;0;0;0;0;1;0;0;0;0;0;1;0;0;1;0;0
0;0;0;0;0;1;0;0;0;0;0;1;0;0;1;0;0
0;0;0;0;0;1;0;0;0;0;1;0;0;0;1;0;0
0;1;0;0;0;0;0;0;0;1;0;0;0;0;1;0;1
0;0;0;1;0;0;0;0;0;1;0;0;0;0;1;0;0
0;0;0;1;0;0;0;0;0;0;1;0;0;1;0;0;1
0;0;0;0;0;1;0;0;0;1;0;0;0;0;1;0;0
0;0;0;0;0;1;0;0;0;1;0;0;0;0;1;0;0
1;0;0;0;0;0;0;0;0;0;0;1;0;0;1;0;1
0;0;0;0;1;0;0;0;0;0;0;1;0;0;1;0;0
0;0;0;0;0;1;0;0;0;0;0;1;0;0;1;0;0
0;0;0;1;0;0;0;0;0;0;1;0;0;1;0;0;1
0;0;0;0;0;1;0;0;0;0;0;1;0;1;0;0;0
0;0;0;0;0;1;0;0;0;0;0;1;0;0;1;0;0
0;1;0;0;0;0;0;0;0;0;1;0;0;0;1;0;1
0;0;0;1;0;0;0;0;0;0;0;1;0;0;1;0;0
0;1;0;0;0;0;0;0;0;0;1;0;0;0;1;0;1
0;0;0;0;0;1;0;0;0;0;0;0;1;0;1;0;0
0;0;0;1;0;0;0;0;0;0;1;0;0;1;0;0;1
1;0;0;0;0;0;1;0;0;0;0;0;0;0;0;1;1
0;0;0;1;0;0;0;0;0;0;1;0;0;0;1;0;1
0;0;0;0;0;1;0;0;0;0;1;0;0;0;1;0;0
1;0;0;0;0;0;0;0;0;0;1;0;0;0;1;0;1
0;0;0;0;0;1;0;0;0;1;0;0;0;0;1;0;0
1;0;0;0;0;0;1;0;0;0;0;0;0;0;0;1;1
0;1;0;0;0;0;0;0;0;0;1;0;0;0;1;0;1
0;0;0;0;1;0;0;0;0;0;0;1;0;0;1;0;0
0;1;0;0;0;0;1;0;0;0;0;0;0;0;0;1;1
0;0;0;0;0;1;0;0;0;0;0;1;0;0;1;0;0
0;0;0;0;0;1;0;0;0;0;0;1;0;0;1;0;0
0;0;0;0;0;1;0;0;0;0;1;0;0;0;1;0;0
1;0;0;0;0;0;1;0;0;0;0;0;0;0;0;1;1
0;0;1;0;0;0;0;0;0;0;1;0;0;1;0;0;1
0;0;0;1;0;0;0;0;0;0;0;1;0;0;1;0;0
0;0;0;1;0;0;0;0;0;0;1;0;0;0;1;0;1
0;1;0;0;0;0;1;0;0;0;0;0;0;0;1;0;1
1;0;0;0;0;0;0;0;0;0;0;1;0;0;1;0;1
0;0;1;0;0;0;0;0;0;0;1;0;0;0;1;0;0
0;0;0;0;0;1;0;0;0;0;1;0;0;0;1;0;0
0;0;0;0;0;1;0;0;0;1;0;0;0;0;1;0;0
0;1;0;0;0;0;0;0;0;0;0;0;1;0;1;0;0
0;0;0;0;0;1;0;0;0;0;0;1;0;0;1;0;0
0;1;0;0;0;0;0;0;0;0;1;0;0;0;1;0;1
1;0;0;0;0;0;1;0;0;0;0;0;0;0;0;1;1
1;0;0;0;0;0;0;0;0;0;1;0;0;0;1;0;1
0;0;0;0;1;0;0;0;0;0;1;0;0;0;1;0;0
0;0;0;1;0;0;0;0;0;0;0;1;0;0;1;0;0
0;0;0;1;0;0;0;0;0;0;0;1;0;0;1;0;0
0;0;0;0;0;1;0;0;0;1;0;0;0;0;1;0;0
0;1;0;0;0;0;0;0;0;0;0;0;1;0;1;0;0
0;1;0;0;0;0;0;1;0;0;0;0;0;0;1;0;1
0;0;0;0;0;1;0;0;0;0;0;1;0;1;0;0;0
0;0;0;0;0;1;0;0;0;0;1;0;0;0;1;0;0
0;1;0;0;0;0;0;0;0;0;1;0;0;0;1;0;1
0;0;0;0;0;1;0;0;0;1;0;0;0;0;1;0;0
1;0;0;0;0;0;0;0;0;0;1;0;0;0;1;0;1
0;0;0;1;0;0;0;0;0;0;1;0;0;0;1;0;0
0;0;0;1;0;0;0;0;0;0;1;0;0;0;1;0;0
0;1;0;0;0;0;0;0;0;1;0;0;0;0;1;0;0
0;0;0;0;0;1;0;0;0;0;1;0;0;0;1;0;0
0;1;0;0;0;0;0;0;0;0;1;0;0;0;1;0;1
0;0;0;1;0;0;0;0;0;0;0;1;0;0;1;0;0
0;1;0;0;0;0;0;0;0;0;0;0;1;0;1;0;0
0;0;0;0;0;1;0;0;0;1;0;0;0;0;1;0;0
0;0;1;0;0;0;0;0;0;0;0;1;0;0;1;0;0
0;0;0;0;0;1;0;0;0;0;0;0;1;0;1;0;0
0;0;1;0;0;0;0;0;0;0;0;1;0;0;1;0;0
0;1;0;0;0;0;0;0;0;0;1;0;0;0;1;0;1
1;0;0;0;0;0;0;1;0;0;0;0;0;0;0;1;1
0;0;1;0;0;0;0;0;0;0;1;0;0;0;1;0;1
0;0;0;0;1;0;0;0;0;0;1;0;0;0;1;0;0
1;0;0;0;0;0;0;0;0;0;1;0;0;0;1;0;1
0;0;0;0;0;1;0;0;0;0;0;1;0;0;1;0;0
0;0;0;0;0;1;0;0;0;1;0;0;0;0;1;0;0
0;0;0;0;0;1;0;0;0;0;1;0;0;0;1;0;0
0;1;0;0;0;0;0;0;0;0;1;0;0;0;1;0;1
0;0;0;0;0;1;0;0;0;0;0;1;0;0;1;0;0
0;0;0;0;1;0;0;0;0;0;0;1;0;0;1;0;0
1;0;0;0;0;0;1;0;0;0;0;0;0;0;0;1;1
0;0;0;0;0;1;0;0;0;0;1;0;0;0;1;0;0
0;0;0;0;0;1;0;0;0;0;0;1;0;0;1;0;0
0;0;0;0;0;1;0;0;0;0;0;1;0;0;1;0;0
0;0;0;1;0;0;0;0;0;0;1;0;0;0;1;0;0
0;1;0;0;0;0;0;0;0;0;1;0;0;0;1;0;1
0;0;0;0;1;0;0;0;0;0;0;1;0;0;1;0;0
0;0;0;0;0;1;0;0;0;0;0;1;0;0;1;0;0
0;0;0;0;1;0;0;0;0;0;0;1;0;0;1;0;0
0;0;0;1;0;0;0;0;0;0;0;0;1;0;1;0;0
1;0;0;0;0;0;1;0;0;0;0;0;0;0;0;1;1
0;0;0;1;0;0;0;0;0;0;0;0;1;0;1;0;0
1;0;0;0;0;0;0;0;0;0;0;1;0;0;1;0;1
0;0;0;0;1;0;0;0;0;0;0;1;0;0;1;0;0
0;1;0;0;0;0;0;0;0;0;0;1;0;0;1;0;0
1;0;0;0;0;0;1;0;0;0;0;0;0;0;0;1;1
0;0;0;0;1;0;0;0;0;0;0;1;0;0;1;0;0
0;0;0;0;0;1;0;0;0;0;0;1;0;0;1;0;0
0;1;0;0;0;0;0;0;0;1;0;0;0;0;1;0;1
0;0;0;0;0;1;0;0;0;1;0;0;0;0;1;0;0
1;0;0;0;0;0;0;0;0;0;0;1;0;0;1;0;1
0;0;0;0;0;1;0;0;0;0;1;0;0;0;1;0;0
0;0;0;0;0;1;0;0;0;1;0;0;0;0;1;0;0
0;0;0;1;0;0;0;0;0;0;0;1;0;0;1;0;0
0;0;0;1;0;0;0;0;0;0;1;0;0;0;1;0;1
0;0;0;0;1;0;0;0;0;0;0;1;0;0;1;0;0
0;1;0;0;0;0;1;0;0;0;0;0;0;0;0;1;1
1;0;0;0;0;0;0;0;0;0;1;0;0;0;1;0;1
0;0;0;1;0;0;0;0;0;0;1;0;0;0;1;0;1
0;0;0;1;0;0;0;0;0;1;0;0;0;0;1;0;0
0;0;0;1;0;0;0;0;0;0;0;1;0;0;1;0;0
0;0;1;0;0;0;0;0;0;0;1;0;0;0;1;0;1
0;0;0;0;0;1;0;0;0;0;0;0;1;0;1;0;0
0;1;0;0;0;0;0;0;0;0;0;0;1;0;1;0;0
0;0;0;0;0;1;0;0;0;0;0;1;0;0;1;0;0
0;0;0;0;0;1;0;0;0;0;0;1;0;0;1;0;0
1;0;0;0;0;0;0;0;0;0;1;0;0;0;1;0;1
0;0;0;0;0;1;0;0;0;0;0;1;0;0;1;0;0
0;1;0;0;0;0;0;0;0;0;0;0;1;0;1;0;0
0;0;0;0;0;1;0;0;0;0;1;0;0;0;1;0;0
0;0;0;1;0;0;0;0;0;0;1;0;0;0;1;0;0
0;0;0;1;0;0;0;0;0;0;1;0;0;0;1;0;0
0;1;0;0;0;0;0;0;0;0;1;0;0;0;1;0;0
1;0;0;0;0;0;0;0;0;0;1;0;0;0;1;0;1
0;0;0;0;0;1;0;0;0;0;0;1;0;0;1;0;0
0;0;0;1;0;0;0;0;0;1;0;0;0;0;1;0;0
0;1;0;0;0;0;0;0;0;0;1;0;0;0;1;0;1
0;1;0;0;0;0;0;0;0;0;1;0;0;0;1;0;1
0;0;0;0;0;1;0;0;0;0;1;0;0;0;1;0;0
1;0;0;0;0;0;0;1;0;0;0;0;0;0;0;1;1
0;1;0;0;0;0;0;0;0;0;0;1;0;0;1;0;0
0;0;0;0;0;1;0;0;0;0;0;0;1;0;1;0;0
0;1;0;0;0;0;0;0;0;0;1;0;0;0;1;0;1
0;0;0;0;1;0;0;0;0;0;1;0;0;0;1;0;0
0;0;1;0;0;0;0;0;0;0;1;0;0;0;1;0;1
0;0;1;0;0;0;0;0;0;0;1;0;0;0;1;0;1
0;0;0;1;0;0;0;0;0;0;1;0;0;0;1;0;1
0;0;0;0;0;1;0;0;0;0;1;0;0;0;1;0;0
0;0;1;0;0;0;0;0;0;0;1;0;0;0;1;0;1
1;0;0;0;0;0;1;0;0;0;0;0;0;0;0;1;1
1;0;0;0;0;0;1;0;0;0;0;0;0;0;0;1;1
0;1;0;0;0;0;0;0;0;0;0;0;1;0;1;0;0
1;0;0;0;0;0;0;0;0;0;1;0;0;0;1;0;1
1;0;0;0;0;0;0;0;0;0;1;0;0;0;1;0;1
0;0;0;0;0;1;0;0;0;0;0;1;0;0;1;0;0
0;1;0;0;0;0;0;0;0;0;1;0;0;0;1;0;1
0;0;0;1;0;0;0;0;0;1;0;0;0;0;1;0;0
0;0;0;1;0;0;0;0;0;0;0;1;0;0;1;0;0
0;1;0;0;0;0;0;0;0;0;1;0;0;0;1;0;1
0;0;0;0;0;1;0;0;0;0;0;0;1;0;1;0;0
0;1;0;0;0;0;0;0;0;0;1;0;0;0;1;0;1
0;0;0;0;0;1;0;0;0;0;0;1;0;0;1;0;0
0;1;0;0;0;0;0;0;0;0;1;0;0;0;1;0;1
0;0;1;0;0;0;0;0;0;0;0;1;0;0;1;0;0
1;0;0;0;0;0;1;0;0;0;0;0;0;0;0;1;1
0;0;0;0;0;1;0;0;0;0;0;1;0;0;1;0;0
0;0;1;0;0;0;0;0;0;0;1;0;0;0;1;0;1
1;0;0;0;0;0;1;0;0;0;0;0;0;0;0;1;1
0;0;0;1;0;0;0;0;0;0;0;1;0;0;1;0;0
0;1;0;0;0;0;1;0;0;0;0;0;0;0;0;1;1
0;0;0;0;0;1;0;0;0;0;0;1;0;0;1;0;0
0;0;1;0;0;0;0;0;0;0;1;0;0;0;1;0;0
0;0;0;1;0;0;0;0;0;0;0;1;0;0;1;0;0
0;0;0;0;0;1;0;0;0;0;1;0;0;0;1;0;0
0;1;0;0;0;0;0;0;0;0;1;0;0;0;1;0;1
1;0;0;0;0;0;0;0;0;0;1;0;0;0;1;0;1
1;0;0;0;0;0;0;0;0;0;0;1;0;0;1;0;0
0;1;0;0;0;0;0;0;0;0;1;0;0;0;1;0;1
0;0;0;0;0;1;0;0;0;1;0;0;0;0;1;0;0
0;0;0;1;0;0;0;0;0;0;1;0;0;0;1;0;1
0;1;0;0;0;0;0;0;0;1;0;0;0;0;1;0;1
0;1;0;0;0;0;0;0;0;0;0;0;1;0;1;0;0
0;1;0;0;0;0;0;0;0;0;1;0;0;0;1;0;1
0;0;0;0;0;1;0;0;0;0;0;1;0;0;1;0;0
0;0;0;0;0;1;0;0;0;0;1;0;0;0;1;0;0
0;0;0;1;0;0;0;0;0;0;1;0;0;0;1;0;1
0;0;0;0;0;1;0;0;0;0;0;1;0;0;1;0;0
0;1;0;0;0;0;0;0;0;0;1;0;0;0;1;0;1
0;1;0;0;0;0;0;0;0;0;1;0;0;0;1;0;1
0;0;0;0;0;1;0;0;0;1;0;0;0;0;1;0;0
0;0;0;0;0;1;0;0;0;0;1;0;0;0;1;0;0
0;0;0;1;0;0;0;0;0;1;0;0;0;0;1;0;0
0;0;0;0;0;1;0;0;0;0;1;0;0;0;1;0;0
0;0;0;0;0;1;0;0;0;0;1;0;0;0;1;0;0
0;0;0;0;0;1;0;0;0;0;1;0;0;0;1;0;0
0;0;0;1;0;0;0;0;0;0;0;1;0;0;1;0;0
0;0;0;0;0;1;0;0;0;1;0;0;0;0;1;0;0
0;0;0;0;0;1;0;0;0;0;1;0;0;0;1;0;0
0;0;0;1;0;0;0;0;0;0;0;1;0;0;1;0;0
0;0;1;0;0;0;0;0;0;0;1;0;0;0;1;0;1
0;0;0;0;0;1;0;0;0;0;1;0;0;0;1;0;0
0;1;0;0;0;0;0;0;0;0;1;0;0;0;1;0;1
0;0;0;0;0;1;0;0;0;0;1;0;0;0;1;0;0
1;0;0;0;0;0;0;0;0;0;0;1;0;0;1;0;1
0;0;0;0;0;1;0;0;0;0;0;1;0;0;1;0;0
0;1;0;0;0;0;0;1;0;0;0;0;0;0;0;1;1
0;0;0;0;0;1;0;0;0;0;1;0;0;0;1;0;0
0;1;0;0;0;0;0;0;0;0;1;0;0;0;1;0;1
0;1;0;0;0;0;0;0;0;0;1;0;0;0;1;0;1
0;0;0;0;0;1;0;0;0;0;0;0;1;0;1;0;0
0;1;0;0;0;0;0;0;0;0;0;0;1;0;1;0;0
0;0;0;0;0;1;0;0;0;0;0;1;0;0;1;0;0
0;0;0;0;0;1;0;0;0;0;0;1;0;0;1;0;0
0;0;0;0;0;1;0;0;0;0;0;1;0;0;1;0;0
0;1;0;0;0;0;0;0;0;0;0;0;1;0;1;0;0
0;0;0;0;0;1;0;0;0;1;0;0;0;0;1;0;0
0;1;0;0;0;0;0;0;0;0;1;0;0;0;1;0;0
0;0;1;0;0;0;0;0;0;0;0;1;0;0;1;0;0
0;0;0;1;0;0;0;0;0;0;0;1;0;0;1;0;0
0;0;0;0;0;1;0;0;0;0;0;1;0;0;1;0;0
0;0;0;0;0;1;0;0;0;0;0;1;0;0;1;0;0
0;0;0;0;0;1;0;0;0;0;1;0;0;0;1;0;0
0;0;0;1;0;0;0;0;0;0;1;0;0;0;1;0;1
0;1;0;0;0;0;1;0;0;0;0;0;0;0;1;0;1
0;0;0;0;1;0;0;0;0;0;0;1;0;0;1;0;0
0;0;0;1;0;0;0;0;0;1;0;0;0;0;1;0;0
0;0;1;0;0;0;0;0;0;0;1;0;0;0;1;0;1
0;0;0;0;1;0;0;0;0;0;1;0;0;0;1;0;0
0;1;0;0;0;0;0;0;0;0;1;0;0;0;1;0;1
1;0;0;0;0;0;0;0;0;0;1;0;0;0;1;0;1
0;0;0;1;0;0;0;0;0;0;0;1;0;0;1;0;0
0;1;0;0;0;0;1;0;0;0;0;0;0;0;0;1;1
0;0;0;1;0;0;0;0;0;0;0;1;0;0;1;0;0
0;0;0;0;1;0;0;1;0;0;0;0;0;0;1;0;0
0;1;0;0;0;0;1;0;0;0;0;0;0;0;1;0;1
0;0;0;0;1;0;0;0;0;0;1;0;0;0;1;0;1
0;1;0;0;0;0;0;0;0;0;1;0;0;0;1;0;0
0;0;0;0;0;1;0;0;0;1;0;0;0;0;1;0;0
0;1;0;0;0;0;0;1;0;0;0;0;0;0;1;0;1
0;1;0;0;0;0;0;0;0;0;1;0;0;0;1;0;1
1;0;0;0;0;0;0;0;0;0;0;1;0;0;1;0;1
1;0;0;0;0;0;0;0;0;0;0;1;0;0;1;0;1
0;0;0;1;0;0;0;0;0;0;1;0;0;1;0;0;1
1;0;0;0;0;0;0;0;1;0;0;0;0;0;0;1;1
0;0;0;0;0;1;0;0;0;1;0;0;0;0;1;0;0
0;0;0;1;0;0;0;0;0;0;0;1;0;0;1;0;0
0;1;0;0;0;0;0;0;0;0;0;0;1;0;1;0;0
0;0;0;0;0;1;0;0;0;0;1;0;0;0;1;0;0
0;0;0;0;0;1;0;0;0;0;1;0;0;0;1;0;0
0;1;0;0;0;0;0;0;0;1;0;0;0;0;1;0;1
0;0;0;1;0;0;0;0;0;0;0;0;1;0;1;0;0
0;0;0;1;0;0;0;0;0;1;0;0;0;0;1;0;1
0;1;0;0;0;0;1;0;0;0;0;0;0;0;1;0;1
0;0;0;0;0;1;0;0;0;0;0;0;1;1;0;0;0
0;1;0;0;0;0;1;0;0;0;0;0;0;0;0;1;1
0;0;0;0;0;1;0;0;0;0;0;1;0;0;1;0;0
0;1;0;0;0;0;0;0;0;0;1;0;0;0;1;0;1
1;0;0;0;0;0;0;0;0;0;1;0;0;0;1;0;1
0;0;1;0;0;0;0;0;0;0;1;0;0;0;1;0;1
0;1;0;0;0;0;0;0;0;0;1;0;0;0;1;0;1
0;1;0;0;0;0;0;0;0;1;0;0;0;0;1;0;1
0;0;1;0;0;0;0;0;0;0;1;0;0;1;0;0;1
0;0;1;0;0;0;0;0;0;0;0;1;0;0;1;0;0
0;0;1;0;0;0;0;0;0;0;0;1;0;0;1;0;0
0;1;0;0;0;0;0;0;0;0;1;0;0;0;1;0;1
0;0;0;0;0;1;0;0;0;0;0;1;0;0;1;0;0
0;1;0;0;0;0;1;0;0;0;0;0;0;0;1;0;1
0;0;0;0;0;1;0;0;0;0;0;0;1;0;1;0;0
0;1;0;0;0;0;0;0;0;0;1;0;0;0;1;0;1
0;0;1;0;0;0;0;0;0;0;0;1;0;0;1;0;0
0;1;0;0;0;0;0;0;0;0;1;0;0;0;1;0;1
0;0;0;1;0;0;0;0;0;0;1;0;0;0;1;0;0
0;1;0;0;0;0;0;1;0;0;0;0;0;0;1;0;1
0;0;0;0;0;1;0;0;0;0;1;0;0;0;1;0;0
0;1;0;0;0;0;0;0;0;0;1;0;0;0;1;0;1
0;1;0;0;0;0;0;1;0;0;0;0;0;0;1;0;1
1;0;0;0;0;0;0;0;0;0;0;1;0;0;1;0;1
0;1;0;0;0;0;0;0;0;0;1;0;0;0;1;0;1
0;0;0;0;0;1;0;0;0;0;0;1;0;0;1;0;0
0;0;0;1;0;0;0;0;0;0;0;0;1;0;1;0;0
0;0;0;0;0;1;0;0;0;0;1;0;0;0;1;0;0
0;0;1;0;0;0;0;0;0;0;0;1;0;0;1;0;0
0;0;0;0;1;0;0;0;0;1;0;0;0;0;1;0;0
0;0;0;0;0;1;0;0;0;1;0;0;0;0;1;0;0
0;0;0;0;1;0;0;0;0;0;0;1;0;0;1;0;0
0;0;0;0;0;1;0;0;0;0;0;1;0;0;1;0;0
0;0;1;0;0;0;0;0;0;0;0;1;0;0;1;0;0
0;0;0;1;0;0;0;0;0;0;1;0;0;1;0;0;1
0;0;0;0;0;1;0;0;0;0;0;1;0;0;1;0;0
0;0;0;1;0;0;0;0;0;0;1;0;0;0;1;0;0
0;0;0;0;0;1;0;0;0;0;0;1;0;0;1;0;0
0;1;0;0;0;0;1;0;0;0;0;0;0;0;1;0;1
0;0;0;1;0;0;0;0;0;0;0;1;0;0;1;0;0
0;0;0;0;0;1;0;0;0;0;0;1;0;0;1;0;0
0;0;0;1;0;0;0;0;0;0;1;0;0;0;1;0;1
0;0;1;0;0;0;0;0;0;0;1;0;0;0;1;0;1
0;0;0;0;0;1;0;0;0;0;0;0;1;0;1;0;0
1;0;0;0;0;0;1;0;0;0;0;0;0;0;1;0;1
0;0;0;0;0;1;0;0;0;0;1;0;0;0;1;0;0
0;1;0;0;0;0;0;0;0;1;0;0;0;0;1;0;1
1;0;0;0;0;0;0;0;0;0;1;0;0;0;1;0;1
0;1;0;0;0;0;0;0;0;0;0;0;1;0;1;0;0
0;1;0;0;0;0;0;1;0;0;0;0;0;0;1;0;1
0;0;0;1;0;0;0;0;0;0;0;1;0;0;1;0;0
0;1;0;0;0;0;0;0;0;0;0;0;1;0;1;0;0
0;0;0;1;0;0;0;0;0;0;0;1;0;0;1;0;0
0;0;0;0;0;1;0;0;0;1;0;0;0;0;1;0;0
0;0;0;1;0;0;0;0;0;0;1;0;0;0;1;0;1
0;0;0;1;0;0;0;0;0;0;0;1;0;0;1;0;0
0;0;0;0;0;1;0;0;0;0;0;1;0;0;1;0;0
0;0;0;0;1;0;0;0;0;0;1;0;0;0;1;0;0
0;1;0;0;0;0;1;0;0;0;0;0;0;0;0;1;1
0;0;0;1;0;0;0;0;0;0;1;0;0;1;0;0;1
0;0;0;0;0;1;0;0;0;0;0;1;0;0;1;0;0
0;0;0;1;0;0;0;0;0;0;1;0;0;0;1;0;0
0;0;1;0;0;0;0;0;0;0;1;0;0;0;1;0;1
0;0;0;0;0;1;0;0;0;1;0;0;0;0;1;0;0
1;0;0;0;0;0;0;0;0;0;1;0;0;0;1;0;1
0;0;0;0;0;1;0;0;0;1;0;0;0;0;1;0;0
0;0;0;1;0;0;0;0;0;0;1;0;0;1;0;0;1
0;0;1;0;0;0;0;0;0;0;1;0;0;0;1;0;1
0;0;1;0;0;0;0;0;0;0;1;0;0;0;1;0;1
0;0;0;1;0;0;0;0;0;0;0;1;0;0;1;0;0
0;1;0;0;0;0;0;0;0;0;0;0;1;0;1;0;0
1;0;0;0;0;0;0;0;0;0;1;0;0;0;1;0;1
0;1;0;0;0;0;0;0;0;0;1;0;0;0;1;0;1
0;1;0;0;0;0;0;0;0;0;1;0;0;0;1;0;1
1;0;0;0;0;0;0;0;0;0;0;1;0;0;1;0;1
1;0;0;0;0;0;0;1;0;0;0;0;0;0;0;1;1
0;0;0;0;1;0;0;0;0;0;1;0;0;0;1;0;0
0;1;0;0;0;0;0;1;0;0;0;0;0;0;1;0;1
0;0;0;1;0;0;0;0;0;0;1;0;0;0;1;0;1
0;0;0;0;0;1;0;0;0;0;0;1;0;0;1;0;0
0;0;0;0;0;1;0;0;0;0;1;0;0;0;1;0;0
0;0;0;0;0;1;0;0;0;0;1;0;0;0;1;0;0
0;0;0;1;0;0;0;0;0;0;1;0;0;0;1;0;0
0;0;0;0;0;1;0;0;0;0;0;1;0;0;1;0;0
0;0;0;0;0;1;0;0;0;0;0;1;0;0;1;0;0
0;1;0;0;0;0;0;1;0;0;0;0;0;0;1;0;1
0;1;0;0;0;0;0;0;0;0;1;0;0;0;1;0;1
0;0;0;0;0;1;0;0;0;1;0;0;0;0;1;0;0
0;1;0;0;0;0;0;0;0;0;1;0;0;0;1;0;1
0;0;1;0;0;0;0;0;0;0;0;1;0;0;1;0;0
0;1;0;0;0;0;0;0;0;0;0;0;1;0;1;0;0
0;0;0;0;0;1;0;0;0;0;0;0;1;0;1;0;0
0;1;0;0;0;0;0;0;0;0;1;0;0;0;1;0;1
0;0;0;0;0;1;0;0;0;0;0;1;0;0;1;0;0
0;0;0;1;0;0;0;0;0;0;0;0;1;0;1;0;0
0;0;0;0;0;1;0;0;0;0;0;1;0;0;1;0;0
0;0;0;0;0;1;0;0;0;0;0;0;1;0;1;0;0
0;1;0;0;0;0;0;1;0;0;0;0;0;0;1;0;1
0;0;0;0;0;1;0;0;0;0;1;0;0;0;1;0;0
1;0;0;0;0;0;1;0;0;0;0;0;0;0;0;1;1
0;0;0;0;1;0;0;0;0;0;1;0;0;0;1;0;0
0;0;0;1;0;0;0;0;0;0;1;0;0;0;1;0;1
1;0;0;0;0;0;0;0;0;0;0;1;0;0;1;0;1
0;1;0;0;0;0;0;0;0;0;1;0;0;0;1;0;0
0;0;0;0;0;1;0;0;0;0;0;1;0;0;1;0;0
0;1;0;0;0;0;0;1;0;0;0;0;0;0;0;1;1
0;0;0;1;0;0;0;0;0;0;0;1;0;0;1;0;0
0;0;0;1;0;0;0;0;0;0;1;0;0;0;1;0;0
1;0;0;0;0;0;0;0;0;0;0;1;0;0;1;0;1
0;0;0;0;0;1;0;0;0;0;1;0;0;0;1;0;0
0;0;0;0;1;0;0;0;0;0;0;1;0;0;1;0;0
1;0;0;0;0;0;1;0;0;0;0;0;0;0;0;1;1
0;0;0;1;0;0;0;0;0;1;0;0;0;0;1;0;0
1;0;0;0;0;0;0;0;0;0;1;0;0;0;1;0;1
0;0;0;0;0;1;0;0;0;1;0;0;0;0;1;0;0
0;0;0;0;0;1;0;0;0;0;1;0;0;0;1;0;0
0;0;0;0;0;1;0;0;0;0;0;1;0;0;1;0;0
0;0;0;1;0;0;0;0;0;0;0;1;0;0;1;0;0
0;1;0;0;0;0;1;0;0;0;0;0;0;0;1;0;1
0;0;0;0;0;1;0;0;0;0;0;1;0;0;1;0;0
0;1;0;0;0;0;0;0;0;0;1;0;0;0;1;0;1
1;0;0;0;0;0;1;0;0;0;0;0;0;0;0;1;1
1;0;0;0;0;0;1;0;0;0;0;0;0;0;0;1;1
0;0;0;0;0;1;0;0;0;0;0;0;1;0;1;0;0
0;0;0;0;0;1;0;0;0;1;0;0;0;0;1;0;0
0;0;0;1;0;0;0;0;0;0;0;1;0;0;1;0;0
1;0;0;0;0;0;1;0;0;0;0;0;0;0;0;1;1
1;0;0;0;0;0;0;0;1;0;0;0;0;0;0;1;1
0;1;0;0;0;0;0;0;0;0;0;1;0;0;1;0;0
0;0;0;1;0;0;0;0;0;0;1;0;0;0;1;0;1
0;1;0;0;0;0;0;0;0;0;0;0;1;0;1;0;0
0;0;0;1;0;0;0;0;0;0;0;0;1;0;1;0;0
0;0;0;0;0;1;0;0;0;0;1;0;0;0;1;0;0
1;0;0;0;0;0;0;0;0;0;1;0;0;0;1;0;1
0;0;0;1;0;0;0;0;0;0;1;0;0;0;1;0;1
0;0;1;0;0;0;0;0;0;0;1;0;0;0;1;0;1
0;1;0;0;0;0;0;0;1;0;0;0;0;0;1;0;1
0;1;0;0;0;0;0;1;0;0;0;0;0;0;1;0;1
0;0;1;0;0;0;0;0;0;0;0;1;0;0;1;0;0
0;0;0;1;0;0;0;0;0;0;1;0;0;0;1;0;1
0;1;0;0;0;0;0;0;0;0;1;0;0;0;1;0;1
0;1;0;0;0;0;0;0;0;0;1;0;0;0;1;0;1
0;0;0;0;0;1;0;0;0;0;0;1;0;0;1;0;0
0;0;0;0;0;1;0;0;0;1;0;0;0;0;1;0;0
0;1;0;0;0;0;0;0;0;0;1;0;0;0;1;0;1
0;0;1;0;0;0;0;0;0;0;0;1;0;0;1;0;0
0;1;0;0;0;0;1;0;0;0;0;0;0;0;0;1;1
0;0;0;0;0;1;0;0;0;0;0;1;0;0;1;0;0
0;1;0;0;0;0;0;0;0;0;1;0;0;0;1;0;1
0;0;0;1;0;0;0;0;0;1;0;0;0;0;1;0;0
0;0;0;0;1;0;0;1;0;0;0;0;0;0;1;0;0
0;1;0;0;0;0;0;0;0;0;1;0;0;0;1;0;1
0;0;0;1;0;0;0;0;0;0;0;1;0;0;1;0;0
0;1;0;0;0;0;1;0;0;0;0;0;0;0;1;0;1
0;0;0;1;0;0;0;0;0;0;1;0;0;0;1;0;0
0;0;0;0;0;1;0;0;0;1;0;0;0;0;1;0;0
0;0;1;0;0;0;0;0;0;0;1;0;0;0;1;0;1
1;0;0;0;0;0;1;0;0;0;0;0;0;0;0;1;1
0;1;0;0;0;0;0;0;0;0;1;0;0;0;1;0;1
0;0;0;0;0;1;0;0;0;0;0;1;0;0;1;0;0
1;0;0;0;0;0;1;0;0;0;0;0;0;0;0;1;1
0;1;0;0;0;0;0;0;0;0;1;0;0;0;1;0;1
0;1;0;0;0;0;0;0;0;1;0;0;0;0;1;0;1
1;0;0;0;0;0;1;0;0;0;0;0;0;0;0;1;1
0;1;0;0;0;0;0;0;0;0;1;0;0;0;1;0;1
0;0;0;1;0;0;0;0;0;0;1;0;0;1;0;0;1
0;1;0;0;0;0;0;0;0;0;1;0;0;0;1;0;1
0;0;0;0;0;1;0;0;0;0;0;1;0;0;1;0;0
1;0;0;0;0;0;0;1;0;0;0;0;0;0;0;1;1
0;0;1;0;0;0;0;0;0;0;1;0;0;0;1;0;1
0;1;0;0;0;0;0;0;0;0;1;0;0;0;1;0;1
0;0;0;0;0;1;0;0;0;0;1;0;0;0;1;0;0
0;0;0;0;0;1;0;0;0;0;0;0;1;0;1;0;0
0;0;0;0;0;1;0;0;0;0;0;1;0;0;1;0;0
0;1;0;0;0;0;0;0;0;0;0;0;1;0;1;0;0
0;0;0;0;0;1;0;0;0;1;0;0;0;0;1;0;0
1;0;0;0;0;0;0;0;0;0;0;1;0;0;1;0;1
1;0;0;0;0;0;1;0;0;0;0;0;0;0;0;1;1
0;0;0;0;1;0;0;0;0;0;0;1;0;0;1;0;0
0;1;0;0;0;0;0;0;0;0;1;0;0;0;1;0;1
0;1;0;0;0;0;0;1;0;0;0;0;0;0;1;0;1
0;0;0;0;0;1;0;0;0;0;0;1;0;0;1;0;0
0;0;0;0;1;0;0;0;0;0;1;0;0;1;0;0;1
0;1;0;0;0;0;1;0;0;0;0;0;0;0;1;0;1
1;0;0;0;0;0;0;0;0;0;1;0;0;0;1;0;1
0;0;0;0;1;0;0;1;0;0;0;0;0;0;1;0;0
0;0;0;0;0;1;0;0;0;0;1;0;0;0;1;0;0
0;0;0;0;0;1;0;0;1;0;0;0;0;0;1;0;0
0;1;0;0;0;0;0;0;0;0;1;0;0;0;1;0;1
0;0;0;0;0;1;0;0;0;0;0;1;0;0;1;0;0
1;0;0;0;0;0;0;0;0;0;0;1;0;0;1;0;1
0;0;0;0;0;1;0;0;0;0;0;1;0;0;1;0;0
1;0;0;0;0;0;0;0;0;0;1;0;0;0;1;0;1
1;0;0;0;0;0;0;0;0;0;0;1;0;0;1;0;1
0;0;1;0;0;0;0;0;0;0;1;0;0;0;1;0;0
0;0;0;1;0;0;0;0;0;0;0;1;0;0;1;0;0
1;0;0;0;0;0;0;0;0;0;1;0;0;0;1;0;1
0;1;0;0;0;0;0;0;0;0;1;0;0;0;1;0;1
0;0;0;1;0;0;0;0;0;0;1;0;0;0;1;0;0
1;0;0;0;0;0;1;0;0;0;0;0;0;0;0;1;1
0;0;0;0;0;1;0;0;0;1;0;0;0;0;1;0;0
0;0;0;0;0;1;0;0;0;0;0;0;1;0;1;0;0
0;1;0;0;0;0;0;0;0;0;1;0;0;0;1;0;1
0;0;0;0;0;1;0;0;0;0;0;1;0;0;1;0;0
0;1;0;0;0;0;0;0;0;0;1;0;0;0;1;0;1
0;0;0;0;0;1;0;0;0;1;0;0;0;0;1;0;0
0;0;0;1;0;0;0;0;0;0;1;0;0;0;1;0;0
0;0;0;0;0;1;0;0;0;0;1;0;0;0;1;0;0
0;1;0;0;0;0;0;0;0;0;1;0;0;0;1;0;1
0;1;0;0;0;0;0;1;0;0;0;0;0;0;1;0;1
0;1;0;0;0;0;0;0;1;0;0;0;0;0;1;0;1
1;0;0;0;0;0;1;0;0;0;0;0;0;0;1;0;1
0;1;0;0;0;0;0;0;0;0;0;0;1;0;1;0;0
0;0;0;1;0;0;0;0;0;0;1;0;0;0;1;0;1
0;0;0;0;0;1;0;0;0;0;1;0;0;0;1;0;0
0;0;0;0;0;1;0;0;0;1;0;0;0;0;1;0;0
0;0;0;0;0;1;0;0;0;0;0;0;1;0;1;0;0
0;0;1;0;0;0;0;0;0;0;1;0;0;0;1;0;1
0;1;0;0;0;0;0;0;0;0;1;0;0;0;1;0;1
1;0;0;0;0;0;1;0;0;0;0;0;0;0;0;1;1
0;0;0;1;0;0;0;0;0;0;1;0;0;0;1;0;0
0;0;0;0;0;1;0;0;0;0;0;0;1;0;1;0;0
0;0;0;1;0;0;0;0;0;0;0;1;0;0;1;0;0
0;0;0;1;0;0;0;0;0;0;1;0;0;0;1;0;1
0;1;0;0;0;0;0;0;0;0;0;0;1;0;1;0;0
0;0;1;0;0;0;0;0;0;0;1;0;0;0;1;0;1
0;0;0;0;0;1;0;0;0;0;1;0;0;0;1;0;0
1;0;0;0;0;0;0;0;0;0;1;0;0;0;1;0;1
0;0;0;0;0;1;0;0;0;1;0;0;0;0;1;0;0
0;1;0;0;0;0;0;0;0;0;1;0;0;0;1;0;1
0;0;0;0;0;1;0;0;0;0;0;1;0;0;1;0;0
0;1;0;0;0;0;0;0;0;0;1;0;0;0;1;0;1
1;0;0;0;0;0;0;1;0;0;0;0;0;0;0;1;1
0;1;0;0;0;0;0;0;0;0;1;0;0;0;1;0;1
0;1;0;0;0;0;0;1;0;0;0;0;0;0;1;0;1
0;0;0;1;0;0;0;0;0;1;0;0;0;0;1;0;0
0;0;0;1;0;0;0;0;0;0;1;0;0;0;1;0;0
0;1;0;0;0;0;0;0;0;0;0;0;1;0;1;0;0
0;0;0;0;0;1;0;0;0;0;1;0;0;0;1;0;0
1;0;0;0;0;0;0;0;0;0;1;0;0;0;1;0;1
0;0;0;1;0;0;0;0;0;0;1;0;0;1;0;0;1
0;0;0;0;0;1;0;0;0;0;1;0;0;0;1;0;0
0;0;0;0;0;1;0;0;0;0;1;0;0;0;1;0;0
0;0;0;0;1;0;0;0;0;0;1;0;0;0;1;0;0
0;0;0;0;0;1;0;0;0;0;0;0;1;1;0;0;0
0;0;1;0;0;0;0;0;0;0;0;1;0;0;1;0;0
0;0;1;0;0;0;0;0;0;1;0;0;0;0;1;0;1
0;0;0;1;0;0;0;0;0;0;1;0;0;1;0;0;1
0;0;1;0;0;0;0;0;0;0;1;0;0;0;1;0;1
0;0;0;0;0;1;0;0;0;0;0;1;0;0;1;0;0
0;0;0;0;0;1;0;0;0;0;1;0;0;0;1;0;0
0;0;0;1;0;0;0;0;0;1;0;0;0;0;1;0;0
0;0;0;0;1;0;0;0;0;0;0;1;0;0;1;0;0
0;0;0;0;0;1;0;0;0;1;0;0;0;0;1;0;0
0;0;0;0;0;1;0;0;0;1;0;0;0;0;1;0;0
1;0;0;0;0;0;0;0;0;0;1;0;0;0;1;0;1
0;1;0;0;0;0;0;1;0;0;0;0;0;0;1;0;1
0;0;1;0;0;0;0;0;0;1;0;0;0;0;1;0;1
0;1;0;0;0;0;0;0;0;1;0;0;0;0;1;0;1
0;1;0;0;0;0;0;1;0;0;0;0;0;0;1;0;1
0;0;0;0;0;1;0;0;0;0;1;0;0;0;1;0;0
0;1;0;0;0;0;0;0;0;0;1;0;0;0;1;0;0
1;0;0;0;0;0;1;0;0;0;0;0;0;0;0;1;1
0;0;0;0;1;0;0;0;0;0;0;0;1;0;1;0;0
0;0;0;0;1;0;0;0;0;0;0;1;0;0;1;0;0
0;1;0;0;0;0;0;0;0;0;1;0;0;0;1;0;1
0;0;0;0;1;0;0;1;0;0;0;0;0;0;1;0;0
0;0;0;0;0;1;0;0;0;0;0;0;1;0;1;0;0
0;0;0;0;0;1;0;0;0;0;0;0;1;0;1;0;0
0;0;0;1;0;0;0;0;0;1;0;0;0;0;1;0;0
0;1;0;0;0;0;0;1;0;0;0;0;0;0;1;0;1
0;0;0;0;0;1;0;0;0;0;0;1;0;0;1;0;0
0;0;0;0;0;1;0;0;0;1;0;0;0;0;1;0;0
1;0;0;0;0;0;1;0;0;0;0;0;0;0;0;1;1
0;0;0;1;0;0;0;0;0;0;1;0;0;1;0;0;1
0;0;0;0;0;1;0;0;0;0;0;1;0;0;1;0;0
0;0;0;1;0;0;0;0;0;0;1;0;0;0;1;0;1
0;0;0;1;0;0;0;0;0;0;1;0;0;1;0;0;1
0;0;0;0;0;1;0;0;0;0;0;0;1;0;1;0;0
0;1;0;0;0;0;0;0;0;0;0;0;1;0;1;0;0
0;0;0;1;0;0;0;0;0;0;1;0;0;0;1;0;1
0;1;0;0;0;0;0;0;0;0;0;0;1;0;1;0;0
0;0;0;0;0;1;0;0;0;0;1;0;0;0;1;0;0
0;0;0;0;0;1;0;0;0;0;1;0;0;0;1;0;0
0;0;0;0;0;1;0;0;0;0;0;0;1;0;1;0;0
0;1;0;0;0;0;0;1;0;0;0;0;0;0;1;0;1
0;1;0;0;0;0;0;0;0;0;1;0;0;0;1;0;1
0;0;0;0;0;1;0;0;0;1;0;0;0;0;1;0;0
0;1;0;0;0;0;1;0;0;0;0;0;0;0;1;0;1
0;0;1;0;0;0;0;0;0;0;0;1;0;0;1;0;0
0;0;0;0;0;1;0;0;0;0;1;0;0;0;1;0;0
0;1;0;0;0;0;0;0;0;1;0;0;0;0;1;0;1
0;0;0;1;0;0;0;0;0;0;1;0;0;0;1;0;0
0;1;0;0;0;0;0;1;0;0;0;0;0;0;1;0;1
0;1;0;0;0;0;0;0;0;0;0;0;1;0;1;0;0
0;1;0;0;0;0;1;0;0;0;0;0;0;0;0;1;1
0;0;0;0;0;1;0;0;0;0;1;0;0;0;1;0;0
0;1;0;0;0;0;0;0;0;0;1;0;0;0;1;0;1
0;0;0;0;0;1;0;0;0;0;0;1;0;0;1;0;0
0;0;0;0;0;1;0;0;0;0;0;0;1;0;1;0;0
1;0;0;0;0;0;0;1;0;0;0;0;0;0;1;0;1
0;1;0;0;0;0;0;0;0;0;1;0;0;0;1;0;1
0;1;0;0;0;0;1;0;0;0;0;0;0;0;0;1;1
1;0;0;0;0;0;0;0;0;0;1;0;0;0;1;0;1
0;0;0;1;0;0;0;0;0;0;0;1;0;0;1;0;0
0;0;0;0;0;1;0;0;0;1;0;0;0;0;1;0;0
0;1;0;0;0;0;1;0;0;0;0;0;0;0;1;0;1
0;1;0;0;0;0;0;0;1;0;0;0;0;0;1;0;1
0;0;0;1;0;0;0;0;0;1;0;0;0;0;1;0;0
0;1;0;0;0;0;0;1;0;0;0;0;0;0;1;0;1
1;0;0;0;0;0;0;0;0;0;1;0;0;0;1;0;1
0;0;0;1;0;0;0;0;0;0;0;1;0;0;1;0;0
0;0;0;0;0;1;0;0;0;0;0;1;0;0;1;0;0
0;0;0;0;0;1;0;0;0;0;0;0;1;0;1;0;0
0;0;0;0;0;1;0;0;0;0;0;1;0;0;1;0;0
0;0;0;0;0;1;0;0;0;1;0;0;0;0;1;0;0
1;0;0;0;0;0;1;0;0;0;0;0;0;0;0;1;1
0;1;0;0;0;0;0;0;0;0;1;0;0;0;1;0;0
0;0;0;0;0;1;0;0;0;0;0;1;0;0;1;0;0
0;0;0;0;1;0;0;0;0;1;0;0;0;0;1;0;0
0;0;0;0;0;1;0;0;0;0;0;0;1;0;1;0;0
0;0;0;1;0;0;0;0;0;0;1;0;0;0;1;0;0
0;1;0;0;0;0;1;0;0;0;0;0;0;0;1;0;1
0;0;0;0;0;1;0;0;0;0;0;0;1;0;1;0;0
0;0;0;1;0;0;0;0;0;0;0;1;0;0;1;0;0
0;1;0;0;0;0;0;1;0;0;0;0;0;0;1;0;1
0;1;0;0;0;0;0;0;0;0;0;0;1;0;1;0;0
0;0;1;0;0;0;0;0;0;0;1;0;0;0;1;0;1
0;1;0;0;0;0;0;0;0;0;1;0;0;0;1;0;1
0;0;0;1;0;0;0;0;0;0;1;0;0;0;1;0;1
0;1;0;0;0;0;0;0;0;0;1;0;0;0;1;0;1
0;0;1;0;0;0;0;0;0;0;1;0;0;1;0;0;1
0;1;0;0;0;0;0;1;0;0;0;0;0;0;1;0;1
0;0;1;0;0;0;0;0;0;0;1;0;0;0;1;0;1
0;0;0;0;0;1;0;0;0;0;1;0;0;0;1;0;0
0;0;0;1;0;0;0;0;0;0;1;0;0;0;1;0;0
0;0;0;1;0;0;0;0;0;0;1;0;0;1;0;0;1
0;0;0;0;1;0;0;0;0;0;1;0;0;1;0;0;1
0;0;1;0;0;0;0;0;0;0;1;0;0;0;1;0;0
0;0;0;1;0;0;0;0;0;0;0;0;1;0;1;0;0
0;0;1;0;0;0;0;0;0;0;0;1;0;0;1;0;0
0;1;0;0;0;0;0;0;0;0;1;0;0;0;1;0;1
0;1;0;0;0;0;0;0;0;0;1;0;0;0;1;0;1
0;0;0;1;0;0;0;0;0;0;1;0;0;0;1;0;0
0;0;0;0;0;1;0;0;0;0;0;1;0;0;1;0;0
0;0;0;0;0;1;0;0;0;0;1;0;0;0;1;0;0
0;0;0;0;0;1;0;0;0;0;0;1;0;0;1;0;0
0;0;0;0;0;1;0;0;0;0;0;1;0;0;1;0;0
0;1;0;0;0;0;0;0;0;0;1;0;0;0;1;0;1
1;0;0;0;0;0;0;0;0;0;1;0;0;0;1;0;1
0;1;0;0;0;0;0;0;0;0;1;0;0;0;1;0;1
0;0;0;0;0;1;0;0;0;0;1;0;0;0;1;0;0
0;1;0;0;0;0;0;0;0;0;1;0;0;0;1;0;1
0;0;0;0;0;1;0;0;0;0;0;0;1;1;0;0;0
0;0;1;0;0;0;0;0;0;0;1;0;0;0;1;0;1
0;0;1;0;0;0;0;0;0;0;1;0;0;0;1;0;1
0;1;0;0;0;0;0;0;0;0;1;0;0;0;1;0;1
0;0;0;0;0;1;0;0;0;0;0;1;0;0;1;0;0
0;0;0;0;0;1;0;0;0;1;0;0;0;0;1;0;0
0;0;0;1;0;0;0;0;0;0;1;0;0;0;1;0;0
0;0;0;1;0;0;0;0;0;1;0;0;0;0;1;0;0
0;0;0;0;1;0;0;0;0;0;0;1;0;0;1;0;0
0;0;0;0;0;1;0;0;0;0;0;0;1;0;1;0;0
0;1;0;0;0;0;0;0;0;0;1;0;0;0;1;0;1
0;0;1;0;0;0;0;0;0;0;0;1;0;0;1;0;0
0;0;0;1;0;0;0;0;0;0;1;0;0;0;1;0;0
0;0;0;0;0;1;0;0;0;0;0;1;0;0;1;0;0
0;0;0;1;0;0;0;0;0;0;1;0;0;0;1;0;1
0;0;1;0;0;0;0;0;0;0;0;1;0;0;1;0;0
0;0;0;1;0;0;0;1;0;0;0;0;0;0;1;0;0
0;0;0;0;0;1;0;0;0;0;0;1;0;0;1;0;0
0;0;0;0;0;1;0;0;0;0;0;1;0;0;1;0;0
1;0;0;0;0;0;0;1;0;0;0;0;0;0;0;1;1
0;0;0;1;0;0;0;0;0;0;0;1;0;0;1;0;0
0;0;0;1;0;0;0;0;0;0;0;1;0;0;1;0;0
0;0;0;0;0;1;0;0;0;1;0;0;0;0;1;0;0
0;0;0;0;0;1;0;0;0;0;0;1;0;0;1;0;0
0;0;0;0;0;1;0;0;0;0;1;0;0;0;1;0;0
0;0;0;0;1;0;0;0;0;0;0;0;1;0;1;0;0
0;0;0;0;0;1;0;0;0;0;0;0;1;0;1;0;0
0;1;0;0;0;0;0;0;0;0;1;0;0;0;1;0;1
1;0;0;0;0;0;0;0;0;0;1;0;0;0;1;0;1
1;0;0;0;0;0;0;0;0;0;1;0;0;0;1;0;1
0;0;0;0;1;0;0;0;0;0;0;1;0;0;1;0;0
0;1;0;0;0;0;0;0;1;0;0;0;0;0;1;0;1
0;0;0;1;0;0;0;0;0;0;1;0;0;0;1;0;0
0;1;0;0;0;0;0;0;0;0;1;0;0;0;1;0;1
0;0;0;0;0;1;0;0;0;0;1;0;0;0;1;0;0
0;0;0;0;0;1;0;0;0;0;1;0;0;0;1;0;0
0;1;0;0;0;0;0;0;0;0;0;1;0;0;1;0;0
0;0;0;1;0;0;0;0;0;0;0;0;1;0;1;0;0
0;0;0;0;0;1;0;0;0;1;0;0;0;0;1;0;0
1;0;0;0;0;0;0;0;0;0;0;1;0;0;1;0;1
1;0;0;0;0;0;0;0;0;0;0;1;0;0;1;0;1
0;0;0;1;0;0;0;0;0;0;1;0;0;1;0;0;1
0;1;0;0;0;0;0;0;0;0;1;0;0;0;1;0;0
0;0;0;1;0;0;0;0;0;0;0;1;0;0;1;0;0
0;0;0;0;0;1;0;0;0;0;0;0;1;0;1;0;0
0;0;0;1;0;0;0;0;0;0;0;1;0;0;1;0;0
0;1;0;0;0;0;0;0;0;0;1;0;0;0;1;0;1
0;0;0;1;0;0;0;0;0;0;1;0;0;0;1;0;1
0;0;1;0;0;0;0;0;0;0;1;0;0;0;1;0;1
0;0;0;0;0;1;0;0;0;0;1;0;0;0;1;0;0
0;1;0;0;0;0;0;0;0;0;0;1;0;0;1;0;0
1;0;0;0;0;0;1;0;0;0;0;0;0;0;0;1;1
0;0;0;1;0;0;0;0;0;0;0;1;0;0;1;0;0
0;0;1;0;0;0;0;0;0;0;1;0;0;0;1;0;0
0;0;0;1;0;0;0;0;0;0;1;0;0;0;1;0;1
0;1;0;0;0;0;1;0;0;0;0;0;0;0;1;0;1
0;0;0;0;0;1;0;0;0;0;1;0;0;0;1;0;0
0;0;0;1;0;0;0;0;0;0;0;1;0;0;1;0;0
0;1;0;0;0;0;0;0;0;0;1;0;0;0;1;0;1
0;0;0;0;0;1;0;0;0;0;0;1;0;0;1;0;0
0;0;0;1;0;0;0;0;0;0;1;0;0;0;1;0;0
0;1;0;0;0;0;0;0;0;0;1;0;0;0;1;0;1
0;0;0;0;0;1;0;0;0;1;0;0;0;0;1;0;0
1;0;0;0;0;0;1;0;0;0;0;0;0;0;0;1;1
1;0;0;0;0;0;0;0;0;0;0;1;0;0;1;0;1
0;1;0;0;0;0;0;0;0;1;0;0;0;0;1;0;1
0;1;0;0;0;0;0;0;0;0;0;1;0;0;1;0;0
0;1;0;0;0;0;1;0;0;0;0;0;0;0;1;0;1
0;0;0;1;0;0;0;0;0;1;0;0;0;0;1;0;0
0;0;0;0;0;1;0;0;0;0;1;0;0;0;1;0;0
1;0;0;0;0;0;0;0;0;0;1;0;0;0;1;0;1
0;1;0;0;0;0;0;0;1;0;0;0;0;0;1;0;1
1;0;0;0;0;0;0;0;0;0;1;0;0;0;1;0;1
0;1;0;0;0;0;1;0;0;0;0;0;0;0;0;1;1
1;0;0;0;0;0;0;0;0;0;1;0;0;0;1;0;1
0;0;0;0;0;1;0;0;0;0;0;0;1;1;0;0;0
0;0;0;0;0;1;0;0;0;0;1;0;0;0;1;0;0
0;0;0;0;0;1;0;0;0;1;0;0;0;0;1;0;0
0;0;0;0;0;1;0;0;0;0;1;0;0;0;1;0;0
0;0;0;1;0;0;0;0;0;0;1;0;0;0;1;0;0
0;1;0;0;0;0;1;0;0;0;0;0;0;0;1;0;1
0;1;0;0;0;0;0;0;0;0;1;0;0;0;1;0;1
0;0;0;1;0;0;0;0;0;0;1;0;0;0;1;0;0
0;0;0;1;0;0;0;0;0;0;1;0;0;0;1;0;1
1;0;0;0;0;0;0;0;0;0;1;0;0;0;1;0;1
0;0;0;0;0;1;0;0;0;0;1;0;0;0;1;0;0
1;0;0;0;0;0;0;0;0;0;1;0;0;0;1;0;1
1;0;0;0;0;0;0;0;0;0;0;1;0;0;1;0;1
0;0;0;0;1;0;0;0;0;0;1;0;0;0;1;0;0
0;0;0;0;1;0;0;0;0;0;0;1;0;0;1;0;0
0;0;0;1;0;0;0;0;0;0;1;0;0;0;1;0;1
0;0;0;0;1;0;0;0;0;0;1;0;0;0;1;0;0
0;0;0;0;0;1;0;0;0;0;1;0;0;0;1;0;0
0;1;0;0;0;0;0;0;0;0;1;0;0;0;1;0;1
0;0;0;1;0;0;0;0;0;1;0;0;0;0;1;0;0
1;0;0;0;0;0;0;0;0;0;0;1;0;0;1;0;1
1;0;0;0;0;0;1;0;0;0;0;0;0;0;0;1;1
0;0;0;0;0;1;0;1;0;0;0;0;0;0;1;0;0
0;1;0;0;0;0;1;0;0;0;0;0;0;0;0;1;1
0;1;0;0;0;0;0;0;0;0;1;0;0;0;1;0;1
1;0;0;0;0;0;1;0;0;0;0;0;0;0;0;1;1
0;0;0;0;0;1;0;0;0;0;0;1;0;0;1;0;0
0;0;0;1;0;0;0;0;0;0;1;0;0;0;1;0;0
0;0;0;0;0;1;0;0;0;0;0;1;0;0;1;0;0
0;0;0;0;0;1;0;0;0;0;0;0;1;0;1;0;0
0;1;0;0;0;0;0;1;0;0;0;0;0;0;1;0;1
0;1;0;0;0;0;0;0;0;0;1;0;0;0;1;0;1
0;0;1;0;0;0;0;0;0;1;0;0;0;0;1;0;1
0;1;0;0;0;0;0;0;0;0;1;0;0;0;1;0;1
0;1;0;0;0;0;0;0;0;0;1;0;0;0;1;0;1
1;0;0;0;0;0;0;0;0;0;1;0;0;0;1;0;1
