Gender = Female;Gender = Male;Total Bilirubin <  1.65;Total Bilirubin >=  1.65;Direct Bilirubin <  1.25;Direct Bilirubin >=  1.25;Alkaline Phosphotase <  211.5;Alkaline Phosphotase >=  211.5;Alamine Aminotransferase <  61.5;Alamine Aminotransferase >=  61.5;Aspartate Aminotransferase <  59.5;Aspartate Aminotransferase >=  59.5;Ratio Albumin and Globulin Ratio <  0.895;Ratio Albumin and Globulin Ratio >=  0.895;class
0;1;1;0;1;0;1;0;0;1;1;0;1;0;1
0;1;1;0;1;0;0;1;1;0;1;0;1;0;0
0;1;1;0;1;0;1;0;1;0;1;0;0;1;1
0;1;1;0;1;0;1;0;1;0;1;0;0;1;1
1;0;1;0;1;0;0;1;1;0;1;0;1;0;1
0;1;1;0;1;0;1;0;0;1;0;1;0;1;0
0;1;1;0;1;0;0;1;1;0;1;0;0;1;1
1;0;1;0;1;0;0;1;1;0;0;1;0;1;0
0;1;1;0;1;0;1;0;1;0;1;0;0;1;1
0;1;0;1;0;1;1;0;1;0;0;1;1;0;0
0;1;0;1;0;1;1;0;1;0;0;1;0;1;1
0;1;0;1;0;1;0;1;1;0;0;1;1;0;0
0;1;1;0;1;0;0;1;1;0;1;0;0;1;0
0;1;0;1;0;1;0;1;0;1;0;1;1;0;0
0;1;1;0;1;0;1;0;1;0;1;0;1;0;1
1;0;0;1;0;1;1;0;0;1;0;1;0;1;0
0;1;0;1;0;1;0;1;1;0;0;1;1;0;0
0;1;0;1;0;1;0;1;0;1;0;1;0;1;0
0;1;1;0;1;0;1;0;1;0;1;0;1;0;0
0;1;1;0;1;0;1;0;1;0;1;0;0;1;1
0;1;1;0;1;0;1;0;1;0;1;0;0;1;0
0;1;0;1;0;1;0;1;1;0;1;0;1;0;0
0;1;1;0;1;0;1;0;1;0;1;0;0;1;1
0;1;1;0;1;0;0;1;0;1;0;1;0;1;0
1;0;0;1;0;1;0;1;1;0;0;1;1;0;0
0;1;1;0;1;0;1;0;1;0;1;0;0;1;0
0;1;1;0;1;0;0;1;0;1;0;1;1;0;0
0;1;0;1;1;0;0;1;1;0;0;1;0;1;1
0;1;1;0;1;0;0;1;1;0;1;0;1;0;1
0;1;1;0;1;0;1;0;1;0;1;0;0;1;0
0;1;1;0;1;0;1;0;1;0;1;0;1;0;1
0;1;1;0;1;0;0;1;1;0;1;0;0;1;0
0;1;1;0;1;0;1;0;1;0;1;0;0;1;1
1;0;1;0;1;0;1;0;1;0;1;0;0;1;0
0;1;1;0;1;0;1;0;1;0;1;0;0;1;0
0;1;0;1;1;0;0;1;0;1;0;1;0;1;0
1;0;0;1;0;1;0;1;1;0;1;0;1;0;0
0;1;1;0;1;0;1;0;1;0;1;0;1;0;1
0;1;0;1;0;1;0;1;1;0;0;1;1;0;0
0;1;0;1;0;1;0;1;1;0;0;1;1;0;0
0;1;1;0;1;0;0;1;1;0;1;0;1;0;0
0;1;0;1;0;1;0;1;0;1;0;1;0;1;0
0;1;1;0;1;0;0;1;1;0;0;1;0;1;1
1;0;1;0;1;0;0;1;1;0;1;0;1;0;0
1;0;1;0;1;0;0;1;0;1;0;1;1;0;0
0;1;0;1;1;0;0;1;0;1;1;0;1;0;0
0;1;0;1;0;1;0;1;1;0;0;1;1;0;0
0;1;0;1;0;1;0;1;1;0;0;1;1;0;0
0;1;1;0;1;0;1;0;1;0;1;0;0;1;0
0;1;1;0;1;0;1;0;1;0;1;0;0;1;1
0;1;0;1;0;1;0;1;1;0;1;0;1;0;0
1;0;1;0;1;0;1;0;1;0;1;0;0;1;0
0;1;0;1;1;0;0;1;1;0;1;0;0;1;0
0;1;0;1;0;1;0;1;1;0;1;0;0;1;0
0;1;0;1;1;0;0;1;0;1;0;1;1;0;0
0;1;0;1;0;1;1;0;1;0;1;0;0;1;1
0;1;1;0;1;0;1;0;1;0;1;0;0;1;0
1;0;1;0;1;0;1;0;0;1;1;0;0;1;0
0;1;1;0;1;0;0;1;1;0;1;0;0;1;1
0;1;1;0;1;0;1;0;1;0;1;0;1;0;0
1;0;1;0;1;0;0;1;0;1;0;1;0;1;0
0;1;0;1;0;1;0;1;1;0;0;1;1;0;0
1;0;1;0;1;0;0;1;1;0;1;0;1;0;0
0;1;1;0;1;0;1;0;1;0;1;0;0;1;0
0;1;1;0;1;0;0;1;1;0;1;0;0;1;0
0;1;1;0;1;0;0;1;1;0;1;0;0;1;0
0;1;1;0;1;0;0;1;1;0;1;0;1;0;0
0;1;0;1;0;1;0;1;0;1;0;1;1;0;0
1;0;1;0;1;0;0;1;1;0;1;0;1;0;0
0;1;1;0;1;0;1;0;1;0;1;0;1;0;0
1;0;1;0;1;0;0;1;0;1;0;1;1;0;0
0;1;0;1;0;1;0;1;1;0;0;1;1;0;0
1;0;1;0;1;0;1;0;1;0;1;0;0;1;1
0;1;0;1;0;1;1;0;0;1;0;1;1;0;0
0;1;1;0;1;0;1;0;1;0;1;0;0;1;1
0;1;0;1;0;1;1;0;1;0;1;0;1;0;0
0;1;0;1;0;1;0;1;0;1;0;1;1;0;0
0;1;1;0;1;0;0;1;1;0;1;0;0;1;1
0;1;1;0;1;0;1;0;1;0;1;0;1;0;0
0;1;0;1;0;1;0;1;0;1;0;1;0;1;0
1;0;1;0;1;0;1;0;1;0;1;0;0;1;0
0;1;0;1;1;0;1;0;0;1;1;0;0;1;0
0;1;1;0;1;0;1;0;1;0;1;0;0;1;1
0;1;0;1;1;0;0;1;0;1;0;1;1;0;0
0;1;1;0;1;0;1;0;1;0;1;0;1;0;0
0;1;1;0;1;0;1;0;1;0;1;0;0;1;0
0;1;1;0;1;0;1;0;1;0;1;0;1;0;0
1;0;0;1;0;1;0;1;0;1;0;1;1;0;0
0;1;1;0;1;0;1;0;1;0;1;0;1;0;0
1;0;1;0;1;0;1;0;1;0;1;0;0;1;1
0;1;0;1;0;1;0;1;1;0;0;1;0;1;0
0;1;1;0;1;0;1;0;1;0;1;0;0;1;0
1;0;1;0;1;0;1;0;1;0;1;0;0;1;1
1;0;1;0;1;0;1;0;1;0;0;1;1;0;1
0;1;1;0;1;0;0;1;1;0;1;0;1;0;1
0;1;1;0;1;0;1;0;1;0;1;0;0;1;0
0;1;1;0;1;0;1;0;1;0;1;0;0;1;0
0;1;1;0;1;0;0;1;0;1;0;1;1;0;0
0;1;0;1;1;0;0;1;1;0;0;1;1;0;1
0;1;0;1;0;1;0;1;0;1;0;1;1;0;0
