time_in_hospital <  2.5;time_in_hospital >=  2.5;num_lab_procedures <  48.5;num_lab_procedures >=  48.5;num_procedures <  1.5;num_procedures >=  1.5;num_medications <  6.5;num_medications = (6.5 - 9.5);num_medications = (9.5 - 14.5);num_medications = (14.5 - 35.5);num_medications >=  35.5;number_outpatient <  0.5;number_outpatient >=  0.5;number_emergency <  0.5;number_emergency = (0.5 - 1.5);number_emergency >=  1.5;number_inpatient <  0.5;number_inpatient = (0.5 - 1.5);number_inpatient = (1.5 - 4.5);number_inpatient >=  4.5;number_diagnoses <  5.5;number_diagnoses = (5.5 - 6.5);number_diagnoses >=  6.5;race_Caucasian = False;race_Caucasian = True;race_AfricanAmerican = False;race_AfricanAmerican = True;gender_Female = False;gender_Female = True;age_[70-80) = (False);age_[70-80) = (True);age_[60-70) = (False);age_[60-70) = (True);age_[50-60) = (False);age_[50-60) = (True);age_[80-90) = (False);age_[80-90) = (True);age_[40-50) = (False);age_[40-50) = (True);payer_code_? = False;payer_code_? = True;payer_code_MC = False;payer_code_MC = True;payer_code_HM = False;payer_code_HM = True;payer_code_SP = False;payer_code_SP = True;payer_code_BC = False;payer_code_BC = True;medical_specialty_? = False;medical_specialty_? = True;medical_specialty_InternalMedicine = False;medical_specialty_InternalMedicine = True;medical_specialty_Emergency/Trauma = False;medical_specialty_Emergency/Trauma = True;medical_specialty_Family/GeneralPractice = False;medical_specialty_Family/GeneralPractice = True;medical_specialty_Cardiology = False;medical_specialty_Cardiology = True;diag_1_428 = False;diag_1_428 = True;diag_1_414 = False;diag_1_414 = True;diag_1_786 = False;diag_1_786 = True;diag_2_276 = False;diag_2_276 = True;diag_2_428 = False;diag_2_428 = True;diag_2_250 = False;diag_2_250 = True;diag_2_427 = False;diag_2_427 = True;diag_3_250 = False;diag_3_250 = True;diag_3_401 = False;diag_3_401 = True;diag_3_276 = False;diag_3_276 = True;diag_3_428 = False;diag_3_428 = True;max_glu_serum_None = False;max_glu_serum_None = True;A1Cresult_None = False;A1Cresult_None = True;metformin_No = False;metformin_No = True;repaglinide_No = False;repaglinide_No = True;nateglinide_No = False;nateglinide_No = True;chlorpropamide_No = False;chlorpropamide_No = True;glimepiride_No = False;glimepiride_No = True;glipizide_No = False;glipizide_No = True;glyburide_No = False;glyburide_No = True;tolbutamide_No = False;tolbutamide_No = True;pioglitazone_No = False;pioglitazone_No = True;rosiglitazone_No = False;rosiglitazone_No = True;acarbose_No = False;acarbose_No = True;miglitol_No = False;miglitol_No = True;troglitazone_No = False;troglitazone_No = True;tolazamide_No = False;tolazamide_No = True;insulin_No = False;insulin_No = True;glyburide-metformin_No = (False);glyburide-metformin_No = (True);glipizide-metformin_No = (False);glipizide-metformin_No = (True);glimepiride-pioglitazone_No = (False);glimepiride-pioglitazone_No = (True);change_No = False;change_No = True;diabetesMed_Yes = False;diabetesMed_Yes = True;class
1;0;1;0;0;1;1;0;0;0;0;1;0;1;0;0;0;1;0;0;1;0;0;1;0;1;0;1;0;1;0;1;0;0;1;1;0;1;0;1;0;1;0;0;1;1;0;1;0;1;0;1;0;1;0;1;0;0;1;1;0;0;1;1;0;1;0;1;0;1;0;1;0;0;1;1;0;1;0;1;0;0;1;0;1;0;1;0;1;0;1;0;1;0;1;0;1;0;1;0;1;0;1;0;1;0;1;0;1;0;1;0;1;1;0;0;1;0;1;0;1;0;1;0;1;0
0;1;1;0;0;1;0;0;1;0;0;1;0;1;0;0;1;0;0;0;1;0;0;0;1;1;0;1;0;0;1;1;0;1;0;1;0;1;0;0;1;1;0;1;0;1;0;1;0;1;0;0;1;1;0;1;0;1;0;1;0;1;0;1;0;1;0;1;0;1;0;1;0;1;0;1;0;1;0;1;0;0;1;0;1;1;0;0;1;0;1;0;1;0;1;1;0;0;1;0;1;0;1;0;1;0;1;0;1;0;1;0;1;0;1;0;1;0;1;0;1;1;0;0;1;0
0;1;1;0;0;1;0;0;0;1;0;1;0;1;0;0;1;0;0;0;1;0;0;1;0;0;1;0;1;1;0;0;1;1;0;1;0;1;0;0;1;1;0;1;0;1;0;1;0;1;0;1;0;1;0;1;0;1;0;1;0;1;0;1;0;1;0;1;0;1;0;1;0;0;1;1;0;1;0;1;0;0;1;0;1;0;1;0;1;0;1;0;1;0;1;0;1;0;1;0;1;1;0;0;1;0;1;0;1;0;1;0;1;1;0;0;1;0;1;0;1;1;0;0;1;0
0;1;0;1;0;1;0;0;0;1;0;1;0;1;0;0;1;0;0;0;0;0;1;1;0;0;1;1;0;1;0;1;0;0;1;1;0;1;0;1;0;0;1;1;0;1;0;1;0;0;1;1;0;1;0;1;0;1;0;1;0;1;0;1;0;1;0;1;0;1;0;1;0;1;0;1;0;1;0;0;1;0;1;0;1;0;1;0;1;0;1;0;1;0;1;0;1;0;1;0;1;0;1;0;1;0;1;0;1;0;1;0;1;1;0;0;1;0;1;0;1;0;1;0;1;0
0;1;1;0;1;0;0;1;0;0;0;1;0;1;0;0;0;1;0;0;0;0;1;0;1;1;0;0;1;1;0;1;0;1;0;0;1;1;0;1;0;1;0;0;1;1;0;1;0;0;1;1;0;1;0;1;0;1;0;1;0;1;0;1;0;1;0;1;0;1;0;1;0;1;0;1;0;1;0;1;0;0;1;0;1;0;1;0;1;0;1;0;1;0;1;0;1;0;1;0;1;0;1;0;1;0;1;0;1;0;1;0;1;0;1;0;1;0;1;0;1;0;1;1;0;0
0;1;1;0;0;1;0;0;0;1;0;1;0;1;0;0;1;0;0;0;0;0;1;0;1;1;0;1;0;1;0;1;0;0;1;1;0;1;0;1;0;1;0;1;0;1;0;0;1;0;1;1;0;1;0;1;0;1;0;1;0;1;0;1;0;1;0;1;0;1;0;1;0;1;0;1;0;1;0;1;0;0;1;0;1;0;1;0;1;0;1;0;1;0;1;0;1;0;1;0;1;0;1;0;1;0;1;0;1;0;1;0;1;1;0;0;1;0;1;0;1;1;0;0;1;1
0;1;1;0;1;0;0;0;1;0;0;1;0;1;0;0;0;1;0;0;0;0;1;0;1;1;0;0;1;1;0;1;0;1;0;0;1;1;0;1;0;1;0;1;0;1;0;0;1;0;1;1;0;1;0;1;0;1;0;1;0;1;0;1;0;1;0;1;0;1;0;1;0;1;0;1;0;0;1;1;0;0;1;0;1;0;1;0;1;0;1;0;1;0;1;1;0;0;1;0;1;0;1;0;1;0;1;0;1;0;1;0;1;0;1;0;1;0;1;0;1;1;0;0;1;0
0;1;1;0;1;0;0;0;1;0;0;1;0;1;0;0;1;0;0;0;0;0;1;0;1;1;0;1;0;1;0;1;0;0;1;1;0;1;0;1;0;1;0;1;0;1;0;1;0;1;0;1;0;0;1;1;0;1;0;1;0;1;0;1;0;0;1;1;0;1;0;1;0;1;0;1;0;1;0;1;0;0;1;0;1;0;1;0;1;0;1;0;1;0;1;0;1;0;1;0;1;0;1;0;1;0;1;0;1;0;1;0;1;0;1;0;1;0;1;0;1;0;1;1;0;0
1;0;0;1;0;1;0;0;0;1;0;1;0;1;0;0;1;0;0;0;0;0;1;0;1;1;0;1;0;0;1;1;0;1;0;1;0;1;0;0;1;1;0;1;0;1;0;1;0;1;0;0;1;1;0;1;0;1;0;1;0;1;0;1;0;1;0;1;0;1;0;1;0;1;0;1;0;1;0;1;0;0;1;1;0;0;1;0;1;0;1;0;1;0;1;0;1;0;1;0;1;0;1;0;1;0;1;0;1;0;1;0;1;1;0;0;1;0;1;0;1;1;0;0;1;0
1;0;1;0;1;0;0;0;0;1;0;1;0;1;0;0;1;0;0;0;0;0;1;0;1;1;0;0;1;1;0;1;0;1;0;1;0;1;0;0;1;1;0;1;0;1;0;1;0;1;0;0;1;1;0;1;0;1;0;1;0;0;1;1;0;1;0;1;0;1;0;1;0;1;0;1;0;1;0;1;0;0;1;0;1;0;1;0;1;0;1;0;1;0;1;0;1;0;1;0;1;0;1;0;1;0;1;0;1;0;1;0;1;0;1;0;1;0;1;0;1;0;1;1;0;0
1;0;0;1;1;0;0;0;0;1;0;1;0;1;0;0;0;1;0;0;0;0;1;0;1;1;0;0;1;1;0;0;1;1;0;1;0;1;0;0;1;1;0;1;0;1;0;1;0;1;0;0;1;1;0;1;0;1;0;1;0;1;0;1;0;1;0;1;0;1;0;1;0;0;1;1;0;1;0;1;0;0;1;0;1;1;0;0;1;0;1;0;1;0;1;0;1;0;1;0;1;0;1;0;1;0;1;0;1;0;1;0;1;0;1;0;1;0;1;0;1;0;1;0;1;0
1;0;1;0;0;1;0;0;1;0;0;0;1;1;0;0;0;0;1;0;0;1;0;1;0;1;0;1;0;0;1;1;0;1;0;1;0;1;0;1;0;0;1;1;0;1;0;1;0;1;0;1;0;1;0;1;0;0;1;0;1;1;0;1;0;1;0;1;0;1;0;1;0;1;0;1;0;1;0;1;0;0;1;0;1;0;1;0;1;0;1;0;1;0;1;1;0;0;1;0;1;0;1;0;1;0;1;0;1;0;1;0;1;0;1;0;1;0;1;0;1;0;1;0;1;1
0;1;0;1;0;1;0;0;0;1;0;1;0;1;0;0;1;0;0;0;0;0;1;0;1;1;0;1;0;1;0;0;1;1;0;1;0;1;0;0;1;1;0;1;0;1;0;1;0;0;1;1;0;1;0;1;0;1;0;1;0;1;0;1;0;1;0;1;0;1;0;1;0;1;0;1;0;1;0;1;0;0;1;1;0;0;1;0;1;0;1;0;1;0;1;0;1;0;1;0;1;0;1;0;1;0;1;0;1;0;1;0;1;0;1;0;1;0;1;0;1;0;1;1;0;0
1;0;1;0;0;1;0;1;0;0;0;1;0;1;0;0;1;0;0;0;0;1;0;1;0;0;1;0;1;1;0;1;0;1;0;0;1;1;0;0;1;1;0;1;0;1;0;1;0;1;0;0;1;1;0;1;0;1;0;1;0;1;0;1;0;1;0;0;1;1;0;1;0;1;0;1;0;1;0;1;0;0;1;1;0;0;1;0;1;0;1;0;1;0;1;0;1;0;1;0;1;0;1;0;1;0;1;0;1;0;1;0;1;0;1;0;1;0;1;0;1;0;1;1;0;0
0;1;1;0;0;1;0;0;0;1;0;1;0;1;0;0;0;0;1;0;0;0;1;1;0;0;1;1;0;1;0;1;0;1;0;1;0;0;1;0;1;1;0;1;0;1;0;1;0;1;0;1;0;1;0;1;0;1;0;1;0;1;0;1;0;1;0;1;0;1;0;1;0;1;0;1;0;1;0;1;0;0;1;0;1;0;1;0;1;0;1;0;1;0;1;0;1;0;1;0;1;0;1;0;1;0;1;0;1;0;1;0;1;0;1;0;1;0;1;0;1;0;1;1;0;1
1;0;1;0;1;0;0;0;1;0;0;1;0;1;0;0;1;0;0;0;0;1;0;0;1;1;0;0;1;1;0;1;0;1;0;1;0;0;1;1;0;0;1;1;0;1;0;1;0;1;0;0;1;1;0;1;0;1;0;1;0;1;0;1;0;1;0;1;0;1;0;1;0;1;0;1;0;0;1;1;0;0;1;0;1;0;1;0;1;0;1;0;1;0;1;0;1;0;1;0;1;0;1;0;1;0;1;0;1;0;1;0;1;1;0;0;1;0;1;0;1;1;0;0;1;0
0;1;1;0;0;1;0;0;1;0;0;1;0;1;0;0;1;0;0;0;0;0;1;1;0;0;1;1;0;1;0;1;0;1;0;1;0;0;1;1;0;1;0;1;0;1;0;1;0;0;1;1;0;1;0;1;0;1;0;1;0;1;0;1;0;1;0;1;0;1;0;1;0;0;1;1;0;1;0;1;0;0;1;0;1;0;1;0;1;0;1;0;1;0;1;1;0;0;1;0;1;0;1;0;1;0;1;0;1;0;1;0;1;1;0;0;1;0;1;0;1;1;0;0;1;0
0;1;0;1;0;1;0;0;0;1;0;1;0;1;0;0;0;0;1;0;0;1;0;0;1;1;0;1;0;1;0;0;1;1;0;1;0;1;0;0;1;1;0;1;0;1;0;1;0;0;1;1;0;1;0;1;0;1;0;1;0;1;0;1;0;1;0;1;0;1;0;1;0;1;0;1;0;1;0;1;0;0;1;1;0;0;1;0;1;0;1;0;1;0;1;0;1;0;1;0;1;0;1;0;1;0;1;0;1;0;1;0;1;1;0;0;1;0;1;0;1;1;0;0;1;1
0;1;1;0;0;1;1;0;0;0;0;1;0;1;0;0;1;0;0;0;0;0;1;0;1;1;0;1;0;0;1;1;0;1;0;1;0;1;0;0;1;1;0;1;0;1;0;1;0;0;1;1;0;1;0;1;0;1;0;1;0;1;0;1;0;1;0;1;0;1;0;1;0;1;0;1;0;1;0;1;0;0;1;0;1;0;1;0;1;0;1;0;1;0;1;0;1;0;1;0;1;0;1;0;1;0;1;0;1;0;1;0;1;0;1;0;1;0;1;0;1;0;1;1;0;0
0;1;1;0;1;0;0;0;0;1;0;1;0;1;0;0;1;0;0;0;0;0;1;0;1;1;0;1;0;0;1;1;0;1;0;1;0;1;0;1;0;1;0;1;0;1;0;1;0;1;0;1;0;1;0;1;0;1;0;1;0;1;0;1;0;1;0;1;0;1;0;1;0;1;0;1;0;1;0;1;0;0;1;0;1;0;1;0;1;0;1;0;1;0;1;0;1;0;1;0;1;0;1;0;1;0;1;0;1;0;1;0;1;0;1;0;1;0;1;0;1;0;1;1;0;0
0;1;0;1;0;1;0;0;1;0;0;1;0;0;1;0;1;0;0;0;0;0;1;0;1;1;0;1;0;0;1;1;0;1;0;1;0;1;0;1;0;0;1;1;0;1;0;1;0;1;0;1;0;0;1;1;0;1;0;1;0;1;0;1;0;1;0;1;0;1;0;1;0;1;0;1;0;1;0;1;0;0;1;0;1;0;1;1;0;0;1;0;1;0;1;0;1;0;1;0;1;0;1;0;1;0;1;0;1;0;1;0;1;1;0;0;1;0;1;0;1;1;0;0;1;0
0;1;0;1;1;0;0;0;0;1;0;1;0;1;0;0;0;1;0;0;1;0;0;0;1;1;0;0;1;1;0;0;1;1;0;1;0;1;0;1;0;0;1;1;0;1;0;1;0;1;0;0;1;1;0;1;0;1;0;1;0;1;0;1;0;1;0;1;0;1;0;1;0;0;1;1;0;1;0;1;0;0;1;0;1;0;1;0;1;0;1;0;1;0;1;0;1;1;0;0;1;0;1;0;1;0;1;0;1;0;1;0;1;1;0;0;1;0;1;0;1;1;0;0;1;1
1;0;1;0;0;1;0;0;0;1;0;1;0;1;0;0;0;1;0;0;1;0;0;0;1;1;0;1;0;1;0;0;1;1;0;1;0;1;0;1;0;0;1;1;0;1;0;1;0;1;0;1;0;1;0;1;0;1;0;1;0;1;0;1;0;1;0;1;0;0;1;1;0;1;0;1;0;1;0;1;0;0;1;0;1;0;1;0;1;0;1;0;1;0;1;1;0;0;1;0;1;0;1;0;1;0;1;0;1;0;1;0;1;1;0;0;1;0;1;0;1;1;0;0;1;1
0;1;1;0;0;1;0;0;0;1;0;0;1;1;0;0;0;1;0;0;0;0;1;0;1;1;0;1;0;1;0;1;0;0;1;1;0;1;0;1;0;1;0;0;1;1;0;1;0;0;1;1;0;1;0;1;0;1;0;1;0;1;0;1;0;1;0;1;0;1;0;1;0;1;0;1;0;1;0;1;0;1;0;0;1;0;1;0;1;0;1;0;1;0;1;0;1;0;1;0;1;0;1;0;1;0;1;0;1;0;1;0;1;1;0;0;1;0;1;0;1;0;1;0;1;1
1;0;0;1;1;0;0;0;0;1;0;1;0;1;0;0;0;1;0;0;0;0;1;0;1;1;0;1;0;1;0;1;0;1;0;1;0;0;1;1;0;1;0;1;0;0;1;1;0;0;1;1;0;1;0;1;0;1;0;1;0;1;0;0;1;1;0;1;0;1;0;1;0;1;0;1;0;1;0;1;0;0;1;0;1;0;1;0;1;0;1;0;1;0;1;0;1;0;1;0;1;0;1;0;1;0;1;0;1;0;1;0;1;1;0;0;1;0;1;0;1;1;0;0;1;1
0;1;0;1;0;1;0;0;1;0;0;0;1;1;0;0;1;0;0;0;0;0;1;0;1;1;0;1;0;1;0;1;0;1;0;1;0;1;0;1;0;0;1;1;0;1;0;1;0;0;1;1;0;1;0;1;0;1;0;1;0;1;0;1;0;1;0;1;0;1;0;1;0;1;0;1;0;1;0;1;0;0;1;0;1;0;1;0;1;0;1;0;1;0;1;0;1;1;0;0;1;0;1;0;1;0;1;0;1;0;1;0;1;0;1;0;1;0;1;0;1;0;1;0;1;0
1;0;1;0;0;1;0;1;0;0;0;1;0;1;0;0;1;0;0;0;1;0;0;0;1;1;0;1;0;1;0;0;1;1;0;1;0;1;0;1;0;1;0;1;0;0;1;1;0;1;0;1;0;1;0;1;0;1;0;1;0;1;0;1;0;1;0;1;0;1;0;1;0;0;1;1;0;1;0;1;0;0;1;0;1;0;1;0;1;0;1;0;1;0;1;0;1;0;1;0;1;0;1;0;1;0;1;0;1;0;1;0;1;0;1;0;1;0;1;0;1;0;1;1;0;0
1;0;1;0;0;1;0;0;1;0;0;1;0;0;1;0;0;1;0;0;0;0;1;0;1;1;0;1;0;1;0;1;0;1;0;1;0;0;1;1;0;1;0;1;0;1;0;0;1;1;0;1;0;1;0;1;0;1;0;1;0;1;0;1;0;1;0;1;0;1;0;1;0;1;0;1;0;1;0;1;0;0;1;0;1;0;1;0;1;0;1;0;1;0;1;0;1;0;1;0;1;0;1;0;1;0;1;0;1;0;1;0;1;1;0;0;1;0;1;0;1;0;1;0;1;1
0;1;1;0;0;1;0;0;0;1;0;1;0;1;0;0;1;0;0;0;0;0;1;0;1;1;0;1;0;0;1;1;0;1;0;1;0;1;0;0;1;1;0;1;0;1;0;1;0;1;0;1;0;1;0;1;0;1;0;1;0;1;0;1;0;1;0;1;0;1;0;1;0;1;0;1;0;1;0;1;0;0;1;0;1;0;1;0;1;0;1;0;1;0;1;1;0;0;1;0;1;0;1;0;1;0;1;0;1;0;1;0;1;0;1;0;1;0;1;0;1;0;1;0;1;0
0;1;0;1;1;0;0;1;0;0;0;1;0;1;0;0;1;0;0;0;1;0;0;0;1;1;0;1;0;0;1;1;0;1;0;1;0;1;0;0;1;1;0;1;0;1;0;1;0;0;1;1;0;1;0;1;0;1;0;1;0;1;0;1;0;1;0;1;0;1;0;1;0;1;0;1;0;1;0;0;1;0;1;0;1;1;0;0;1;0;1;0;1;0;1;0;1;0;1;0;1;0;1;0;1;0;1;0;1;0;1;0;1;0;1;0;1;0;1;0;1;0;1;0;1;0
0;1;1;0;0;1;0;0;0;1;0;1;0;1;0;0;1;0;0;0;0;0;1;1;0;1;0;1;0;1;0;0;1;1;0;1;0;1;0;1;0;0;1;1;0;1;0;1;0;0;1;1;0;1;0;1;0;1;0;1;0;1;0;1;0;1;0;1;0;1;0;1;0;1;0;1;0;1;0;1;0;0;1;0;1;0;1;0;1;0;1;0;1;0;1;0;1;0;1;0;1;1;0;0;1;0;1;0;1;0;1;0;1;1;0;0;1;0;1;0;1;1;0;0;1;0
0;1;0;1;1;0;0;0;0;1;0;1;0;1;0;0;0;0;1;0;0;0;1;0;1;1;0;0;1;1;0;1;0;1;0;1;0;1;0;1;0;1;0;1;0;0;1;1;0;0;1;1;0;1;0;1;0;1;0;1;0;1;0;1;0;1;0;1;0;1;0;1;0;1;0;1;0;1;0;1;0;0;1;0;1;0;1;0;1;0;1;0;1;0;1;0;1;0;1;0;1;0;1;0;1;0;1;0;1;0;1;0;1;0;1;0;1;0;1;0;1;0;1;1;0;0
1;0;1;0;1;0;1;0;0;0;0;1;0;1;0;0;1;0;0;0;0;0;1;0;1;1;0;0;1;1;0;1;0;1;0;0;1;1;0;1;0;0;1;1;0;1;0;1;0;1;0;0;1;1;0;1;0;1;0;1;0;1;0;1;0;1;0;1;0;1;0;1;0;1;0;0;1;1;0;1;0;0;1;0;1;0;1;0;1;0;1;0;1;0;1;0;1;0;1;0;1;0;1;0;1;0;1;0;1;0;1;0;1;1;0;0;1;0;1;0;1;1;0;0;1;0
0;1;0;1;1;0;0;0;0;1;0;1;0;1;0;0;1;0;0;0;0;0;1;0;1;1;0;1;0;1;0;1;0;0;1;1;0;1;0;1;0;1;0;1;0;1;0;1;0;1;0;1;0;1;0;1;0;1;0;1;0;1;0;1;0;1;0;1;0;1;0;1;0;1;0;1;0;1;0;1;0;0;1;0;1;0;1;0;1;0;1;0;1;0;1;0;1;0;1;0;1;0;1;0;1;0;1;0;1;0;1;0;1;1;0;0;1;0;1;0;1;0;1;0;1;0
0;1;0;1;1;0;0;0;0;1;0;1;0;1;0;0;0;0;1;0;0;0;1;1;0;1;0;0;1;1;0;0;1;1;0;1;0;1;0;0;1;1;0;1;0;1;0;1;0;0;1;1;0;1;0;1;0;1;0;1;0;1;0;1;0;1;0;1;0;1;0;1;0;1;0;1;0;1;0;1;0;0;1;0;1;0;1;0;1;0;1;0;1;0;1;0;1;0;1;0;1;0;1;0;1;0;1;0;1;0;1;0;1;0;1;0;1;0;1;0;1;0;1;1;0;0
1;0;1;0;1;0;0;0;0;1;0;1;0;1;0;0;0;0;1;0;0;0;1;0;1;1;0;0;1;1;0;0;1;1;0;1;0;1;0;0;1;1;0;1;0;1;0;1;0;1;0;0;1;1;0;1;0;1;0;1;0;1;0;1;0;1;0;1;0;1;0;0;1;1;0;1;0;1;0;0;1;0;1;0;1;0;1;0;1;0;1;0;1;0;1;0;1;0;1;0;1;0;1;0;1;0;1;0;1;0;1;0;1;1;0;0;1;0;1;0;1;1;0;0;1;0
0;1;1;0;0;1;1;0;0;0;0;1;0;1;0;0;1;0;0;0;0;0;1;0;1;1;0;1;0;1;0;1;0;1;0;0;1;1;0;1;0;0;1;1;0;1;0;1;0;1;0;1;0;0;1;1;0;1;0;1;0;1;0;1;0;1;0;1;0;1;0;1;0;1;0;1;0;1;0;1;0;0;1;0;1;1;0;0;1;0;1;0;1;0;1;0;1;1;0;0;1;0;1;0;1;0;1;0;1;0;1;0;1;0;1;0;1;0;1;0;1;1;0;0;1;0
1;0;1;0;1;0;0;0;1;0;0;1;0;1;0;0;0;0;1;0;0;0;1;1;0;0;1;0;1;1;0;0;1;1;0;1;0;1;0;1;0;0;1;1;0;1;0;1;0;1;0;0;1;1;0;1;0;1;0;1;0;1;0;1;0;1;0;1;0;0;1;1;0;1;0;1;0;1;0;1;0;0;1;0;1;0;1;0;1;0;1;0;1;0;1;1;0;0;1;0;1;0;1;0;1;0;1;0;1;0;1;0;1;0;1;0;1;0;1;0;1;0;1;0;1;0
1;0;0;1;1;0;0;0;0;1;0;0;1;1;0;0;1;0;0;0;1;0;0;0;1;1;0;0;1;1;0;1;0;0;1;1;0;1;0;1;0;1;0;0;1;1;0;1;0;0;1;1;0;1;0;1;0;1;0;1;0;1;0;1;0;1;0;1;0;1;0;1;0;1;0;1;0;1;0;1;0;0;1;1;0;1;0;0;1;0;1;0;1;0;1;0;1;0;1;0;1;0;1;0;1;0;1;0;1;0;1;0;1;0;1;0;1;0;1;0;1;0;1;0;1;1
0;1;1;0;0;1;0;0;0;1;0;0;1;1;0;0;1;0;0;0;0;0;1;0;1;1;0;1;0;1;0;0;1;1;0;1;0;1;0;1;0;1;0;1;0;1;0;0;1;0;1;1;0;1;0;1;0;1;0;1;0;0;1;1;0;1;0;1;0;1;0;1;0;0;1;1;0;1;0;1;0;0;1;0;1;0;1;0;1;0;1;0;1;0;1;0;1;1;0;0;1;0;1;0;1;0;1;0;1;0;1;0;1;0;1;1;0;0;1;0;1;1;0;0;1;1
0;1;0;1;0;1;0;1;0;0;0;1;0;1;0;0;1;0;0;0;1;0;0;0;1;1;0;1;0;1;0;1;0;0;1;1;0;1;0;1;0;1;0;0;1;1;0;1;0;0;1;1;0;1;0;1;0;1;0;1;0;1;0;1;0;1;0;1;0;1;0;1;0;1;0;1;0;1;0;1;0;0;1;1;0;0;1;0;1;0;1;0;1;0;1;1;0;0;1;0;1;0;1;0;1;0;1;0;1;0;1;0;1;0;1;0;1;0;1;0;1;0;1;0;1;0
1;0;1;0;1;0;1;0;0;0;0;0;1;1;0;0;1;0;0;0;1;0;0;0;1;1;0;1;0;1;0;1;0;1;0;0;1;1;0;0;1;1;0;1;0;1;0;1;0;1;0;1;0;1;0;1;0;1;0;1;0;1;0;1;0;1;0;1;0;1;0;1;0;0;1;1;0;1;0;1;0;0;1;0;1;0;1;1;0;0;1;0;1;0;1;0;1;0;1;0;1;0;1;0;1;0;1;0;1;0;1;0;1;1;0;0;1;0;1;0;1;1;0;0;1;0
1;0;1;0;0;1;1;0;0;0;0;1;0;1;0;0;1;0;0;0;1;0;0;0;1;1;0;1;0;0;1;1;0;1;0;1;0;1;0;1;0;0;1;1;0;1;0;1;0;1;0;1;0;1;0;1;0;1;0;1;0;1;0;1;0;1;0;1;0;1;0;1;0;1;0;1;0;1;0;1;0;0;1;0;1;0;1;0;1;0;1;0;1;0;1;0;1;0;1;0;1;0;1;0;1;0;1;0;1;0;1;0;1;0;1;0;1;0;1;0;1;0;1;1;0;0
0;1;1;0;0;1;1;0;0;0;0;1;0;1;0;0;0;1;0;0;0;0;1;0;1;1;0;0;1;1;0;1;0;1;0;0;1;1;0;0;1;1;0;1;0;1;0;1;0;0;1;1;0;1;0;1;0;1;0;1;0;1;0;1;0;1;0;1;0;1;0;1;0;1;0;1;0;1;0;1;0;0;1;0;1;0;1;0;1;0;1;0;1;0;1;0;1;0;1;0;1;0;1;0;1;0;1;0;1;0;1;0;1;0;1;0;1;0;1;0;1;0;1;1;0;1
0;1;0;1;1;0;0;0;0;1;0;1;0;1;0;0;0;1;0;0;0;0;1;0;1;1;0;0;1;0;1;1;0;1;0;1;0;1;0;0;1;1;0;1;0;1;0;1;0;0;1;1;0;1;0;1;0;1;0;1;0;1;0;1;0;1;0;1;0;1;0;1;0;1;0;1;0;1;0;1;0;0;1;0;1;0;1;0;1;0;1;0;1;0;1;0;1;1;0;0;1;0;1;0;1;0;1;0;1;0;1;0;1;0;1;0;1;0;1;0;1;0;1;0;1;0
1;0;1;0;0;1;0;0;1;0;0;1;0;1;0;0;1;0;0;0;0;0;1;1;0;0;1;0;1;1;0;1;0;1;0;0;1;1;0;1;0;0;1;1;0;1;0;1;0;1;0;1;0;1;0;1;0;0;1;1;0;1;0;1;0;1;0;0;1;1;0;1;0;1;0;1;0;1;0;1;0;0;1;0;1;0;1;0;1;0;1;0;1;0;1;0;1;0;1;0;1;0;1;0;1;0;1;0;1;0;1;0;1;0;1;0;1;0;1;0;1;0;1;1;0;0
1;0;1;0;1;0;0;0;0;1;0;0;1;1;0;0;1;0;0;0;0;0;1;0;1;1;0;0;1;1;0;0;1;1;0;1;0;1;0;1;0;1;0;0;1;1;0;1;0;1;0;1;0;1;0;0;1;1;0;1;0;1;0;1;0;1;0;1;0;1;0;1;0;1;0;1;0;1;0;1;0;1;0;0;1;0;1;0;1;0;1;0;1;0;1;0;1;0;1;0;1;0;1;1;0;0;1;0;1;0;1;0;1;1;0;0;1;0;1;0;1;1;0;0;1;0
0;1;1;0;1;0;0;0;1;0;0;0;1;1;0;0;0;0;1;0;0;0;1;0;1;1;0;0;1;1;0;1;0;1;0;0;1;1;0;1;0;0;1;1;0;1;0;1;0;0;1;1;0;1;0;1;0;1;0;1;0;1;0;1;0;1;0;1;0;1;0;1;0;1;0;1;0;1;0;0;1;1;0;0;1;0;1;0;1;0;1;0;1;0;1;0;1;1;0;0;1;0;1;0;1;0;1;0;1;0;1;0;1;0;1;0;1;0;1;0;1;0;1;0;1;1
0;1;1;0;1;0;0;0;1;0;0;1;0;0;1;0;0;1;0;0;1;0;0;1;0;0;1;0;1;1;0;1;0;0;1;1;0;1;0;1;0;1;0;1;0;1;0;1;0;1;0;1;0;1;0;0;1;1;0;0;1;1;0;1;0;1;0;1;0;1;0;0;1;1;0;0;1;1;0;1;0;0;1;1;0;0;1;0;1;0;1;0;1;0;1;0;1;0;1;0;1;0;1;0;1;0;1;0;1;0;1;0;1;1;0;0;1;0;1;0;1;1;0;0;1;1
1;0;1;0;0;1;0;0;0;1;0;0;1;1;0;0;1;0;0;0;1;0;0;1;0;0;1;0;1;1;0;0;1;1;0;1;0;1;0;1;0;0;1;1;0;1;0;1;0;1;0;1;0;1;0;1;0;1;0;1;0;1;0;1;0;1;0;1;0;1;0;1;0;1;0;1;0;1;0;1;0;0;1;0;1;0;1;0;1;0;1;0;1;0;1;1;0;0;1;0;1;0;1;0;1;0;1;0;1;0;1;0;1;1;0;0;1;0;1;0;1;1;0;0;1;1
0;1;1;0;1;0;0;0;1;0;0;1;0;1;0;0;1;0;0;0;0;0;1;0;1;1;0;0;1;1;0;1;0;1;0;0;1;1;0;1;0;0;1;1;0;1;0;1;0;1;0;0;1;1;0;1;0;1;0;0;1;1;0;1;0;1;0;1;0;1;0;0;1;1;0;1;0;1;0;1;0;0;1;0;1;0;1;0;1;0;1;0;1;0;1;0;1;0;1;0;1;0;1;0;1;0;1;0;1;0;1;0;1;1;0;0;1;0;1;0;1;1;0;0;1;0
0;1;1;0;1;0;0;0;0;1;0;1;0;1;0;0;1;0;0;0;0;0;1;1;0;1;0;1;0;0;1;1;0;1;0;1;0;1;0;0;1;1;0;1;0;1;0;1;0;0;1;1;0;1;0;1;0;1;0;1;0;1;0;1;0;1;0;1;0;1;0;1;0;1;0;1;0;1;0;1;0;0;1;0;1;0;1;0;1;0;1;0;1;0;1;0;1;0;1;0;1;0;1;0;1;0;1;0;1;0;1;0;1;0;1;0;1;0;1;0;1;0;1;1;0;0
0;1;0;1;0;1;0;0;1;0;0;1;0;1;0;0;0;0;1;0;0;0;1;0;1;1;0;0;1;0;1;1;0;1;0;1;0;1;0;1;0;0;1;1;0;1;0;1;0;0;1;1;0;1;0;1;0;1;0;1;0;1;0;1;0;0;1;1;0;1;0;1;0;1;0;1;0;1;0;1;0;0;1;0;1;0;1;0;1;0;1;0;1;0;1;0;1;0;1;0;1;0;1;0;1;0;1;0;1;0;1;0;1;1;0;0;1;0;1;0;1;0;1;0;1;1
1;0;1;0;1;0;0;1;0;0;0;1;0;1;0;0;0;1;0;0;0;0;1;0;1;1;0;0;1;1;0;1;0;1;0;0;1;1;0;1;0;0;1;1;0;1;0;1;0;1;0;1;0;0;1;1;0;1;0;1;0;1;0;1;0;1;0;1;0;1;0;1;0;1;0;1;0;1;0;1;0;0;1;0;1;1;0;0;1;0;1;0;1;0;1;0;1;0;1;0;1;0;1;0;1;0;1;0;1;0;1;0;1;0;1;0;1;0;1;0;1;0;1;0;1;0
0;1;1;0;0;1;0;0;1;0;0;0;1;0;0;1;0;0;1;0;0;0;1;1;0;0;1;0;1;1;0;1;0;0;1;1;0;1;0;1;0;1;0;1;0;1;0;1;0;1;0;1;0;0;1;1;0;1;0;1;0;1;0;1;0;1;0;1;0;1;0;1;0;1;0;1;0;1;0;0;1;0;1;0;1;0;1;0;1;0;1;0;1;0;1;0;1;0;1;0;1;0;1;0;1;0;1;0;1;0;1;0;1;1;0;0;1;0;1;0;1;1;0;0;1;1
0;1;0;1;0;1;0;0;0;1;0;1;0;1;0;0;1;0;0;0;0;0;1;0;1;1;0;0;1;1;0;1;0;1;0;0;1;1;0;0;1;1;0;1;0;1;0;1;0;0;1;1;0;1;0;1;0;1;0;1;0;0;1;1;0;1;0;1;0;1;0;1;0;1;0;1;0;1;0;0;1;0;1;0;1;0;1;0;1;0;1;0;1;0;1;0;1;1;0;0;1;0;1;0;1;0;1;0;1;0;1;0;1;0;1;0;1;0;1;0;1;0;1;0;1;0
0;1;1;0;1;0;0;0;1;0;0;1;0;1;0;0;0;1;0;0;0;0;1;0;1;1;0;1;0;0;1;1;0;1;0;1;0;1;0;1;0;0;1;1;0;1;0;1;0;1;0;1;0;1;0;1;0;1;0;0;1;1;0;1;0;1;0;1;0;1;0;0;1;1;0;1;0;1;0;1;0;1;0;0;1;0;1;0;1;0;1;0;1;0;1;0;1;0;1;0;1;0;1;0;1;0;1;0;1;0;1;0;1;0;1;0;1;0;1;0;1;0;1;1;0;0
1;0;1;0;1;0;0;0;0;1;0;0;1;1;0;0;1;0;0;0;0;0;1;1;0;1;0;0;1;1;0;0;1;1;0;1;0;1;0;1;0;0;1;1;0;1;0;1;0;0;1;1;0;1;0;1;0;1;0;1;0;1;0;1;0;0;1;1;0;1;0;1;0;1;0;1;0;1;0;0;1;0;1;0;1;0;1;0;1;0;1;0;1;0;1;0;1;0;1;0;1;0;1;0;1;0;1;0;1;0;1;0;1;1;0;0;1;0;1;0;1;1;0;0;1;1
0;1;1;0;1;0;0;0;0;1;0;1;0;1;0;0;1;0;0;0;0;0;1;1;0;0;1;0;1;1;0;0;1;1;0;1;0;1;0;1;0;0;1;1;0;1;0;1;0;1;0;0;1;1;0;1;0;1;0;1;0;1;0;1;0;1;0;1;0;1;0;1;0;1;0;1;0;1;0;1;0;0;1;0;1;0;1;0;1;0;1;0;1;0;1;0;1;0;1;0;1;0;1;0;1;0;1;0;1;0;1;0;1;0;1;0;1;0;1;0;1;0;1;1;0;1
0;1;1;0;1;0;0;0;0;1;0;1;0;1;0;0;0;0;1;0;0;0;1;0;1;1;0;0;1;0;1;1;0;1;0;1;0;1;0;0;1;1;0;1;0;1;0;1;0;0;1;1;0;1;0;1;0;1;0;0;1;1;0;1;0;1;0;1;0;1;0;1;0;1;0;1;0;1;0;1;0;0;1;0;1;0;1;0;1;0;1;0;1;0;1;0;1;0;1;0;1;0;1;0;1;0;1;0;1;0;1;0;1;0;1;0;1;0;1;0;1;0;1;1;0;0
0;1;1;0;1;0;0;0;0;0;1;1;0;1;0;0;1;0;0;0;0;0;1;0;1;1;0;1;0;1;0;0;1;1;0;1;0;1;0;0;1;1;0;1;0;1;0;1;0;1;0;1;0;1;0;1;0;1;0;1;0;1;0;1;0;1;0;1;0;1;0;1;0;1;0;1;0;1;0;1;0;0;1;0;1;1;0;0;1;0;1;0;1;0;1;0;1;1;0;0;1;0;1;0;1;0;1;0;1;0;1;0;1;0;1;0;1;0;1;0;1;1;0;0;1;0
0;1;1;0;0;1;0;0;0;1;0;1;0;1;0;0;0;1;0;0;0;1;0;0;1;1;0;1;0;1;0;1;0;0;1;1;0;1;0;1;0;1;0;1;0;0;1;1;0;1;0;1;0;0;1;1;0;1;0;1;0;1;0;1;0;1;0;1;0;0;1;1;0;1;0;0;1;1;0;1;0;0;1;1;0;1;0;0;1;0;1;0;1;1;0;0;1;0;1;0;1;0;1;1;0;0;1;0;1;0;1;0;1;1;0;0;1;0;1;0;1;1;0;0;1;1
1;0;1;0;1;0;0;0;0;1;0;1;0;1;0;0;0;1;0;0;0;0;1;0;1;1;0;0;1;1;0;1;0;1;0;1;0;1;0;1;0;1;0;0;1;1;0;1;0;0;1;1;0;1;0;1;0;1;0;1;0;1;0;1;0;1;0;1;0;1;0;1;0;1;0;1;0;1;0;0;1;0;1;0;1;0;1;0;1;0;1;0;1;0;1;0;1;1;0;0;1;0;1;0;1;0;1;0;1;0;1;0;1;1;0;0;1;0;1;0;1;1;0;0;1;1
0;1;0;1;1;0;0;1;0;0;0;1;0;1;0;0;1;0;0;0;1;0;0;1;0;1;0;0;1;1;0;1;0;0;1;1;0;1;0;0;1;1;0;1;0;1;0;1;0;0;1;1;0;1;0;1;0;1;0;1;0;1;0;0;1;1;0;1;0;0;1;1;0;1;0;0;1;1;0;1;0;1;0;1;0;0;1;0;1;0;1;0;1;0;1;1;0;0;1;0;1;0;1;0;1;0;1;0;1;0;1;0;1;0;1;0;1;0;1;0;1;0;1;0;1;0
1;0;1;0;1;0;0;0;0;1;0;1;0;1;0;0;1;0;0;0;0;1;0;0;1;1;0;0;1;1;0;0;1;1;0;1;0;1;0;0;1;1;0;1;0;1;0;1;0;1;0;1;0;1;0;1;0;1;0;1;0;1;0;1;0;1;0;1;0;1;0;1;0;1;0;1;0;1;0;1;0;0;1;0;1;0;1;0;1;0;1;0;1;0;1;0;1;0;1;0;1;0;1;0;1;0;1;0;1;0;1;0;1;0;1;0;1;0;1;0;1;0;1;1;0;0
1;0;1;0;0;1;0;0;0;1;0;1;0;1;0;0;1;0;0;0;1;0;0;1;0;0;1;0;1;0;1;1;0;1;0;1;0;1;0;1;0;0;1;1;0;1;0;1;0;1;0;1;0;1;0;1;0;1;0;1;0;1;0;1;0;1;0;1;0;1;0;1;0;1;0;1;0;1;0;1;0;0;1;0;1;0;1;0;1;0;1;0;1;0;1;0;1;0;1;0;1;0;1;1;0;0;1;0;1;0;1;0;1;0;1;0;1;0;1;0;1;0;1;0;1;0
1;0;0;1;1;0;0;1;0;0;0;1;0;1;0;0;1;0;0;0;0;0;1;0;1;1;0;1;0;1;0;0;1;1;0;1;0;1;0;1;0;1;0;1;0;1;0;0;1;1;0;1;0;1;0;1;0;1;0;1;0;1;0;1;0;1;0;1;0;1;0;1;0;1;0;1;0;1;0;1;0;0;1;0;1;0;1;0;1;0;1;0;1;0;1;0;1;0;1;0;1;0;1;0;1;0;1;0;1;0;1;0;1;1;0;0;1;0;1;0;1;1;0;0;1;1
0;1;0;1;0;1;0;0;0;1;0;1;0;0;1;0;0;0;1;0;0;0;1;0;1;1;0;0;1;1;0;1;0;0;1;1;0;1;0;0;1;1;0;1;0;1;0;1;0;1;0;1;0;1;0;0;1;1;0;1;0;1;0;1;0;1;0;1;0;0;1;1;0;1;0;0;1;1;0;1;0;0;1;1;0;0;1;0;1;0;1;0;1;0;1;0;1;0;1;0;1;0;1;0;1;0;1;0;1;0;1;0;1;1;0;0;1;0;1;0;1;0;1;0;1;1
0;1;0;1;1;0;0;0;0;1;0;1;0;1;0;0;0;1;0;0;0;0;1;1;0;0;1;0;1;1;0;1;0;1;0;0;1;1;0;1;0;0;1;1;0;1;0;1;0;0;1;1;0;1;0;1;0;1;0;1;0;1;0;1;0;1;0;1;0;1;0;1;0;1;0;1;0;1;0;1;0;0;1;0;1;0;1;0;1;0;1;0;1;0;1;0;1;0;1;0;1;0;1;0;1;0;1;0;1;0;1;0;1;1;0;0;1;0;1;0;1;0;1;0;1;0
0;1;1;0;1;0;0;1;0;0;0;1;0;1;0;0;1;0;0;0;1;0;0;1;0;0;1;0;1;1;0;0;1;1;0;1;0;1;0;1;0;1;0;1;0;1;0;1;0;1;0;0;1;1;0;1;0;1;0;1;0;1;0;1;0;1;0;1;0;1;0;1;0;1;0;1;0;1;0;1;0;0;1;0;1;1;0;0;1;0;1;0;1;1;0;0;1;0;1;0;1;1;0;0;1;0;1;0;1;0;1;0;1;0;1;0;1;0;1;0;1;1;0;0;1;0
0;1;1;0;1;0;0;0;1;0;0;1;0;1;0;0;1;0;0;0;0;0;1;0;1;1;0;1;0;1;0;0;1;1;0;1;0;1;0;1;0;0;1;1;0;1;0;1;0;1;0;1;0;0;1;1;0;1;0;1;0;1;0;1;0;0;1;1;0;1;0;1;0;1;0;1;0;1;0;1;0;0;1;0;1;0;1;0;1;0;1;0;1;0;1;0;1;0;1;0;1;0;1;0;1;0;1;0;1;0;1;0;1;1;0;0;1;0;1;0;1;1;0;0;1;1
0;1;0;1;1;0;0;0;0;1;0;1;0;1;0;0;1;0;0;0;0;0;1;0;1;1;0;0;1;1;0;1;0;1;0;0;1;1;0;1;0;0;1;1;0;1;0;1;0;1;0;1;0;0;1;1;0;1;0;0;1;1;0;1;0;1;0;1;0;1;0;1;0;1;0;1;0;0;1;1;0;0;1;0;1;0;1;0;1;0;1;0;1;0;1;0;1;0;1;0;1;0;1;0;1;0;1;0;1;0;1;0;1;0;1;0;1;0;1;0;1;0;1;1;0;0
1;0;1;0;1;0;1;0;0;0;0;1;0;1;0;0;1;0;0;0;1;0;0;1;0;0;1;0;1;1;0;1;0;1;0;1;0;1;0;1;0;1;0;0;1;1;0;1;0;0;1;1;0;1;0;1;0;1;0;1;0;1;0;1;0;1;0;1;0;1;0;1;0;0;1;1;0;1;0;1;0;0;1;0;1;0;1;0;1;0;1;0;1;0;1;0;1;0;1;0;1;0;1;0;1;0;1;0;1;0;1;0;1;0;1;0;1;0;1;0;1;0;1;1;0;0
0;1;1;0;1;0;0;0;0;1;0;0;1;1;0;0;1;0;0;0;0;0;1;0;1;1;0;0;1;0;1;1;0;1;0;1;0;1;0;0;1;1;0;1;0;1;0;1;0;0;1;1;0;1;0;1;0;1;0;1;0;1;0;1;0;1;0;0;1;1;0;1;0;1;0;1;0;0;1;1;0;1;0;0;1;0;1;0;1;0;1;0;1;0;1;0;1;0;1;0;1;0;1;0;1;0;1;0;1;0;1;0;1;1;0;0;1;0;1;0;1;1;0;0;1;0
0;1;1;0;1;0;0;0;0;1;0;1;0;1;0;0;0;0;1;0;0;0;1;0;1;1;0;0;1;1;0;1;0;1;0;1;0;1;0;0;1;1;0;1;0;1;0;1;0;0;1;1;0;1;0;1;0;1;0;1;0;1;0;1;0;1;0;0;1;1;0;1;0;1;0;1;0;1;0;1;0;0;1;0;1;0;1;0;1;0;1;0;1;0;1;0;1;0;1;0;1;0;1;0;1;0;1;0;1;0;1;0;1;0;1;0;1;0;1;0;1;0;1;1;0;1
1;0;1;0;0;1;0;1;0;0;0;0;1;0;1;0;0;0;1;0;1;0;0;0;1;1;0;1;0;0;1;1;0;1;0;1;0;1;0;1;0;0;1;1;0;1;0;1;0;1;0;1;0;1;0;1;0;1;0;1;0;1;0;1;0;1;0;1;0;1;0;0;1;1;0;1;0;1;0;1;0;0;1;0;1;0;1;0;1;0;1;0;1;0;1;0;1;0;1;0;1;0;1;0;1;0;1;0;1;0;1;0;1;0;1;0;1;0;1;0;1;0;1;1;0;0
0;1;1;0;1;0;0;0;1;0;0;1;0;1;0;0;1;0;0;0;0;1;0;0;1;1;0;1;0;0;1;1;0;1;0;1;0;1;0;0;1;1;0;1;0;1;0;1;0;1;0;1;0;1;0;1;0;0;1;1;0;1;0;1;0;1;0;1;0;1;0;1;0;1;0;1;0;1;0;1;0;0;1;0;1;0;1;0;1;0;1;0;1;0;1;0;1;0;1;0;1;0;1;0;1;0;1;0;1;0;1;0;1;0;1;0;1;0;1;0;1;0;1;1;0;1
0;1;0;1;1;0;0;0;0;1;0;1;0;1;0;0;1;0;0;0;0;0;1;0;1;1;0;1;0;1;0;0;1;1;0;1;0;1;0;0;1;1;0;1;0;1;0;1;0;1;0;0;1;1;0;1;0;1;0;0;1;1;0;1;0;1;0;1;0;1;0;1;0;1;0;1;0;1;0;1;0;0;1;0;1;0;1;0;1;0;1;0;1;0;1;0;1;1;0;0;1;1;0;0;1;0;1;0;1;0;1;0;1;1;0;0;1;0;1;0;1;1;0;0;1;0
0;1;0;1;1;0;0;0;0;1;0;1;0;1;0;0;0;1;0;0;0;0;1;0;1;1;0;0;1;1;0;0;1;1;0;1;0;1;0;0;1;1;0;1;0;1;0;1;0;1;0;0;1;1;0;1;0;1;0;1;0;1;0;1;0;1;0;1;0;1;0;1;0;1;0;1;0;1;0;1;0;0;1;0;1;0;1;0;1;0;1;0;1;0;1;0;1;1;0;0;1;0;1;0;1;0;1;0;1;0;1;0;1;1;0;0;1;0;1;0;1;1;0;0;1;1
1;0;1;0;1;0;0;0;1;0;0;1;0;1;0;0;1;0;0;0;0;1;0;0;1;1;0;1;0;1;0;1;0;0;1;1;0;1;0;1;0;1;0;1;0;0;1;1;0;0;1;1;0;1;0;1;0;1;0;1;0;1;0;1;0;1;0;1;0;1;0;1;0;1;0;0;1;1;0;1;0;0;1;0;1;1;0;0;1;0;1;0;1;0;1;0;1;0;1;0;1;0;1;0;1;0;1;0;1;0;1;0;1;0;1;0;1;0;1;0;1;0;1;0;1;1
1;0;0;1;1;0;0;0;0;1;0;1;0;0;1;0;1;0;0;0;0;0;1;0;1;1;0;1;0;1;0;1;0;1;0;0;1;1;0;1;0;0;1;1;0;1;0;1;0;1;0;1;0;0;1;1;0;1;0;1;0;1;0;1;0;1;0;0;1;1;0;1;0;1;0;1;0;1;0;1;0;0;1;0;1;0;1;0;1;0;1;0;1;0;1;0;1;1;0;0;1;0;1;0;1;0;1;0;1;0;1;0;1;1;0;0;1;0;1;0;1;1;0;0;1;1
0;1;0;1;1;0;0;0;0;1;0;1;0;1;0;0;1;0;0;0;0;0;1;1;0;1;0;1;0;0;1;1;0;1;0;1;0;1;0;1;0;1;0;1;0;1;0;1;0;1;0;1;0;0;1;1;0;1;0;1;0;1;0;1;0;1;0;1;0;1;0;1;0;1;0;1;0;1;0;1;0;0;1;1;0;0;1;0;1;0;1;0;1;0;1;0;1;1;0;0;1;0;1;0;1;0;1;0;1;0;1;0;1;1;0;0;1;0;1;0;1;1;0;0;1;0
0;1;1;0;1;0;1;0;0;0;0;1;0;1;0;0;0;1;0;0;1;0;0;1;0;0;1;0;1;1;0;1;0;1;0;0;1;1;0;1;0;0;1;1;0;1;0;1;0;1;0;0;1;1;0;1;0;1;0;1;0;1;0;1;0;0;1;1;0;1;0;1;0;1;0;1;0;1;0;1;0;0;1;0;1;0;1;0;1;0;1;0;1;0;1;0;1;0;1;0;1;0;1;0;1;0;1;0;1;0;1;0;1;1;0;0;1;0;1;0;1;0;1;0;1;0
0;1;1;0;1;0;0;0;1;0;0;1;0;1;0;0;1;0;0;0;0;1;0;0;1;1;0;0;1;1;0;1;0;0;1;1;0;1;0;0;1;1;0;1;0;1;0;1;0;1;0;1;0;1;0;1;0;1;0;1;0;1;0;1;0;1;0;1;0;1;0;1;0;0;1;1;0;1;0;1;0;0;1;1;0;1;0;0;1;0;1;0;1;0;1;0;1;0;1;0;1;0;1;1;0;0;1;0;1;0;1;0;1;0;1;0;1;0;1;0;1;1;0;0;1;1
0;1;1;0;1;0;0;1;0;0;0;1;0;1;0;0;0;1;0;0;1;0;0;0;1;1;0;1;0;1;0;1;0;1;0;1;0;0;1;0;1;1;0;1;0;1;0;1;0;1;0;1;0;1;0;0;1;1;0;1;0;1;0;1;0;1;0;1;0;1;0;1;0;1;0;1;0;1;0;1;0;0;1;0;1;0;1;0;1;0;1;0;1;0;1;0;1;0;1;0;1;0;1;0;1;0;1;0;1;0;1;0;1;1;0;0;1;0;1;0;1;1;0;0;1;1
0;1;1;0;0;1;0;0;1;0;0;0;1;1;0;0;1;0;0;0;0;0;1;0;1;1;0;0;1;1;0;1;0;1;0;1;0;0;1;1;0;1;0;0;1;1;0;1;0;0;1;1;0;1;0;1;0;1;0;1;0;1;0;1;0;1;0;1;0;1;0;1;0;1;0;1;0;1;0;1;0;0;1;0;1;0;1;0;1;0;1;0;1;0;1;0;1;0;1;0;1;0;1;0;1;0;1;0;1;0;1;0;1;1;0;0;1;0;1;0;1;1;0;0;1;0
0;1;0;1;1;0;0;0;0;1;0;0;1;1;0;0;0;0;1;0;0;0;1;0;1;1;0;1;0;1;0;1;0;1;0;0;1;1;0;0;1;1;0;1;0;1;0;1;0;1;0;0;1;1;0;1;0;1;0;1;0;1;0;1;0;1;0;0;1;1;0;1;0;1;0;1;0;1;0;1;0;0;1;0;1;0;1;0;1;0;1;0;1;0;1;1;0;0;1;0;1;0;1;1;0;0;1;0;1;0;1;0;1;1;0;0;1;0;1;0;1;1;0;0;1;1
0;1;1;0;0;1;0;0;1;0;0;1;0;1;0;0;1;0;0;0;0;1;0;0;1;1;0;1;0;0;1;1;0;1;0;1;0;1;0;1;0;0;1;1;0;1;0;1;0;1;0;1;0;0;1;1;0;1;0;1;0;1;0;1;0;1;0;1;0;1;0;1;0;0;1;1;0;1;0;1;0;0;1;0;1;1;0;0;1;0;1;0;1;0;1;0;1;0;1;0;1;0;1;0;1;0;1;0;1;0;1;0;1;0;1;0;1;0;1;0;1;0;1;0;1;0
1;0;1;0;1;0;0;0;1;0;0;1;0;1;0;0;0;1;0;0;0;0;1;0;1;1;0;0;1;0;1;1;0;1;0;1;0;1;0;1;0;1;0;1;0;1;0;1;0;0;1;1;0;1;0;1;0;1;0;1;0;1;0;1;0;1;0;1;0;1;0;1;0;1;0;1;0;1;0;1;0;0;1;1;0;0;1;0;1;0;1;0;1;0;1;0;1;0;1;0;1;0;1;0;1;0;1;0;1;0;1;0;1;1;0;0;1;0;1;0;1;1;0;0;1;1
0;1;0;1;1;0;0;0;1;0;0;1;0;1;0;0;1;0;0;0;0;0;1;0;1;1;0;0;1;0;1;1;0;1;0;1;0;1;0;1;0;0;1;1;0;1;0;1;0;0;1;1;0;1;0;1;0;1;0;1;0;1;0;1;0;1;0;1;0;1;0;1;0;1;0;0;1;1;0;1;0;0;1;0;1;0;1;1;0;0;1;0;1;0;1;0;1;0;1;0;1;0;1;0;1;0;1;0;1;0;1;0;1;0;1;0;1;0;1;0;1;0;1;0;1;0
1;0;0;1;1;0;0;1;0;0;0;1;0;1;0;0;1;0;0;0;0;1;0;1;0;0;1;1;0;1;0;1;0;0;1;1;0;1;0;1;0;1;0;1;0;1;0;0;1;1;0;0;1;1;0;1;0;1;0;1;0;1;0;1;0;0;1;1;0;1;0;1;0;1;0;1;0;0;1;1;0;0;1;1;0;1;0;0;1;0;1;0;1;0;1;1;0;0;1;0;1;0;1;0;1;0;1;0;1;0;1;0;1;1;0;0;1;0;1;0;1;1;0;0;1;0
1;0;1;0;1;0;1;0;0;0;0;1;0;1;0;0;1;0;0;0;0;0;1;1;0;1;0;0;1;1;0;1;0;1;0;1;0;0;1;0;1;1;0;1;0;1;0;1;0;1;0;1;0;1;0;0;1;1;0;1;0;1;0;1;0;1;0;1;0;1;0;1;0;1;0;1;0;1;0;1;0;0;1;0;1;1;0;0;1;0;1;0;1;0;1;1;0;0;1;0;1;0;1;0;1;0;1;0;1;0;1;0;1;0;1;0;1;0;1;0;1;1;0;0;1;0
0;1;0;1;0;1;0;0;0;0;1;1;0;1;0;0;1;0;0;0;0;1;0;0;1;1;0;1;0;1;0;0;1;1;0;1;0;1;0;0;1;1;0;1;0;1;0;1;0;1;0;1;0;1;0;0;1;1;0;1;0;0;1;1;0;1;0;1;0;1;0;1;0;1;0;1;0;1;0;1;0;0;1;0;1;0;1;0;1;0;1;0;1;0;1;0;1;1;0;0;1;0;1;0;1;0;1;0;1;0;1;0;1;0;1;0;1;0;1;0;1;0;1;0;1;0
0;1;1;0;1;0;0;0;1;0;0;1;0;1;0;0;1;0;0;0;1;0;0;0;1;1;0;0;1;0;1;1;0;1;0;1;0;1;0;1;0;0;1;1;0;1;0;1;0;0;1;1;0;1;0;1;0;1;0;1;0;1;0;1;0;0;1;1;0;1;0;1;0;0;1;1;0;1;0;1;0;0;1;0;1;1;0;0;1;0;1;0;1;0;1;1;0;0;1;0;1;0;1;0;1;0;1;0;1;0;1;0;1;1;0;0;1;0;1;0;1;1;0;0;1;0
1;0;1;0;1;0;0;0;0;1;0;1;0;1;0;0;1;0;0;0;0;1;0;0;1;1;0;0;1;1;0;1;0;0;1;1;0;1;0;1;0;0;1;1;0;1;0;1;0;1;0;1;0;1;0;1;0;1;0;1;0;1;0;1;0;1;0;1;0;1;0;1;0;1;0;1;0;1;0;1;0;0;1;0;1;0;1;0;1;0;1;0;1;0;1;1;0;0;1;0;1;0;1;0;1;0;1;0;1;0;1;0;1;0;1;0;1;0;1;0;1;0;1;0;1;0
0;1;0;1;1;0;0;0;1;0;0;1;0;1;0;0;0;1;0;0;0;0;1;1;0;0;1;0;1;1;0;1;0;1;0;1;0;1;0;0;1;1;0;1;0;1;0;1;0;1;0;1;0;1;0;1;0;1;0;1;0;1;0;1;0;1;0;1;0;1;0;1;0;1;0;1;0;1;0;1;0;0;1;1;0;0;1;0;1;0;1;0;1;0;1;0;1;0;1;0;1;0;1;0;1;0;1;0;1;0;1;0;1;1;0;0;1;0;1;0;1;1;0;0;1;0
0;1;0;1;0;1;0;0;1;0;0;1;0;1;0;0;0;0;1;0;1;0;0;0;1;1;0;0;1;1;0;1;0;0;1;1;0;1;0;0;1;1;0;1;0;1;0;1;0;0;1;1;0;1;0;1;0;1;0;1;0;1;0;1;0;1;0;1;0;1;0;1;0;1;0;1;0;1;0;1;0;0;1;0;1;0;1;0;1;0;1;0;1;0;1;0;1;0;1;0;1;0;1;0;1;0;1;0;1;0;1;0;1;1;0;0;1;0;1;0;1;1;0;0;1;1
0;1;1;0;0;1;0;0;1;0;0;1;0;1;0;0;1;0;0;0;1;0;0;1;0;1;0;0;1;0;1;1;0;1;0;1;0;1;0;1;0;0;1;1;0;1;0;1;0;1;0;1;0;1;0;1;0;0;1;1;0;1;0;1;0;1;0;1;0;1;0;0;1;1;0;1;0;1;0;1;0;0;1;0;1;0;1;0;1;0;1;0;1;0;1;0;1;0;1;0;1;0;1;0;1;0;1;0;1;0;1;0;1;0;1;0;1;0;1;0;1;0;1;1;0;0
0;1;1;0;1;0;0;1;0;0;0;1;0;1;0;0;0;0;1;0;0;1;0;0;1;1;0;1;0;1;0;1;0;0;1;1;0;1;0;1;0;0;1;1;0;1;0;1;0;1;0;1;0;1;0;1;0;1;0;1;0;1;0;1;0;1;0;1;0;1;0;1;0;1;0;1;0;1;0;1;0;0;1;0;1;1;0;0;1;0;1;0;1;0;1;0;1;0;1;0;1;1;0;0;1;0;1;0;1;0;1;0;1;0;1;0;1;0;1;0;1;1;0;0;1;0
0;1;1;0;1;0;0;1;0;0;0;1;0;1;0;0;1;0;0;0;0;0;1;1;0;1;0;0;1;1;0;1;0;1;0;1;0;1;0;1;0;1;0;1;0;1;0;1;0;1;0;1;0;1;0;1;0;1;0;1;0;1;0;1;0;1;0;1;0;1;0;1;0;1;0;1;0;1;0;1;0;0;1;0;1;0;1;0;1;0;1;0;1;0;1;0;1;0;1;0;1;0;1;0;1;0;1;0;1;0;1;0;1;0;1;0;1;0;1;0;1;0;1;1;0;0
