regency <  6.5;regency >=  6.5;frequency <  4.5;frequency >=  4.5;monetary <  1125;monetary >=  1125;class
0;1;1;0;1;0;0
1;0;1;0;1;0;0
1;0;1;0;1;0;0
1;0;0;1;0;1;0
1;0;1;0;1;0;0
0;1;0;1;0;1;1
0;1;0;1;0;1;0
0;1;0;1;0;1;0
0;1;0;1;0;1;0
1;0;0;1;0;1;0
0;1;1;0;1;0;0
0;1;1;0;1;0;0
0;1;0;1;0;1;0
0;1;0;1;0;1;0
0;1;1;0;1;0;0
0;1;0;1;0;1;0
1;0;1;0;1;0;0
1;0;0;1;0;1;0
1;0;0;1;0;1;0
1;0;0;1;0;1;0
0;1;0;1;0;1;1
1;0;1;0;1;0;0
0;1;1;0;1;0;0
1;0;1;0;1;0;0
0;1;0;1;0;1;0
0;1;1;0;1;0;0
0;1;0;1;0;1;0
0;1;1;0;1;0;0
1;0;0;1;0;1;0
0;1;0;1;0;1;0
0;1;0;1;0;1;0
0;1;1;0;1;0;0
0;1;0;1;0;1;0
1;0;0;1;0;1;0
1;0;1;0;1;0;0
1;0;0;1;0;1;0
0;1;1;0;1;0;0
0;1;0;1;0;1;0
0;1;1;0;1;0;1
1;0;0;1;0;1;1
1;0;1;0;1;0;1
1;0;1;0;1;0;0
1;0;0;1;0;1;1
0;1;0;1;0;1;0
0;1;1;0;1;0;1
0;1;1;0;1;0;0
1;0;1;0;1;0;1
1;0;1;0;1;0;0
1;0;1;0;1;0;0
0;1;1;0;1;0;0
