radius <  13.095;radius = (13.095 - 15.045);radius = (15.045 - 17.88);radius >=  17.88;texture <  18.635;texture >=  18.635;perimeter <  85.25;perimeter = (85.25 - 98.755);perimeter = (98.755 - 114.8);perimeter >=  114.8;area <  529.8;area = (529.8 - 696.25);area = (696.25 - 883.25);area >=  883.25;smoothness <  0.089465;smoothness >=  0.089465;compactness <  0.10215;compactness = (0.10215 - 0.15525);compactness >=  0.15525;concavity <  0.069225;concavity = (0.069225 - 0.08942);concavity = (0.08942 - 0.1192);concavity >=  0.1192;concave points <  0.026805;concave points = (0.026805 - 0.05142);concave points = (0.05142 - 0.079005);concave points >=  0.079005;symmetry <  0.17155;symmetry = (0.17155 - 0.20865);symmetry >=  0.20865;radius SE <  0.19365;radius SE = (0.19365 - 0.42025);radius SE = (0.42025 - 0.54785);radius SE >=  0.54785;perimeter SE <  1.751;perimeter SE = (1.751 - 2.762);perimeter SE = (2.762 - 5.131);perimeter SE >=  5.131;area SE <  18.515;area SE = (18.515 - 31.285);area SE = (31.285 - 53.78);area SE >=  53.78;compactness SE <  0.008401;compactness SE = (0.008401 - 0.01838);compactness SE >=  0.01838;concavity SE <  0.011;concavity SE = (0.011 - 0.02111);concavity SE >=  0.02111;concave points SE <  0.0092025;concave points SE = (0.0092025 - 0.011965);concave points SE >=  0.011965;symmetry SE <  0.043635;symmetry SE >=  0.043635;fractal dimension SE <  0.003116;fractal dimension SE >=  0.003116;largest radius <  14.905;largest radius = (14.905 - 16.795);largest radius = (16.795 - 18.225);largest radius >=  18.225;largest texture <  23.35;largest texture = (23.35 - 29.295);largest texture >=  29.295;largest perimeter <  101.65;largest perimeter = (101.65 - 105.95);largest perimeter = (105.95 - 117.45);largest perimeter >=  117.45;largest area <  696.05;largest area = (696.05 - 884.55);largest area = (884.55 - 1214);largest area >=  1214;largest smoothness <  0.13615;largest smoothness >=  0.13615;largest compactness <  0.17925;largest compactness = (0.17925 - 0.28105);largest compactness = (0.28105 - 0.36725);largest compactness >=  0.36725;largest concavity <  0.2164;largest concavity = (0.2164 - 0.3663);largest concavity >=  0.3663;largest concave points <  0.10955;largest concave points = (0.10955 - 0.14235);largest concave points = (0.14235 - 0.17575);largest concave points >=  0.17575;largest symmetry <  0.28065;largest symmetry = (0.28065 - 0.3571);largest symmetry >=  0.3571;largest fractal dimension <  0.09279;largest fractal dimension >=  0.09279;class
1;0;0;0;1;0;1;0;0;0;1;0;0;0;0;1;1;0;0;1;0;0;0;1;0;0;0;1;0;0;1;0;0;0;1;0;0;0;1;0;0;0;0;0;1;0;0;1;0;1;0;1;0;0;1;1;0;0;0;1;0;0;1;0;0;0;1;0;0;0;0;1;0;1;0;0;0;1;0;1;0;0;0;0;1;0;0;1;0
0;0;0;1;1;0;0;0;0;1;0;0;0;1;0;1;0;1;0;0;0;0;1;0;0;0;1;0;1;0;0;0;1;0;0;0;1;0;0;0;1;0;0;0;1;0;0;1;0;0;1;1;0;1;0;0;0;0;1;0;1;0;0;0;0;1;0;0;0;1;0;1;0;0;0;1;0;0;1;0;0;0;1;0;0;1;1;0;1
0;0;0;1;0;1;0;0;0;1;0;0;0;1;0;1;0;0;1;0;0;0;1;0;0;0;1;0;1;0;0;0;0;1;0;0;1;0;0;0;0;1;0;0;1;0;0;1;0;0;1;1;0;0;1;0;0;0;1;0;1;0;0;0;0;1;0;0;0;1;0;1;0;0;0;1;0;0;1;0;0;0;1;1;0;0;0;1;1
1;0;0;0;1;0;1;0;0;0;1;0;0;0;0;1;1;0;0;1;0;0;0;0;1;0;0;0;1;0;0;1;0;0;0;1;0;0;1;0;0;0;0;0;1;1;0;0;1;0;0;1;0;0;1;1;0;0;0;1;0;0;1;0;0;0;1;0;0;0;0;1;0;1;0;0;1;0;0;1;0;0;0;0;1;0;1;0;0
1;0;0;0;0;1;1;0;0;0;1;0;0;0;0;1;0;0;1;0;0;0;1;0;1;0;0;0;0;1;0;0;1;0;0;0;1;0;0;1;0;0;0;0;1;0;0;1;0;0;1;1;0;0;1;1;0;0;0;0;1;0;1;0;0;0;1;0;0;0;1;0;0;0;0;1;0;0;1;0;1;0;0;0;1;0;0;1;0
1;0;0;0;1;0;1;0;0;0;1;0;0;0;0;1;0;1;0;1;0;0;0;0;1;0;0;0;1;0;0;1;0;0;0;1;0;0;0;1;0;0;0;0;1;0;0;1;0;1;0;1;0;0;1;1;0;0;0;1;0;0;1;0;0;0;1;0;0;0;0;1;0;0;1;0;0;1;0;1;0;0;0;0;1;0;0;1;0
0;0;0;1;0;1;0;0;0;1;0;0;0;1;1;0;1;0;0;0;0;1;0;0;0;1;0;0;1;0;0;0;0;1;0;0;1;0;0;0;0;1;0;0;1;0;0;1;0;0;1;1;0;0;1;0;0;0;1;0;1;0;0;0;0;1;0;0;0;1;1;0;0;1;0;0;0;1;0;1;0;0;0;1;0;0;1;0;1
0;1;0;0;0;1;0;1;0;0;0;1;0;0;0;1;0;1;0;0;0;0;1;0;0;1;0;0;1;0;0;1;0;0;0;1;0;0;0;1;0;0;0;0;1;0;0;1;0;1;0;1;0;0;1;0;1;0;0;0;0;1;0;0;1;0;0;1;0;0;0;1;0;0;0;1;0;0;1;0;0;1;0;0;0;1;0;1;1
0;0;0;1;0;1;0;0;0;1;0;0;0;1;0;1;0;1;0;0;0;1;0;0;0;1;0;0;0;1;0;0;0;1;0;0;0;1;0;0;0;1;0;0;1;0;0;1;0;0;1;1;0;0;1;0;0;0;1;0;1;0;0;0;0;1;0;0;0;1;1;0;0;1;0;0;0;1;0;0;0;1;0;0;1;0;1;0;1
0;1;0;0;1;0;0;1;0;0;0;1;0;0;1;0;1;0;0;1;0;0;0;0;1;0;0;1;0;0;0;1;0;0;0;1;0;0;0;1;0;0;0;1;0;0;1;0;0;1;0;1;0;1;0;0;0;1;0;1;0;0;0;0;1;0;0;1;0;0;1;0;0;1;0;0;1;0;0;0;1;0;0;0;1;0;1;0;0
1;0;0;0;0;1;1;0;0;0;1;0;0;0;0;1;1;0;0;1;0;0;0;1;0;0;0;0;1;0;0;1;0;0;0;1;0;0;1;0;0;0;0;0;1;0;0;1;0;1;0;1;0;0;1;1;0;0;0;0;1;0;1;0;0;0;1;0;0;0;1;0;1;0;0;0;1;0;0;1;0;0;0;0;1;0;1;0;0
0;0;1;0;1;0;0;0;0;1;0;0;0;1;0;1;0;1;0;0;0;1;0;0;0;0;1;0;1;0;0;0;0;1;0;0;1;0;0;0;0;1;0;0;1;0;0;1;0;0;1;1;0;0;1;0;0;0;1;1;0;0;0;0;0;1;0;0;0;1;1;0;0;0;1;0;0;1;0;0;0;1;0;1;0;0;1;0;1
1;0;0;0;0;1;1;0;0;0;1;0;0;0;1;0;1;0;0;1;0;0;0;1;0;0;0;1;0;0;0;0;1;0;0;1;0;0;0;0;1;0;0;0;1;0;0;1;0;0;1;1;0;0;1;1;0;0;0;0;1;0;1;0;0;0;1;0;0;0;1;0;0;1;0;0;1;0;0;1;0;0;0;1;0;0;1;0;0
0;1;0;0;0;1;0;1;0;0;0;1;0;0;1;0;0;1;0;1;0;0;0;0;1;0;0;1;0;0;0;1;0;0;0;1;0;0;0;1;0;0;0;0;1;0;0;1;0;0;1;1;0;1;0;0;1;0;0;0;1;0;0;0;1;0;0;1;0;0;1;0;0;0;1;0;0;1;0;0;1;0;0;1;0;0;1;0;0
1;0;0;0;1;0;1;0;0;0;1;0;0;0;1;0;1;0;0;1;0;0;0;0;1;0;0;0;1;0;0;1;0;0;1;0;0;0;1;0;0;0;0;1;0;0;1;0;1;0;0;1;0;1;0;1;0;0;0;1;0;0;1;0;0;0;1;0;0;0;1;0;0;1;0;0;1;0;0;1;0;0;0;0;1;0;1;0;0
1;0;0;0;0;1;1;0;0;0;1;0;0;0;0;1;0;1;0;1;0;0;0;0;1;0;0;0;1;0;0;0;1;0;0;0;1;0;0;0;1;0;0;0;1;0;0;1;0;1;0;1;0;0;1;1;0;0;0;0;1;0;1;0;0;0;1;0;0;0;1;0;0;1;0;0;1;0;0;1;0;0;0;0;1;0;1;0;0
0;0;0;1;0;1;0;0;0;1;0;0;0;1;0;1;0;1;0;0;0;1;0;0;0;0;1;0;1;0;0;1;0;0;0;1;0;0;0;0;1;0;0;1;0;0;0;1;0;1;0;1;0;1;0;0;0;0;1;0;1;0;0;0;0;1;0;0;0;1;0;1;0;1;0;0;0;0;1;0;0;0;1;0;1;0;1;0;1
0;1;0;0;0;1;0;1;0;0;0;1;0;0;0;1;0;0;1;0;0;0;1;0;0;0;1;0;0;1;0;0;0;1;0;0;1;0;0;0;1;0;0;0;1;0;0;1;0;0;1;1;0;0;1;0;0;0;1;0;0;1;0;0;0;1;0;0;1;0;0;1;0;0;0;1;0;0;1;0;0;0;1;0;0;1;0;1;1
0;1;0;0;1;0;0;1;0;0;0;1;0;0;0;1;0;1;0;1;0;0;0;0;0;1;0;0;0;1;0;1;0;0;0;1;0;0;0;0;1;0;0;0;1;0;1;0;1;0;0;1;0;0;1;1;0;0;0;1;0;0;1;0;0;0;1;0;0;0;0;1;1;0;0;0;1;0;0;1;0;0;0;1;0;0;1;0;0
1;0;0;0;1;0;1;0;0;0;1;0;0;0;0;1;0;1;0;1;0;0;0;1;0;0;0;0;1;0;0;1;0;0;1;0;0;0;0;1;0;0;0;0;1;0;0;1;0;0;1;1;0;0;1;1;0;0;0;1;0;0;1;0;0;0;1;0;0;0;1;0;0;1;0;0;1;0;0;1;0;0;0;1;0;0;1;0;0
1;0;0;0;1;0;1;0;0;0;1;0;0;0;0;1;0;1;0;0;0;0;1;0;1;0;0;0;1;0;0;1;0;0;0;0;1;0;0;1;0;0;0;0;1;0;0;1;0;0;1;1;0;0;1;1;0;0;0;1;0;0;1;0;0;0;1;0;0;0;1;0;0;0;0;1;0;0;1;0;1;0;0;0;1;0;0;1;0
0;0;0;1;0;1;0;0;0;1;0;0;0;1;0;1;0;0;1;0;0;0;1;0;0;0;1;0;0;1;0;0;0;1;0;0;1;0;0;0;0;1;0;0;1;0;0;1;0;0;1;1;0;0;1;0;0;0;1;0;0;1;0;0;0;1;0;0;0;1;0;1;0;0;0;1;0;0;1;0;0;0;1;0;1;0;1;0;1
1;0;0;0;1;0;1;0;0;0;1;0;0;0;0;1;0;0;1;0;0;0;1;0;0;0;1;0;0;1;0;1;0;0;0;1;0;0;0;1;0;0;0;0;1;0;0;1;0;1;0;1;0;0;1;0;1;0;0;0;1;0;0;1;0;0;0;1;0;0;0;1;0;0;0;1;0;0;1;0;0;1;0;0;0;1;0;1;1
1;0;0;0;1;0;1;0;0;0;1;0;0;0;0;1;0;0;1;1;0;0;0;0;0;1;0;1;0;0;0;0;1;0;0;0;1;0;0;0;1;0;0;0;1;0;1;0;0;0;1;1;0;0;1;0;1;0;0;0;1;0;1;0;0;0;1;0;0;0;0;1;0;0;1;0;1;0;0;0;1;0;0;1;0;0;1;0;0
1;0;0;0;0;1;1;0;0;0;1;0;0;0;0;1;1;0;0;1;0;0;0;0;1;0;0;0;1;0;0;1;0;0;0;1;0;0;0;1;0;0;0;1;0;0;1;0;0;1;0;1;0;0;1;1;0;0;0;0;0;1;1;0;0;0;1;0;0;0;0;1;1;0;0;0;1;0;0;1;0;0;0;0;1;0;1;0;0
1;0;0;0;1;0;1;0;0;0;1;0;0;0;1;0;1;0;0;1;0;0;0;1;0;0;0;1;0;0;0;1;0;0;0;1;0;0;0;1;0;0;1;0;0;1;0;0;1;0;0;1;0;0;1;1;0;0;0;1;0;0;1;0;0;0;1;0;0;0;1;0;1;0;0;0;1;0;0;1;0;0;0;1;0;0;1;0;0
0;0;1;0;1;0;0;0;1;0;0;0;1;0;0;1;1;0;0;0;1;0;0;0;0;1;0;0;1;0;0;1;0;0;0;1;0;0;0;1;0;0;0;1;0;0;1;0;0;0;1;1;0;1;0;0;0;1;0;1;0;0;0;0;1;0;0;0;1;0;1;0;0;1;0;0;1;0;0;0;1;0;0;1;0;0;1;0;0
1;0;0;0;0;1;1;0;0;0;1;0;0;0;1;0;1;0;0;1;0;0;0;1;0;0;0;1;0;0;1;0;0;0;1;0;0;0;1;0;0;0;1;0;0;1;0;0;1;0;0;1;0;1;0;1;0;0;0;0;1;0;1;0;0;0;1;0;0;0;1;0;1;0;0;0;1;0;0;1;0;0;0;1;0;0;1;0;0
1;0;0;0;1;0;1;0;0;0;1;0;0;0;1;0;1;0;0;1;0;0;0;1;0;0;0;1;0;0;0;1;0;0;0;1;0;0;0;1;0;0;0;0;1;0;0;1;0;1;0;1;0;0;1;1;0;0;0;1;0;0;1;0;0;0;1;0;0;0;1;0;0;1;0;0;0;1;0;1;0;0;0;1;0;0;1;0;0
0;0;1;0;0;1;0;0;1;0;0;0;1;0;1;0;1;0;0;1;0;0;0;0;1;0;0;0;1;0;0;0;1;0;0;0;1;0;0;0;1;0;0;0;1;0;0;1;0;1;0;1;0;1;0;0;0;1;0;0;1;0;0;0;0;1;0;0;1;0;1;0;1;0;0;0;1;0;0;1;0;0;0;1;0;0;1;0;0
0;0;1;0;1;0;0;0;1;0;0;0;1;0;0;1;0;0;1;0;0;0;1;0;0;0;1;0;1;0;0;0;1;0;0;0;1;0;0;0;1;0;0;0;1;0;0;1;0;0;1;1;0;0;1;0;0;0;1;1;0;0;0;0;0;1;0;0;1;0;0;1;0;0;1;0;0;0;1;0;0;0;1;0;1;0;0;1;1
0;1;0;0;1;0;0;1;0;0;0;1;0;0;1;0;1;0;0;1;0;0;0;1;0;0;0;1;0;0;0;1;0;0;1;0;0;0;0;1;0;0;1;0;0;1;0;0;1;0;0;1;0;1;0;0;1;0;0;0;1;0;1;0;0;0;1;0;0;0;1;0;1;0;0;0;1;0;0;1;0;0;0;1;0;0;1;0;0
1;0;0;0;1;0;1;0;0;0;1;0;0;0;0;1;0;0;1;0;0;0;1;0;0;1;0;0;0;1;0;1;0;0;0;1;0;0;0;1;0;0;0;0;1;0;0;1;0;0;1;0;1;0;1;1;0;0;0;0;1;0;1;0;0;0;1;0;0;0;0;1;0;0;0;1;0;0;1;0;0;0;1;0;0;1;0;1;1
0;0;0;1;0;1;0;0;0;1;0;0;0;1;0;1;0;0;1;0;0;0;1;0;0;0;1;0;1;0;0;0;0;1;0;0;0;1;0;0;0;1;0;0;1;0;0;1;0;0;1;1;0;1;0;0;0;0;1;0;0;1;0;0;0;1;0;0;0;1;0;1;0;0;0;1;0;0;1;0;0;0;1;0;1;0;1;0;1
1;0;0;0;1;0;1;0;0;0;1;0;0;0;0;1;1;0;0;1;0;0;0;1;0;0;0;0;1;0;0;1;0;0;0;1;0;0;1;0;0;0;0;1;0;0;1;0;1;0;0;1;0;1;0;1;0;0;0;0;1;0;1;0;0;0;1;0;0;0;0;1;1;0;0;0;1;0;0;1;0;0;0;0;1;0;1;0;0
0;1;0;0;0;1;0;1;0;0;0;1;0;0;0;1;0;1;0;0;0;1;0;0;0;1;0;0;1;0;0;1;0;0;1;0;0;0;0;1;0;0;0;0;1;0;0;1;0;0;1;1;0;0;1;0;1;0;0;0;1;0;0;0;1;0;0;1;0;0;0;1;0;0;0;1;0;0;1;0;0;0;1;0;1;0;0;1;1
0;1;0;0;0;1;0;1;0;0;0;1;0;0;0;1;0;0;1;0;0;0;1;0;0;1;0;0;0;1;0;1;0;0;0;0;1;0;0;0;1;0;0;0;1;0;0;1;0;1;0;1;0;0;1;0;0;1;0;0;0;1;0;0;0;1;0;0;1;0;0;1;0;0;0;1;0;0;1;0;0;1;0;0;0;1;0;1;1
0;0;1;0;1;0;0;0;1;0;0;0;1;0;0;1;1;0;0;1;0;0;0;0;1;0;0;1;0;0;0;1;0;0;0;1;0;0;0;0;1;0;0;1;0;0;1;0;0;1;0;1;0;1;0;0;0;1;0;0;1;0;0;0;1;0;0;0;1;0;1;0;1;0;0;0;1;0;0;1;0;0;0;1;0;0;1;0;0
0;0;1;0;0;1;0;0;1;0;0;0;0;1;0;1;0;1;0;0;0;0;1;0;0;0;1;0;1;0;0;0;0;1;0;0;0;1;0;0;0;1;0;1;0;0;0;1;0;0;1;1;0;0;1;0;0;0;1;0;0;1;0;0;0;1;0;0;0;1;0;1;0;1;0;0;0;0;1;0;0;0;1;1;0;0;1;0;1
0;0;0;1;0;1;0;0;0;1;0;0;0;1;0;1;0;0;1;0;0;0;1;0;0;1;0;0;1;0;0;0;0;1;0;0;1;0;0;0;0;1;0;0;1;0;0;1;0;1;0;1;0;0;1;0;0;0;1;0;0;1;0;0;0;1;0;0;0;1;0;1;0;0;0;1;0;0;1;0;0;0;1;0;0;1;0;1;1
1;0;0;0;1;0;1;0;0;0;1;0;0;0;1;0;0;1;0;0;0;1;0;0;1;0;0;0;1;0;0;1;0;0;0;1;0;0;0;1;0;0;0;0;1;0;0;1;0;0;1;1;0;0;1;1;0;0;0;1;0;0;1;0;0;0;1;0;0;0;1;0;0;1;0;0;0;1;0;1;0;0;0;1;0;0;0;1;0
0;0;0;1;0;1;0;0;0;1;0;0;0;1;0;1;0;0;1;0;0;0;1;0;0;0;1;0;0;1;0;0;0;1;0;0;1;0;0;0;0;1;0;0;1;0;0;1;0;0;1;1;0;0;1;0;0;0;1;0;1;0;0;0;0;1;0;0;0;1;0;1;0;0;0;1;0;0;1;0;0;0;1;0;0;1;0;1;1
1;0;0;0;1;0;1;0;0;0;1;0;0;0;1;0;1;0;0;1;0;0;0;1;0;0;0;0;0;1;1;0;0;0;1;0;0;0;1;0;0;0;0;1;0;0;1;0;0;1;0;1;0;0;1;1;0;0;0;1;0;0;1;0;0;0;1;0;0;0;1;0;1;0;0;0;1;0;0;1;0;0;0;1;0;0;1;0;0
1;0;0;0;1;0;1;0;0;0;1;0;0;0;0;1;0;1;0;0;0;0;1;0;1;0;0;0;0;1;0;1;0;0;0;1;0;0;1;0;0;0;0;0;1;0;0;1;0;0;1;1;0;0;1;1;0;0;0;1;0;0;1;0;0;0;1;0;0;0;0;1;0;0;0;1;0;0;1;0;0;1;0;0;0;1;0;1;0
1;0;0;0;1;0;1;0;0;0;1;0;0;0;0;1;1;0;0;1;0;0;0;1;0;0;0;1;0;0;0;1;0;0;1;0;0;0;1;0;0;0;0;1;0;0;1;0;1;0;0;1;0;1;0;1;0;0;0;1;0;0;1;0;0;0;1;0;0;0;0;1;1;0;0;0;1;0;0;1;0;0;0;1;0;0;1;0;0
1;0;0;0;1;0;1;0;0;0;1;0;0;0;0;1;1;0;0;1;0;0;0;0;1;0;0;1;0;0;0;1;0;0;0;0;1;0;0;1;0;0;0;0;1;0;1;0;0;1;0;1;0;1;0;1;0;0;0;0;1;0;1;0;0;0;1;0;0;0;0;1;1;0;0;0;1;0;0;1;0;0;0;1;0;0;1;0;0
0;0;1;0;0;1;0;0;1;0;0;0;1;0;0;1;1;0;0;0;0;1;0;0;0;1;0;0;1;0;0;0;0;1;0;0;1;0;0;0;0;1;0;0;1;0;0;1;0;0;1;1;0;1;0;0;0;0;1;0;1;0;0;0;0;1;0;0;0;1;0;1;0;1;0;0;0;1;0;0;0;1;0;1;0;0;1;0;1
0;1;0;0;0;1;0;0;1;0;0;1;0;0;0;1;0;0;1;0;0;0;1;0;0;0;1;0;1;0;0;1;0;0;0;0;1;0;0;1;0;0;0;0;1;0;0;1;0;0;1;1;0;0;1;0;1;0;0;0;1;0;0;0;0;1;0;1;0;0;0;1;0;0;0;1;0;0;1;0;0;0;1;0;1;0;0;1;1
1;0;0;0;1;0;1;0;0;0;1;0;0;0;0;1;0;0;1;0;0;1;0;0;0;1;0;0;0;1;0;1;0;0;0;0;1;0;0;1;0;0;0;0;1;0;0;1;0;0;1;1;0;0;1;1;0;0;0;1;0;0;1;0;0;0;1;0;0;0;0;1;0;0;1;0;1;0;0;1;0;0;0;0;1;0;0;1;0
1;0;0;0;1;0;1;0;0;0;1;0;0;0;0;1;1;0;0;1;0;0;0;1;0;0;0;1;0;0;0;1;0;0;0;1;0;0;0;1;0;0;0;0;1;0;0;1;0;1;0;1;0;0;1;1;0;0;0;1;0;0;1;0;0;0;1;0;0;0;0;1;1;0;0;0;1;0;0;1;0;0;0;1;0;0;1;0;0
1;0;0;0;1;0;1;0;0;0;1;0;0;0;1;0;1;0;0;1;0;0;0;1;0;0;0;0;1;0;0;1;0;0;0;1;0;0;0;1;0;0;0;1;0;1;0;0;1;0;0;1;0;1;0;1;0;0;0;1;0;0;1;0;0;0;1;0;0;0;1;0;1;0;0;0;1;0;0;1;0;0;0;1;0;0;1;0;0
0;0;1;0;0;1;0;1;0;0;0;0;1;0;1;0;1;0;0;1;0;0;0;0;1;0;0;0;1;0;0;0;1;0;0;0;1;0;0;0;1;0;0;1;0;0;0;1;1;0;0;1;0;1;0;0;0;1;0;0;0;1;0;0;1;0;0;0;1;0;1;0;1;0;0;0;1;0;0;1;0;0;0;0;1;0;1;0;1
1;0;0;0;1;0;1;0;0;0;1;0;0;0;1;0;1;0;0;1;0;0;0;1;0;0;0;1;0;0;1;0;0;0;1;0;0;0;1;0;0;0;1;0;0;1;0;0;1;0;0;1;0;1;0;1;0;0;0;1;0;0;1;0;0;0;1;0;0;0;1;0;1;0;0;0;1;0;0;1;0;0;0;0;1;0;1;0;0
0;1;0;0;1;0;1;0;0;0;0;1;0;0;1;0;1;0;0;1;0;0;0;0;1;0;0;1;0;0;0;1;0;0;1;0;0;0;1;0;0;0;0;1;0;0;1;0;1;0;0;1;0;1;0;1;0;0;0;0;1;0;1;0;0;0;1;0;0;0;1;0;0;1;0;0;1;0;0;1;0;0;0;1;0;0;1;0;0
1;0;0;0;0;1;1;0;0;0;1;0;0;0;1;0;1;0;0;1;0;0;0;1;0;0;0;1;0;0;0;1;0;0;1;0;0;0;1;0;0;0;0;1;0;1;0;0;1;0;0;1;0;1;0;1;0;0;0;0;0;1;1;0;0;0;1;0;0;0;1;0;0;1;0;0;1;0;0;1;0;0;0;0;1;0;1;0;0
0;1;0;0;0;1;0;1;0;0;0;1;0;0;0;1;1;0;0;1;0;0;0;1;0;0;0;1;0;0;0;1;0;0;0;1;0;0;0;1;0;0;0;0;1;0;1;0;1;0;0;1;0;1;0;0;1;0;0;0;1;0;1;0;0;0;0;1;0;0;1;0;1;0;0;0;1;0;0;1;0;0;0;1;0;0;1;0;0
0;0;0;1;0;1;0;0;0;1;0;0;0;1;0;1;0;1;0;0;0;0;1;0;0;0;1;0;1;0;0;0;0;1;0;0;0;1;0;0;0;1;0;0;1;0;0;1;0;0;1;1;0;0;1;0;0;0;1;0;0;1;0;0;0;1;0;0;0;1;1;0;0;0;1;0;0;0;1;0;0;0;1;0;0;1;1;0;1
0;1;0;0;0;1;0;1;0;0;0;1;0;0;0;1;1;0;0;1;0;0;0;0;1;0;0;0;1;0;0;1;0;0;0;1;0;0;0;1;0;0;0;1;0;0;1;0;1;0;0;1;0;1;0;0;0;1;0;0;0;1;0;0;1;0;0;1;0;0;0;1;0;0;1;0;0;0;1;0;1;0;0;0;1;0;1;0;1
0;0;1;0;0;1;0;0;0;1;0;0;0;1;0;1;0;0;1;0;0;0;1;0;0;0;1;1;0;0;0;0;0;1;0;0;0;1;0;0;0;1;0;0;1;0;0;1;0;0;1;1;0;0;1;0;0;0;1;0;0;1;0;0;0;1;0;0;0;1;0;1;0;0;0;1;0;0;1;0;0;1;0;1;0;0;0;1;1
0;0;0;1;0;1;0;0;0;1;0;0;0;1;0;1;0;1;0;0;0;0;1;0;0;0;1;0;1;0;0;0;0;1;0;0;0;1;0;0;0;1;0;0;1;0;0;1;0;0;1;1;0;0;1;0;0;0;1;0;0;1;0;0;0;1;0;0;0;1;1;0;0;1;0;0;0;0;1;0;0;0;1;1;0;0;1;0;1
1;0;0;0;1;0;1;0;0;0;1;0;0;0;0;1;0;1;0;1;0;0;0;0;1;0;0;0;1;0;0;1;0;0;1;0;0;0;0;1;0;0;0;0;1;0;0;1;0;0;1;1;0;0;1;1;0;0;0;1;0;0;1;0;0;0;1;0;0;0;0;1;0;1;0;0;1;0;0;1;0;0;0;1;0;0;0;1;0
0;0;1;0;0;1;0;0;1;0;0;0;1;0;0;1;0;1;0;0;0;0;1;0;0;0;1;0;1;0;0;0;1;0;0;0;1;0;0;0;1;0;0;1;0;0;0;1;0;1;0;1;0;1;0;0;0;0;1;0;1;0;0;0;0;1;0;0;1;0;0;1;0;1;0;0;0;0;1;0;0;1;0;0;1;0;1;0;1
0;0;1;0;0;1;0;0;1;0;0;0;1;0;0;1;0;0;1;0;0;0;1;0;0;0;1;0;0;1;0;1;0;0;0;1;0;0;0;1;0;0;0;0;1;0;0;1;0;1;0;1;0;0;1;0;0;0;1;0;0;1;0;0;0;1;0;0;1;0;0;1;0;0;0;1;0;0;1;0;0;0;1;0;1;0;0;1;1
0;0;1;0;0;1;0;0;1;0;0;0;1;0;0;1;0;0;1;0;0;0;1;0;0;0;1;0;0;1;0;0;0;1;0;0;1;0;0;0;0;1;0;0;1;0;0;1;0;0;1;1;0;0;1;0;0;0;1;0;0;1;0;0;0;1;0;0;0;1;0;1;0;0;0;1;0;0;1;0;0;0;1;0;0;1;0;1;1
1;0;0;0;1;0;1;0;0;0;1;0;0;0;0;1;0;1;0;1;0;0;0;0;1;0;0;0;1;0;1;0;0;0;1;0;0;0;1;0;0;0;0;0;1;0;1;0;0;0;1;1;0;0;1;1;0;0;0;1;0;0;1;0;0;0;1;0;0;0;0;1;0;1;0;0;1;0;0;1;0;0;0;1;0;0;0;1;0
1;0;0;0;1;0;1;0;0;0;1;0;0;0;0;1;1;0;0;1;0;0;0;1;0;0;0;0;1;0;0;1;0;0;0;1;0;0;0;1;0;0;0;0;1;0;1;0;1;0;0;1;0;1;0;1;0;0;0;0;1;0;1;0;0;0;1;0;0;0;1;0;1;0;0;0;1;0;0;1;0;0;0;1;0;0;1;0;0
0;0;0;1;1;0;0;0;0;1;0;0;0;1;0;1;0;1;0;0;0;0;1;0;0;0;1;0;0;1;0;0;0;1;0;0;1;0;0;0;0;1;0;1;0;0;0;1;0;0;1;1;0;0;1;0;0;0;1;0;1;0;0;0;0;1;0;0;0;1;0;1;0;1;0;0;0;1;0;0;0;1;0;0;0;1;1;0;1
0;1;0;0;0;1;0;1;0;0;0;1;0;0;0;1;0;1;0;0;0;0;1;0;0;0;1;0;1;0;0;0;1;0;0;1;0;0;0;0;1;0;0;0;1;0;0;1;0;0;1;1;0;0;1;0;0;1;0;0;0;1;0;0;1;0;0;0;1;0;0;1;0;0;0;1;0;1;0;0;0;0;1;0;0;1;0;1;1
0;0;0;1;1;0;0;0;0;1;0;0;0;1;0;1;0;1;0;0;0;0;1;0;0;0;1;0;1;0;0;0;0;1;0;0;1;0;0;0;0;1;0;0;1;0;0;1;0;0;1;1;0;0;1;0;0;0;1;0;1;0;0;0;0;1;0;0;0;1;0;1;0;1;0;0;0;1;0;0;0;1;0;0;1;0;1;0;1
1;0;0;0;1;0;1;0;0;0;1;0;0;0;0;1;0;1;0;0;0;0;1;0;1;0;0;0;1;0;0;1;0;0;0;1;0;0;1;0;0;0;0;0;1;0;0;1;0;0;1;1;0;0;1;1;0;0;0;0;1;0;1;0;0;0;1;0;0;0;1;0;0;0;0;1;0;0;1;0;1;0;0;0;1;0;0;1;0
1;0;0;0;0;1;1;0;0;0;1;0;0;0;0;1;0;1;0;0;1;0;0;1;0;0;0;0;0;1;1;0;0;0;1;0;0;0;1;0;0;0;0;0;1;0;0;1;0;1;0;1;0;0;1;1;0;0;0;0;1;0;1;0;0;0;1;0;0;0;0;1;0;1;0;0;0;1;0;1;0;0;0;1;0;0;1;0;0
1;0;0;0;0;1;1;0;0;0;1;0;0;0;0;1;1;0;0;1;0;0;0;1;0;0;0;0;1;0;0;1;0;0;1;0;0;0;1;0;0;0;0;1;0;1;0;0;1;0;0;1;0;1;0;1;0;0;0;0;0;1;1;0;0;0;1;0;0;0;0;1;1;0;0;0;1;0;0;1;0;0;0;0;1;0;1;0;0
0;0;1;0;0;1;0;0;1;0;0;0;0;1;1;0;1;0;0;1;0;0;0;0;1;0;0;1;0;0;0;1;0;0;0;1;0;0;0;0;1;0;0;1;0;0;1;0;1;0;0;1;0;1;0;0;0;0;1;0;0;1;0;0;0;1;0;0;0;1;1;0;1;0;0;0;1;0;0;1;0;0;0;1;0;0;1;0;1
0;0;1;0;1;0;0;0;1;0;0;0;0;1;0;1;0;1;0;0;0;0;1;0;0;0;1;0;1;0;0;1;0;0;0;1;0;0;0;0;1;0;0;1;0;0;0;1;0;0;1;1;0;1;0;0;0;0;1;0;1;0;0;0;0;1;0;0;0;1;0;1;0;1;0;0;0;1;0;0;0;0;1;0;1;0;1;0;1
0;0;0;1;0;1;0;0;0;1;0;0;0;1;0;1;0;0;1;0;0;0;1;0;0;0;1;0;1;0;0;0;0;1;0;0;0;1;0;0;0;1;0;0;1;0;0;1;0;0;1;1;0;0;1;0;0;0;1;0;0;1;0;0;0;1;0;0;0;1;1;0;0;0;0;1;0;0;1;0;0;0;1;0;1;0;0;1;1
0;0;1;0;0;1;0;0;1;0;0;0;0;1;0;1;0;1;0;0;0;0;1;0;0;0;1;0;1;0;0;0;0;1;0;0;0;1;0;0;0;1;0;0;1;0;0;1;0;1;0;1;0;1;0;0;0;0;1;0;0;1;0;0;0;1;0;0;0;1;0;1;0;0;1;0;0;0;1;0;0;0;1;0;0;1;0;1;1
0;1;0;0;1;0;0;1;0;0;0;1;0;0;1;0;1;0;0;1;0;0;0;1;0;0;0;1;0;0;0;1;0;0;0;1;0;0;0;1;0;0;1;0;0;1;0;0;1;0;0;1;0;1;0;0;1;0;0;1;0;0;0;1;0;0;0;1;0;0;1;0;1;0;0;0;1;0;0;1;0;0;0;1;0;0;1;0;0
1;0;0;0;1;0;1;0;0;0;1;0;0;0;0;1;1;0;0;1;0;0;0;0;1;0;0;1;0;0;0;1;0;0;1;0;0;0;1;0;0;0;1;0;0;0;1;0;1;0;0;1;0;1;0;1;0;0;0;1;0;0;1;0;0;0;1;0;0;0;1;0;1;0;0;0;1;0;0;1;0;0;0;1;0;0;1;0;0
1;0;0;0;0;1;1;0;0;0;1;0;0;0;1;0;1;0;0;1;0;0;0;1;0;0;0;1;0;0;0;0;1;0;0;0;1;0;0;0;1;0;1;0;0;1;0;0;1;0;0;1;0;0;1;1;0;0;0;0;0;1;1;0;0;0;1;0;0;0;1;0;1;0;0;0;1;0;0;1;0;0;0;1;0;0;1;0;0
1;0;0;0;0;1;1;0;0;0;1;0;0;0;0;1;0;1;0;1;0;0;0;1;0;0;0;0;1;0;0;0;1;0;0;0;1;0;0;1;0;0;0;0;1;0;0;1;0;0;1;1;0;0;1;1;0;0;0;1;0;0;1;0;0;0;1;0;0;0;1;0;0;1;0;0;1;0;0;1;0;0;0;0;1;0;1;0;0
1;0;0;0;1;0;1;0;0;0;1;0;0;0;0;1;1;0;0;1;0;0;0;1;0;0;0;0;1;0;0;1;0;0;0;1;0;0;0;1;0;0;0;0;1;0;0;1;0;0;1;1;0;0;1;1;0;0;0;1;0;0;1;0;0;0;1;0;0;0;1;0;0;0;1;0;0;1;0;1;0;0;0;0;1;0;0;1;0
0;1;0;0;0;1;1;0;0;0;0;1;0;0;1;0;1;0;0;1;0;0;0;1;0;0;0;0;1;0;0;1;0;0;0;1;0;0;0;1;0;0;0;0;1;0;1;0;1;0;0;1;0;1;0;1;0;0;0;0;1;0;1;0;0;0;1;0;0;0;1;0;1;0;0;0;1;0;0;1;0;0;0;1;0;0;1;0;0
0;0;1;0;0;1;0;0;1;0;0;0;0;1;0;1;0;1;0;0;0;0;1;0;0;0;1;0;0;1;0;0;0;1;0;0;1;0;0;0;0;1;0;0;1;0;0;1;0;1;0;1;0;0;1;0;0;0;1;0;0;1;0;0;0;1;0;0;0;1;0;1;0;0;1;0;0;0;1;0;0;0;1;0;1;0;1;0;1
1;0;0;0;1;0;1;0;0;0;1;0;0;0;0;1;1;0;0;1;0;0;0;0;1;0;0;1;0;0;0;1;0;0;1;0;0;0;1;0;0;0;0;0;1;0;1;0;0;1;0;1;0;1;0;1;0;0;0;1;0;0;1;0;0;0;1;0;0;0;0;1;0;1;0;0;1;0;0;0;1;0;0;1;0;0;1;0;0
0;0;0;1;1;0;0;0;0;1;0;0;0;1;1;0;1;0;0;0;1;0;0;0;0;1;0;0;1;0;0;0;1;0;0;0;1;0;0;0;0;1;0;1;0;0;1;0;0;0;1;1;0;0;1;0;0;0;1;0;1;0;0;0;0;1;0;0;0;1;1;0;0;1;0;0;0;1;0;0;0;0;1;1;0;0;1;0;1
0;1;0;0;0;1;0;1;0;0;0;1;0;0;1;0;0;1;0;0;0;1;0;0;1;0;0;0;1;0;0;1;0;0;0;1;0;0;0;1;0;0;0;0;1;0;0;1;0;1;0;1;0;0;1;0;1;0;0;0;0;1;0;0;1;0;0;1;0;0;1;0;0;0;0;1;0;0;1;0;1;0;0;0;1;0;0;1;0
0;1;0;0;0;1;0;1;0;0;0;1;0;0;1;0;0;1;0;0;0;1;0;0;1;0;0;1;0;0;0;1;0;0;0;0;1;0;0;1;0;0;0;0;1;0;0;1;0;0;1;1;0;0;1;0;1;0;0;0;1;0;0;0;1;0;0;1;0;0;1;0;0;0;0;1;0;0;1;0;1;0;0;0;1;0;0;1;0
1;0;0;0;1;0;1;0;0;0;1;0;0;0;1;0;1;0;0;1;0;0;0;1;0;0;0;1;0;0;0;1;0;0;0;1;0;0;0;1;0;0;0;1;0;0;1;0;0;1;0;1;0;1;0;1;0;0;0;1;0;0;1;0;0;0;1;0;0;0;1;0;1;0;0;0;1;0;0;1;0;0;0;1;0;0;1;0;0
0;1;0;0;1;0;0;1;0;0;0;1;0;0;1;0;1;0;0;0;1;0;0;0;1;0;0;1;0;0;1;0;0;0;1;0;0;0;1;0;0;0;0;0;1;0;0;1;0;1;0;1;0;0;1;1;0;0;0;1;0;0;1;0;0;0;1;0;0;0;1;0;0;1;0;0;0;1;0;1;0;0;0;1;0;0;1;0;0
0;0;1;0;1;0;0;0;0;1;0;0;0;1;0;1;0;0;1;0;0;0;1;0;0;0;1;0;0;1;0;0;0;1;0;0;0;1;0;0;0;1;0;0;1;0;0;1;0;0;1;1;0;0;1;0;0;0;1;1;0;0;0;0;0;1;0;0;0;1;0;1;0;0;0;1;0;0;1;0;0;0;1;0;0;1;0;1;1
1;0;0;0;1;0;1;0;0;0;1;0;0;0;0;1;1;0;0;1;0;0;0;0;1;0;0;1;0;0;0;0;1;0;0;0;1;0;0;1;0;0;0;1;0;0;1;0;0;0;1;1;0;1;0;1;0;0;0;0;1;0;1;0;0;0;1;0;0;0;1;0;0;1;0;0;1;0;0;1;0;0;0;1;0;0;1;0;0
0;0;0;1;0;1;0;0;0;1;0;0;0;1;0;1;0;0;1;0;0;0;1;0;0;0;1;0;0;1;0;0;0;1;0;0;1;0;0;0;0;1;0;0;1;0;0;1;0;0;1;1;0;0;1;0;0;0;1;0;0;1;0;0;0;1;0;0;0;1;0;1;0;0;0;1;0;0;1;0;0;0;1;0;0;1;0;1;1
1;0;0;0;1;0;1;0;0;0;1;0;0;0;0;1;1;0;0;1;0;0;0;1;0;0;0;1;0;0;0;0;1;0;0;0;1;0;0;1;0;0;0;1;0;0;0;1;1;0;0;1;0;1;0;1;0;0;0;0;1;0;1;0;0;0;1;0;0;0;1;0;1;0;0;0;1;0;0;1;0;0;0;1;0;0;1;0;0
1;0;0;0;1;0;1;0;0;0;1;0;0;0;0;1;1;0;0;1;0;0;0;0;1;0;0;0;1;0;1;0;0;0;1;0;0;0;1;0;0;0;0;1;0;0;1;0;1;0;0;1;0;1;0;1;0;0;0;1;0;0;1;0;0;0;1;0;0;0;1;0;1;0;0;0;1;0;0;1;0;0;0;1;0;0;1;0;0
0;1;0;0;0;1;0;1;0;0;0;1;0;0;0;1;1;0;0;0;1;0;0;0;1;0;0;1;0;0;0;0;1;0;0;0;1;0;0;0;1;0;0;1;0;0;0;1;0;1;0;1;0;1;0;0;0;1;0;0;0;1;0;0;1;0;0;0;1;0;1;0;0;1;0;0;0;1;0;0;1;0;0;1;0;0;1;0;1
1;0;0;0;1;0;1;0;0;0;1;0;0;0;1;0;1;0;0;1;0;0;0;1;0;0;0;0;1;0;0;1;0;0;1;0;0;0;1;0;0;0;0;1;0;0;1;0;1;0;0;1;0;1;0;1;0;0;0;0;1;0;1;0;0;0;1;0;0;0;0;1;1;0;0;0;1;0;0;1;0;0;0;0;1;0;1;0;0
0;1;0;0;1;0;0;1;0;0;0;1;0;0;0;1;0;1;0;1;0;0;0;0;0;1;0;0;1;0;1;0;0;0;1;0;0;0;1;0;0;0;0;1;0;0;1;0;1;0;0;1;0;1;0;1;0;0;0;1;0;0;1;0;0;0;1;0;0;0;0;1;0;1;0;0;1;0;0;0;1;0;0;0;1;0;0;1;0
1;0;0;0;1;0;1;0;0;0;1;0;0;0;1;0;0;1;0;0;0;1;0;0;1;0;0;1;0;0;0;1;0;0;0;0;1;0;1;0;0;0;0;0;1;0;0;1;0;0;1;1;0;0;1;1;0;0;0;0;1;0;1;0;0;0;1;0;0;0;0;1;0;0;0;1;0;0;1;0;0;1;0;1;0;0;0;1;0
1;0;0;0;0;1;1;0;0;0;1;0;0;0;1;0;1;0;0;1;0;0;0;1;0;0;0;1;0;0;1;0;0;0;1;0;0;0;1;0;0;0;0;0;1;0;0;1;1;0;0;1;0;0;1;1;0;0;0;0;0;1;1;0;0;0;1;0;0;0;1;0;0;1;0;0;1;0;0;1;0;0;0;1;0;0;1;0;0
0;0;0;1;0;1;0;0;0;1;0;0;0;1;0;1;0;1;0;0;0;1;0;0;0;0;1;1;0;0;0;0;0;1;0;0;0;1;0;0;0;1;0;1;0;0;0;1;0;0;1;1;0;1;0;0;0;0;1;0;1;0;0;0;0;1;0;0;0;1;1;0;0;1;0;0;0;1;0;0;0;0;1;1;0;0;1;0;1
