inst+var,bioptsat-msh-swap,inst var,bioptsat-us,bioptsat-oll,pminimal-2,bioptsat-msu3,leximaxIST-mod,bioptsat-msh-nolazy,bioptsat-msh-min,bioptsat-msh-nomin,bioptsat-msh-trim,bioptsat-su,bioptsat-msh-tot,bioptsat-osh,mococg-openwbo,seesaw-sat-exmin,bioptsat-msh-enum,mocoihs-openwbo,paretomcs
drmx-am12-outof-40-etot-w.wcnf.gz,0.25,def,0.33,0.54,0.55,0.78,5400.0,1.92,2.16,1.95,1.94,1.88,1.72,1.85,5400.0,5400.0,5400.0,5400.0,5400.0
drmx-am16-outof-45-etot-w.wcnf.gz,0.29,def,0.26,0.75,1.09,0.75,5400.0,3.06,2.99,3.02,3.02,3.03,3.25,3.39,5400.0,5400.0,5400.0,5400.0,5400.0
drmx-am20-outof-50-etot-w.wcnf.gz,0.3199999999999999,def,0.5700000000000001,1.72,1.0,1.91,5400.0,6.75,6.92,6.71,6.67,5.489999999999999,5.98,6.46,5400.0,5400.0,5400.0,5400.0,5400.0
drmx-am28-outof-60-etot-w.wcnf.gz,0.43,def,0.74,1.25,5.74,1.76,5400.0,15.41,15.409999999999998,14.84,15.41,15.57,15.59,15.34,5400.0,5400.0,5400.0,5400.0,5400.0
drmx-am12-outof-40-ecardn-w.wcnf.gz,1.74,def,0.55,1.3,2.32,0.7100000000000001,1.8,1.48,1.49,1.49,1.53,1.54,1.6,1.72,5400.0,5400.0,5400.0,5400.0,5400.0
drmx-am24-outof-55-etot-w.wcnf.gz,1.55,def,0.59,2.15,3.99,2.62,5400.0,10.21,9.6,10.48,10.25,8.81,9.53,10.03,5400.0,5400.0,5400.0,5400.0,5400.0
drmx-am12-outof-40-esortn-w.wcnf.gz,1.7,def,0.73,1.26,5.01,0.87,1.29,6.8,6.81,6.76,6.82,6.8,7.27,7.29,2995.15,5400.0,5400.0,5400.0,5400.0
drmx-am32-outof-70-etot-w.wcnf.gz,33.25,def,1.12,5.5200000000000005,6.390000000000001,4.39,5400.0,33.629999999999995,33.919999999999995,33.79,33.470000000000006,32.52,34.14,33.46,5400.0,5400.0,5400.0,5400.0,5400.0
drmx-am16-outof-45-ecardn-w.wcnf.gz,4.47,def,1.76,3.31,5.23,1.61,1.93,5.8,5.72,5.8,5.73,5.569999999999999,5.55,5.8100000000000005,5400.0,5400.0,5400.0,5400.0,5400.0
drmx-am16-outof-45-esortn-w.wcnf.gz,4.75,def,1.87,3.67,5.29,1.67,2.08,7.35,7.12,7.33,7.38,7.439999999999999,7.61,8.030000000000001,5400.0,5400.0,5400.0,5400.0,5400.0
drmx-am28-outof-60-esortn-w.wcnf.gz,15.1,def,1.91,2.8,12.73,1.77,10.24,7.43,7.41,7.430000000000001,7.39,8.28,7.77,7.37,5400.0,5400.0,5400.0,5400.0,5400.0
drmx-am28-outof-60-ecardn-w.wcnf.gz,17.11,def,1.91,2.44,15.25,1.88,6.65,7.17,6.93,7.27,7.05,6.94,6.5600000000000005,6.47,5400.0,5400.0,5400.0,5400.0,5400.0
drmx-am20-outof-50-ecardn-w.wcnf.gz,5.77,def,2.13,5.21,9.38,2.98,8.68,6.659999999999999,6.37,6.75,6.79,6.73,8.74,8.61,5400.0,5400.0,5400.0,5400.0,5400.0
drmx-am20-outof-50-esortn-w.wcnf.gz,6.359999999999999,def,2.25,4.61,11.17,2.7,2.46,7.54,7.74,7.45,7.97,7.49,9.27,8.200000000000001,5400.0,5400.0,5400.0,5400.0,5400.0
drmx-am24-outof-55-ecardn-w.wcnf.gz,14.09,def,3.27,5.19,20.67,5.359999999999999,2.54,7.04,7.87,7.63,7.27,6.409999999999999,6.35,7.03,5400.0,5400.0,5400.0,5400.0,5400.0
drmx-am24-outof-55-esortn-w.wcnf.gz,10.78,def,3.33,5.039999999999999,14.02,4.869999999999999,2.96,11.15,9.62,10.78,10.62,13.25,9.27,9.73,5400.0,5400.0,5400.0,5400.0,5400.0
drmx-am24-outof-55-emtot-w.wcnf.gz,295.45,def,615.18,1846.29,567.26,593.41,13.11,281.16,278.29,281.13,284.07,285.7,860.57,893.92,5400.0,5400.0,5400.0,5400.0,5400.0
drmx-am32-outof-70-esortn-w.wcnf.gz,534.63,def,40.38,158.13,611.61,216.72,15.0,180.91,201.5,185.35,181.22,119.92,128.04999999999998,119.85,5400.0,5400.0,5400.0,5400.0,5400.0
drmx-am12-outof-40-emtot-w.wcnf.gz,24.69,def,49.91,49.2,29.21,48.75,35.79,22.91,22.26,22.86,23.0,26.81,23.75,23.37,5400.0,5400.0,5400.0,5400.0,5400.0
drmx-am28-outof-60-emtot-w.wcnf.gz,1229.39,def,2176.02,2922.76,2496.9,2045.84,26.49,949.33,927.4,925.36,944.98,937.45,1220.22,1403.77,5400.0,5400.0,5400.0,5400.0,5400.0
drmx-am32-outof-70-ecardn-w.wcnf.gz,458.2,def,39.05,141.99,609.43,240.75,52.77,172.86,168.32,164.0,169.74,95.13,104.37,106.58,5400.0,5400.0,5400.0,5400.0,5400.0
drmx-am16-outof-45-emtot-w.wcnf.gz,167.76000000000002,def,376.8,818.62,224.8,369.58,43.49,151.29000000000002,229.35,152.35000000000002,150.04000000000002,180.74,431.27,521.94,5400.0,5400.0,5400.0,5400.0,5400.0
drmx-am20-outof-50-emtot-w.wcnf.gz,54.98,def,123.74,218.27,91.21,127.04,56.53,58.67,63.48,59.71,57.89,59.97,96.51,94.51,5400.0,5400.0,5400.0,5400.0,5400.0
drmx-am32-outof-70-emtot-w.wcnf.gz,4520.96,def,5400.0,5400.0,5400.0,5400.0,98.14,3326.62,3028.58,2925.0,3318.64,2825.2,5400.0,5400.0,5400.0,5400.0,5400.0,5400.0,5400.0
drmx-am12-outof-40-ekmtot-w.wcnf.gz,5400.0,def,5400.0,5400.0,5400.0,5400.0,5400.0,5400.0,5400.0,5400.0,5400.0,5400.0,5400.0,5400.0,5400.0,5400.0,5400.0,5400.0,5400.0
drmx-am12-outof-40-eseqc-w.wcnf.gz,5400.0,def,5400.0,5400.0,5400.0,5400.0,5400.0,5400.0,5400.0,5400.0,5400.0,5400.0,5400.0,5400.0,5400.0,5400.0,5400.0,5400.0,5400.0
drmx-am16-outof-45-ekmtot-w.wcnf.gz,5400.0,def,5400.0,5400.0,5400.0,5400.0,5400.0,5400.0,5400.0,5400.0,5400.0,5400.0,5400.0,5400.0,5400.0,5400.0,5400.0,5400.0,5400.0
drmx-am16-outof-45-eseqc-w.wcnf.gz,5400.0,def,5400.0,5400.0,5400.0,5400.0,5400.0,5400.0,5400.0,5400.0,5400.0,5400.0,5400.0,5400.0,5400.0,5400.0,5400.0,5400.0,5400.0
drmx-am20-outof-50-ekmtot-w.wcnf.gz,5400.0,def,5400.0,5400.0,5400.0,5400.0,5400.0,5400.0,5400.0,5400.0,5400.0,5400.0,5400.0,5400.0,5400.0,5400.0,5400.0,5400.0,5400.0
drmx-am20-outof-50-eseqc-w.wcnf.gz,5400.0,def,5400.0,5400.0,5400.0,5400.0,5400.0,5400.0,5400.0,5400.0,5400.0,5400.0,5400.0,5400.0,5400.0,5400.0,5400.0,5400.0,5400.0
drmx-am24-outof-55-ekmtot-w.wcnf.gz,5400.0,def,5400.0,5400.0,5400.0,5400.0,5400.0,5400.0,5400.0,5400.0,5400.0,5400.0,5400.0,5400.0,5400.0,5400.0,5400.0,5400.0,5400.0
drmx-am24-outof-55-eseqc-w.wcnf.gz,5400.0,def,5400.0,5400.0,5400.0,5400.0,5400.0,5400.0,5400.0,5400.0,5400.0,5400.0,5400.0,5400.0,5400.0,5400.0,5400.0,5400.0,5400.0
drmx-am28-outof-60-ekmtot-w.wcnf.gz,5400.0,def,5400.0,5400.0,5400.0,5400.0,5400.0,5400.0,5400.0,5400.0,5400.0,5400.0,5400.0,5400.0,5400.0,5400.0,5400.0,5400.0,5400.0
drmx-am28-outof-60-eseqc-w.wcnf.gz,5400.0,def,5400.0,5400.0,5400.0,5400.0,5400.0,5400.0,5400.0,5400.0,5400.0,5400.0,5400.0,5400.0,5400.0,5400.0,5400.0,5400.0,5400.0
drmx-am32-outof-70-ekmtot-w.wcnf.gz,5400.0,def,5400.0,5400.0,5400.0,5400.0,5400.0,5400.0,5400.0,5400.0,5400.0,5400.0,5400.0,5400.0,5400.0,5400.0,5400.0,5400.0,5400.0
drmx-am32-outof-70-eseqc-w.wcnf.gz,5400.0,def,5400.0,5400.0,5400.0,5400.0,5400.0,5400.0,5400.0,5400.0,5400.0,5400.0,5400.0,5400.0,5400.0,5400.0,5400.0,5400.0,5400.0
