,increasing,decreasing,enumeration,bioptsat-msh-trim,inc norm,dec norm
haplotyping-pedigrees/ped2.B.recomb1-0.01-1.wcnf.gz.mcnf,0.482837,25.0967,4.6e-05,26.33,0.01833790353209267,0.953159893657425
haplotyping-pedigrees/ped2.B.recomb1-0.01-2.wcnf.gz.mcnf,0.322609,24.8089,0.000136,25.92,0.012446334876543208,0.9571334876543209
haplotyping-pedigrees/ped2.B.recomb1-0.01-3.wcnf.gz.mcnf,0.388194,28.0122,9.1e-05,29.13,0.01332626158599382,0.9616271884654995
haplotyping-pedigrees/ped2.B.recomb1-0.01-4.wcnf.gz.mcnf,0.372719,27.3893,7.2e-05,28.630000000000003,0.013018477121900105,0.9566643381068808
haplotyping-pedigrees/ped2.B.recomb1-0.01-5.wcnf.gz.mcnf,0.22049,25.3585,9.1e-05,26.3,0.008383650190114068,0.9642015209125475
haplotyping-pedigrees/ped2.B.recomb1-0.10-10.wcnf.gz.mcnf,0.492714,23.6552,3.3e-05,25.08,0.019645693779904307,0.9431897926634769
haplotyping-pedigrees/ped2.B.recomb1-0.10-6.wcnf.gz.mcnf,0.917035,24.5869,6.5e-05,26.57,0.03451392547986451,0.9253631915694392
haplotyping-pedigrees/ped2.B.recomb1-0.10-7.wcnf.gz.mcnf,0.529505,31.194,1.4e-05,32.93,0.016079714546006683,0.9472821135742484
haplotyping-pedigrees/ped2.B.recomb1-0.10-8.wcnf.gz.mcnf,0.342292,27.5512,1.3e-05,28.88,0.011852216066481994,0.9539889196675901
haplotyping-pedigrees/ped2.B.recomb1-0.10-9.wcnf.gz.mcnf,1.14486,0.843475,8.6e-05,2.93,0.3907372013651877,0.2878754266211604
haplotyping-pedigrees/ped2.B.recomb1-0.20-11.wcnf.gz.mcnf,0.666124,34.4812,5.3e-05,36.47,0.0182649849191116,0.9454675075404443
haplotyping-pedigrees/ped2.B.recomb1-0.20-12.wcnf.gz.mcnf,4.46702,3.12572,0.000142,8.629999999999999,0.5176152954808807,0.3621923522595597
haplotyping-pedigrees/ped2.B.recomb1-0.20-13.wcnf.gz.mcnf,0.760754,30.6138,0.0001,32.54,0.02337904118008605,0.9408051628764598
haplotyping-pedigrees/ped2.B.recomb1-0.20-14.wcnf.gz.mcnf,0.551258,27.0601,4.4e-05,28.79,0.01914755123306704,0.9399131642931573
haplotyping-pedigrees/ped2.B.recomb1-0.20-15.wcnf.gz.mcnf,3.15107,3.62497,0.000119,7.95,0.39636100628930815,0.4559710691823899
haplotyping-pedigrees/ped2.G.recomb10-0.01-1.wcnf.gz.mcnf,nan,nan,nan,5400.0,nan,nan
haplotyping-pedigrees/ped2.G.recomb10-0.01-2.wcnf.gz.mcnf,nan,nan,nan,5400.0,nan,nan
haplotyping-pedigrees/ped2.G.recomb10-0.01-3.wcnf.gz.mcnf,nan,nan,nan,5400.0,nan,nan
haplotyping-pedigrees/ped2.G.recomb10-0.01-4.wcnf.gz.mcnf,nan,nan,nan,5400.0,nan,nan
haplotyping-pedigrees/ped2.G.recomb10-0.01-5.wcnf.gz.mcnf,nan,nan,nan,5400.0,nan,nan
haplotyping-pedigrees/ped2.G.recomb10-0.10-10.wcnf.gz.mcnf,nan,nan,nan,5400.0,nan,nan
haplotyping-pedigrees/ped2.G.recomb10-0.10-6.wcnf.gz.mcnf,nan,nan,nan,5400.0,nan,nan
haplotyping-pedigrees/ped2.G.recomb10-0.10-7.wcnf.gz.mcnf,nan,nan,nan,5400.0,nan,nan
haplotyping-pedigrees/ped2.G.recomb10-0.10-8.wcnf.gz.mcnf,nan,nan,nan,5400.0,nan,nan
haplotyping-pedigrees/ped2.G.recomb10-0.10-9.wcnf.gz.mcnf,nan,nan,nan,5400.0,nan,nan
haplotyping-pedigrees/ped2.G.recomb1-0.01-1.wcnf.gz.mcnf,nan,nan,nan,5400.0,nan,nan
haplotyping-pedigrees/ped2.G.recomb1-0.01-2.wcnf.gz.mcnf,1441.11,1900.03,3.9e-05,3346.05,0.43068991796297124,0.5678426801751318
haplotyping-pedigrees/ped2.G.recomb1-0.01-3.wcnf.gz.mcnf,23.3799,159.321,2.8e-05,188.25,0.12419601593625497,0.8463266932270916
haplotyping-pedigrees/ped2.G.recomb1-0.01-4.wcnf.gz.mcnf,nan,nan,nan,5400.0,nan,nan
haplotyping-pedigrees/ped2.G.recomb1-0.01-5.wcnf.gz.mcnf,1260.92,178.453,6.3e-05,1445.4499999999998,0.8723373343941335,0.12345843854854892
haplotyping-pedigrees/ped2.G.recomb10-0.20-11.wcnf.gz.mcnf,nan,nan,nan,5400.0,nan,nan
haplotyping-pedigrees/ped2.G.recomb10-0.20-12.wcnf.gz.mcnf,nan,nan,nan,5400.0,nan,nan
haplotyping-pedigrees/ped2.G.recomb10-0.20-13.wcnf.gz.mcnf,nan,nan,nan,5400.0,nan,nan
haplotyping-pedigrees/ped2.G.recomb10-0.20-14.wcnf.gz.mcnf,nan,nan,nan,5400.0,nan,nan
haplotyping-pedigrees/ped2.G.recomb10-0.20-15.wcnf.gz.mcnf,nan,nan,nan,5400.0,nan,nan
haplotyping-pedigrees/ped2.G.recomb1-0.10-10.wcnf.gz.mcnf,nan,nan,nan,5400.0,nan,nan
haplotyping-pedigrees/ped2.G.recomb1-0.10-6.wcnf.gz.mcnf,nan,nan,nan,5400.0,nan,nan
haplotyping-pedigrees/ped2.G.recomb1-0.10-7.wcnf.gz.mcnf,nan,nan,nan,5400.0,nan,nan
haplotyping-pedigrees/ped2.G.recomb1-0.10-8.wcnf.gz.mcnf,nan,nan,nan,5400.0,nan,nan
haplotyping-pedigrees/ped2.G.recomb1-0.10-9.wcnf.gz.mcnf,nan,nan,nan,5400.0,nan,nan
haplotyping-pedigrees/ped2.G.recomb1-0.20-11.wcnf.gz.mcnf,nan,nan,nan,5400.0,nan,nan
haplotyping-pedigrees/ped2.G.recomb1-0.20-12.wcnf.gz.mcnf,nan,nan,nan,5400.0,nan,nan
haplotyping-pedigrees/ped2.G.recomb1-0.20-13.wcnf.gz.mcnf,nan,nan,nan,5400.0,nan,nan
haplotyping-pedigrees/ped2.G.recomb1-0.20-14.wcnf.gz.mcnf,nan,nan,nan,5400.0,nan,nan
haplotyping-pedigrees/ped2.G.recomb1-0.20-15.wcnf.gz.mcnf,nan,nan,nan,5400.0,nan,nan
haplotyping-pedigrees/ped2.G.recomb5-0.01-1.wcnf.gz.mcnf,nan,nan,nan,5400.0,nan,nan
haplotyping-pedigrees/ped2.G.recomb5-0.01-2.wcnf.gz.mcnf,nan,nan,nan,5400.0,nan,nan
haplotyping-pedigrees/ped2.G.recomb5-0.01-3.wcnf.gz.mcnf,nan,nan,nan,5400.0,nan,nan
haplotyping-pedigrees/ped2.G.recomb5-0.01-4.wcnf.gz.mcnf,nan,nan,nan,5400.0,nan,nan
haplotyping-pedigrees/ped2.G.recomb5-0.01-5.wcnf.gz.mcnf,nan,nan,nan,5400.0,nan,nan
haplotyping-pedigrees/ped2.G.recomb5-0.10-10.wcnf.gz.mcnf,nan,nan,nan,5400.0,nan,nan
haplotyping-pedigrees/ped2.G.recomb5-0.10-6.wcnf.gz.mcnf,nan,nan,nan,5400.0,nan,nan
haplotyping-pedigrees/ped2.G.recomb5-0.10-7.wcnf.gz.mcnf,nan,nan,nan,5400.0,nan,nan
haplotyping-pedigrees/ped2.G.recomb5-0.10-8.wcnf.gz.mcnf,nan,nan,nan,5400.0,nan,nan
haplotyping-pedigrees/ped2.G.recomb5-0.10-9.wcnf.gz.mcnf,nan,nan,nan,5400.0,nan,nan
haplotyping-pedigrees/ped2.G.recomb5-0.20-11.wcnf.gz.mcnf,nan,nan,nan,5400.0,nan,nan
haplotyping-pedigrees/ped2.G.recomb5-0.20-12.wcnf.gz.mcnf,nan,nan,nan,5400.0,nan,nan
haplotyping-pedigrees/ped2.G.recomb5-0.20-13.wcnf.gz.mcnf,nan,nan,nan,5400.0,nan,nan
haplotyping-pedigrees/ped2.G.recomb5-0.20-14.wcnf.gz.mcnf,nan,nan,nan,5400.0,nan,nan
haplotyping-pedigrees/ped2.G.recomb5-0.20-15.wcnf.gz.mcnf,nan,nan,nan,5400.0,nan,nan
haplotyping-pedigrees/ped3.D.recomb10-0.20-11.wcnf.gz.mcnf,2765.24,2.35148,3.6e-05,2768.1,0.9989668003323579,0.0008494924316318053
haplotyping-pedigrees/ped3.D.recomb10-0.20-12.wcnf.gz.mcnf,0.461064,0.219861,1e-05,1.24,0.3718258064516129,0.17730725806451614
haplotyping-pedigrees/ped3.D.recomb10-0.20-13.wcnf.gz.mcnf,49.6606,6.10237,5.6e-05,56.32,0.8817578125000001,0.10835174005681818
haplotyping-pedigrees/ped3.D.recomb10-0.20-14.wcnf.gz.mcnf,19.6802,1.1585,5.5e-05,21.39,0.920065451145395,0.054160822814399254
haplotyping-pedigrees/ped3.D.recomb10-0.20-15.wcnf.gz.mcnf,nan,nan,nan,5400.0,nan,nan
haplotyping-pedigrees/ped3.E.recomb10-0.20-11.wcnf.gz.mcnf,nan,nan,nan,5400.0,nan,nan
haplotyping-pedigrees/ped3.E.recomb10-0.20-12.wcnf.gz.mcnf,nan,nan,nan,5400.0,nan,nan
haplotyping-pedigrees/ped3.E.recomb10-0.20-13.wcnf.gz.mcnf,nan,nan,nan,5400.0,nan,nan
haplotyping-pedigrees/ped3.E.recomb10-0.20-14.wcnf.gz.mcnf,nan,nan,nan,5400.0,nan,nan
haplotyping-pedigrees/ped3.E.recomb10-0.20-15.wcnf.gz.mcnf,nan,nan,nan,5400.0,nan,nan
haplotyping-pedigrees/ped3.F.recomb10-0.01-1.wcnf.gz.mcnf,nan,nan,nan,5400.0,nan,nan
haplotyping-pedigrees/ped3.F.recomb10-0.01-2.wcnf.gz.mcnf,nan,nan,nan,5400.0,nan,nan
haplotyping-pedigrees/ped3.F.recomb10-0.01-3.wcnf.gz.mcnf,nan,nan,nan,5400.0,nan,nan
haplotyping-pedigrees/ped3.F.recomb10-0.01-4.wcnf.gz.mcnf,nan,nan,nan,5400.0,nan,nan
haplotyping-pedigrees/ped3.F.recomb10-0.01-5.wcnf.gz.mcnf,nan,nan,nan,5400.0,nan,nan
haplotyping-pedigrees/ped3.F.recomb10-0.10-10.wcnf.gz.mcnf,nan,nan,nan,5400.0,nan,nan
haplotyping-pedigrees/ped3.F.recomb10-0.10-6.wcnf.gz.mcnf,nan,nan,nan,5400.0,nan,nan
haplotyping-pedigrees/ped3.F.recomb10-0.10-7.wcnf.gz.mcnf,nan,nan,nan,5400.0,nan,nan
haplotyping-pedigrees/ped3.F.recomb10-0.10-8.wcnf.gz.mcnf,nan,nan,nan,5400.0,nan,nan
haplotyping-pedigrees/ped3.F.recomb10-0.10-9.wcnf.gz.mcnf,nan,nan,nan,5400.0,nan,nan
haplotyping-pedigrees/ped3.F.recomb10-0.20-11.wcnf.gz.mcnf,nan,nan,nan,5400.0,nan,nan
haplotyping-pedigrees/ped3.F.recomb10-0.20-12.wcnf.gz.mcnf,nan,nan,nan,5400.0,nan,nan
haplotyping-pedigrees/ped3.F.recomb10-0.20-13.wcnf.gz.mcnf,nan,nan,nan,5400.0,nan,nan
haplotyping-pedigrees/ped3.F.recomb10-0.20-14.wcnf.gz.mcnf,nan,nan,nan,5400.0,nan,nan
haplotyping-pedigrees/ped3.F.recomb10-0.20-15.wcnf.gz.mcnf,nan,nan,nan,5400.0,nan,nan
haplotyping-pedigrees/ped3.G.recomb10-0.01-1.wcnf.gz.mcnf,nan,nan,nan,5400.0,nan,nan
haplotyping-pedigrees/ped3.G.recomb10-0.01-2.wcnf.gz.mcnf,nan,nan,nan,5400.0,nan,nan
haplotyping-pedigrees/ped3.G.recomb10-0.01-3.wcnf.gz.mcnf,nan,nan,nan,5400.0,nan,nan
haplotyping-pedigrees/ped3.G.recomb10-0.01-4.wcnf.gz.mcnf,nan,nan,nan,5400.0,nan,nan
haplotyping-pedigrees/ped3.G.recomb10-0.01-5.wcnf.gz.mcnf,nan,nan,nan,5400.0,nan,nan
haplotyping-pedigrees/ped3.G.recomb10-0.10-10.wcnf.gz.mcnf,nan,nan,nan,5400.0,nan,nan
haplotyping-pedigrees/ped3.G.recomb10-0.10-6.wcnf.gz.mcnf,nan,nan,nan,5400.0,nan,nan
haplotyping-pedigrees/ped3.G.recomb10-0.10-7.wcnf.gz.mcnf,nan,nan,nan,5400.0,nan,nan
haplotyping-pedigrees/ped3.G.recomb10-0.10-8.wcnf.gz.mcnf,nan,nan,nan,5400.0,nan,nan
haplotyping-pedigrees/ped3.G.recomb10-0.10-9.wcnf.gz.mcnf,nan,nan,nan,5400.0,nan,nan
haplotyping-pedigrees/ped3.G.recomb10-0.20-11.wcnf.gz.mcnf,nan,nan,nan,5400.0,nan,nan
haplotyping-pedigrees/ped3.G.recomb10-0.20-12.wcnf.gz.mcnf,nan,nan,nan,5400.0,nan,nan
haplotyping-pedigrees/ped3.G.recomb10-0.20-13.wcnf.gz.mcnf,nan,nan,nan,5400.0,nan,nan
haplotyping-pedigrees/ped3.G.recomb10-0.20-14.wcnf.gz.mcnf,nan,nan,nan,5400.0,nan,nan
haplotyping-pedigrees/ped3.G.recomb10-0.20-15.wcnf.gz.mcnf,nan,nan,nan,5400.0,nan,nan
