nsolved,bioptsat-msh-base,bioptsat-msh,bioptsat-su,bioptsat-oll,pminimal-2-base,bioptsat-msu3,bioptsat-osh,pminimal-2,bioptsat-us,bioptsat-msh-enum,bioptsat-msh-exact,bioptsat-msh-nolazy,bioptsat-msh-tot,bioptsat-msh-nocoi,seesaw-sat-exmin
1,0.0,0.01,0.01,0.01,0.01,0.01,0.01,0.01,0.01,0.04,0.04,0.04,0.04,0.05,0.07
2,0.01,0.01,0.01,0.01,0.01,0.02,0.02,0.01,0.02,0.05,0.05,0.04,0.05,0.05,0.08
3,0.04,0.02,0.04,0.02,0.05,0.03,0.03,0.04,0.03,0.11,0.07,0.05,0.06,0.06,0.5
4,0.04,0.03,0.06,0.02,0.06,0.03,0.05,0.05,0.04,1.87,0.07,0.06,0.06,0.06,0.8799999999999999
5,0.04,0.06,0.06,0.04,0.0999999999999999,0.06,0.05,0.06,0.06,10.22,0.08,0.09,0.07,0.08,2.72
6,0.06,0.06,0.0699999999999999,0.04,0.14,0.13,0.09,0.08,0.06,17.07,0.1,0.1,0.13,0.11,6.529999999999999
7,0.15,0.17,0.12,0.05,0.14,0.19,0.19,0.12,0.14,61.64,0.19,0.2,0.25,0.18,8.18
8,0.41,0.39,0.12,0.0699999999999999,0.15,0.31,0.41,0.16,0.26,223.02,0.4599999999999999,0.44,0.2799999999999999,0.38,10.04
9,0.73,0.42,0.18,0.08,0.28,0.4,0.48,0.23,0.32,319.05,0.49,0.44,0.43,0.47,17.94
10,0.76,0.44,0.18,0.16,0.53,0.5700000000000001,0.7000000000000001,0.3,0.33,349.83,0.6000000000000001,0.51,0.4499999999999999,0.47,18.26
11,1.2,0.52,0.41,0.2299999999999999,0.73,0.7100000000000001,0.74,0.34,0.55,353.54999999999995,0.6000000000000001,0.5800000000000001,0.46,0.55,25.53
12,1.49,0.66,0.43,0.54,0.81,0.75,0.94,0.45,0.5700000000000001,463.84,0.62,0.7000000000000001,0.5700000000000001,0.64,25.85
13,1.9,0.85,0.4399999999999999,0.63,1.02,0.78,0.98,0.56,0.59,473.92,0.63,0.89,0.5900000000000001,0.88,26.610000000000003
14,1.93,0.86,0.49,0.75,1.12,0.87,1.1,1.07,0.73,1005.95,0.89,0.9,0.62,0.99,26.71
15,2.92,1.04,0.5,0.86,2.41,1.23,1.12,1.14,0.74,1073.7,1.11,1.06,0.65,1.07,28.21
16,3.04,1.06,0.6,1.25,2.44,1.35,1.3,1.56,0.75,,1.15,1.1,0.6900000000000001,1.14,28.42
17,3.58,1.09,0.71,1.26,2.8,1.36,1.32,1.86,1.12,,1.18,1.12,0.7100000000000001,1.15,29.01
18,5.83,1.12,0.8400000000000001,1.28,3.0,1.39,1.33,2.49,1.19,,1.26,1.2,1.01,1.15,29.02
19,6.239999999999999,1.14,1.02,1.3,3.9,1.45,1.38,2.59,1.4200000000000002,,1.3,1.21,1.01,1.23,29.23
20,6.7,1.19,1.04,1.32,4.01,1.47,1.4,3.08,1.43,,1.36,1.24,1.03,1.31,29.42
21,6.75,1.25,1.06,1.51,5.01,1.61,1.46,3.08,1.51,,1.38,1.26,1.0699999999999998,1.31,31.53
22,6.82,1.35,1.08,1.53,5.0200000000000005,1.63,1.49,3.37,1.58,,1.39,1.33,1.09,1.34,31.6
23,7.03,1.39,1.31,1.56,5.04,1.67,1.52,3.5700000000000003,1.6,,1.43,1.39,1.09,1.39,32.27
24,7.109999999999999,1.39,1.7,1.62,5.28,1.74,1.55,3.68,1.64,,1.49,1.39,1.12,1.4,35.61
25,7.34,1.43,1.78,1.72,5.73,1.76,1.71,3.83,1.65,,1.5,1.47,1.22,1.46,36.01
26,7.36,1.49,1.82,1.75,6.3500000000000005,1.77,1.9,3.92,1.76,,1.59,1.49,1.38,1.51,68.41
27,7.689999999999999,1.52,1.93,1.82,6.43,1.85,1.92,4.510000000000001,1.82,,1.92,1.51,1.38,1.53,184.89
28,7.86,1.56,1.93,1.86,7.81,1.85,2.0,4.6,1.87,,1.99,1.65,1.39,1.62,3981.43
29,8.07,1.84,2.21,1.9,9.44,1.88,2.03,4.63,1.91,,2.09,1.81,1.4200000000000002,1.87,
30,8.62,1.87,2.4,2.15,10.5,1.91,2.03,4.64,1.91,,2.11,1.86,1.47,1.89,
31,8.77,1.89,2.8,2.15,11.22,2.06,2.04,5.51,1.93,,2.12,1.91,1.55,1.92,
32,10.83,1.9,3.06,2.38,12.61,2.17,2.09,6.2,2.03,,2.12,2.11,1.83,1.99,
33,10.86,1.95,3.2300000000000004,2.44,13.7,2.62,2.18,6.75,2.09,,2.13,2.35,1.84,2.14,
34,15.19,2.51,3.43,2.5,15.33,2.7,2.4,7.26,2.13,,2.13,2.64,2.05,2.56,
35,18.1,2.55,3.49,2.61,20.81,2.77,2.48,7.65,2.25,,2.42,2.66,2.2,2.6,
36,21.45,2.85,3.66,2.8,20.880000000000003,2.98,2.49,8.25,2.36,,2.45,2.86,2.21,2.64,
37,23.09,2.86,3.84,3.31,23.81,3.02,2.79,8.92,2.51,,2.79,2.87,2.27,2.93,
38,25.6,2.99,3.87,3.67,27.9,3.97,3.46,9.58,3.27,,2.98,2.99,2.55,2.98,
39,25.89,3.02,4.3,4.61,27.95,4.39,5.0,9.64,3.33,,3.1,3.02,3.29,3.05,
40,26.37,3.15,4.35,4.85,28.0,4.869999999999999,5.69,10.68,3.52,,3.5,3.02,3.48,3.15,
41,26.73,3.52,4.760000000000001,5.039999999999999,28.9,5.359999999999999,6.63,11.12,6.25,,4.33,3.59,4.9,3.88,
42,26.88,3.9,4.85,5.19,29.22,5.71,6.8,11.26,7.35,,4.78,3.87,5.04,4.17,
43,28.36,5.81,5.359999999999999,5.21,29.64,6.470000000000001,7.35,11.95,7.58,,6.94,5.84,5.32,6.42,
44,28.44,6.56,5.64,5.5200000000000005,30.09,11.67,23.53,12.35,7.68,,8.14,6.640000000000001,6.61,7.14,
45,28.6,10.89,7.59,6.07,30.68,18.33,25.37,18.42,8.059999999999999,,10.81,10.94,8.26,10.95,
46,28.91,12.84,9.21,6.41,31.62,20.66,26.020000000000003,21.33,12.02,,11.67,12.64,9.01,11.73,
47,32.19,13.23,10.33,6.84,31.770000000000003,43.49,27.02,23.28,12.25,,15.04,13.14,11.34,11.86,
48,32.21,20.71,11.47,7.399999999999999,32.13,48.75,28.68,24.33,12.28,,25.0,20.72,11.6,21.47,
49,32.61,23.01,12.49,7.41,37.46,51.19,41.5,26.33,13.58,,27.05,23.35,20.94,23.23,
50,33.65,38.02,23.42,18.24,38.22,54.87,57.85,30.2,19.59,,41.32,37.76,22.02,45.14,
51,35.550000000000004,40.5,23.79,21.17,45.0,63.77,67.62,32.28,20.05,,64.22,40.74,27.03,48.510000000000005,
52,45.22,56.26,25.71,23.23,46.6,65.93,69.54,37.620000000000005,21.89,,88.49,55.6,35.79,57.47,
53,56.1,65.34,35.09,23.51,50.370000000000005,76.47,89.37,47.13,39.05,,95.96,64.81,42.220000000000006,66.42999999999999,
54,57.93,68.25,40.35,27.91,51.2,127.04,103.73,69.97,40.38,,103.07,67.67999999999999,62.36000000000001,78.11,
55,99.57,84.63,56.31,49.2,67.28,216.72,135.64,87.36,49.91,,103.44,86.34,71.08,93.16,
56,107.29,93.04,68.61,71.47,90.41,240.75,146.29,134.62,70.76,,112.82,93.57,76.69,102.39,
57,138.72,104.84,73.45,80.14999999999999,108.73,274.33000000000004,159.14,154.82,123.74,,117.7,104.29,88.67,132.48,
58,150.55,144.88,122.41,87.62,139.78,283.6,164.45000000000002,166.16,128.42000000000002,,140.93,147.64,132.35,132.91,
59,160.41,152.67000000000002,161.15,94.63,140.33999999999995,291.96,243.16,191.83,239.04,,150.54,150.73,144.29999999999998,134.07,
60,163.04000000000002,174.63,179.87,99.54,162.67,295.27,305.25,216.93,335.2,,165.69,173.5,187.92,148.0,
61,169.44,179.32000000000002,182.48,126.18,192.01,301.72,509.84,235.11,374.99,,177.36999999999998,179.93,293.25,157.25,
62,181.14,197.44,216.96,129.29,192.51,303.18,573.18,255.41,376.8,,198.22,195.23,384.49,157.86,
63,190.07,263.25,233.33,141.99,221.73,330.4,902.36,286.02,398.37,,224.68,258.84000000000003,405.24,189.0,
64,217.42,277.04999999999995,264.51000000000005,143.47,248.53,369.58,1252.69,440.59,438.12,,347.79,281.21000000000004,501.8,226.86,
65,287.44,322.8,273.17,158.13,274.7,376.49,1340.0,465.29,462.68,,401.22,319.54,519.41,337.36,
66,331.63,444.15,470.71,158.5,278.34000000000003,455.87,1747.04,483.16,468.77,,444.05,446.38,671.6,460.1,
67,429.09,602.77,483.2,175.14,330.01,593.41,2346.16,529.26,563.64,,497.42,602.59,811.65,501.22,
68,477.88,724.37,490.78,187.92,368.6,631.44,4616.93,656.77,611.5,,505.09,714.16,927.25,555.84,
69,506.42,773.9399999999999,581.46,218.27,380.21,803.88,,763.15,615.18,,856.4699999999999,778.62,1066.64,831.1800000000001,
70,943.96,1305.42,688.78,236.46,435.17,1041.14,,769.0200000000001,754.45,,1169.79,1308.06,1461.91,831.5899999999999,
71,1066.4599999999998,1623.09,859.8,273.16,520.2199999999999,1094.72,,869.53,765.76,,1504.9199999999998,1622.68,2606.09,1434.6999999999998,
72,1442.34,2275.44,931.12,294.39,569.66,1165.92,,1016.21,822.61,,2883.06,2272.05,2678.83,2466.16,
73,2771.25,2382.7200000000003,1298.73,607.13,580.53,1302.33,,1390.96,1389.8300000000002,,,2374.83,4103.36,2687.23,
74,3314.97,2604.87,1539.0700000000002,635.9599999999999,580.56,1628.77,,1470.09,1444.9299999999998,,,2612.58,,2867.9,
75,3346.3500000000004,2788.87,1653.71,672.73,608.4699999999999,2045.84,,1670.08,1538.77,,,2796.48,,4278.38,
76,,,2291.6400000000003,818.62,614.19,2789.38,,1896.59,2176.02,,,,,,
77,,,2814.94,1020.46,2504.59,,,2065.77,3360.04,,,,,,
78,,,,1243.88,3215.67,,,2494.42,,,,,,,
79,,,,1846.29,3828.77,,,3699.92,,,,,,,
80,,,,2352.34,,,,,,,,,,,
81,,,,2922.76,,,,,,,,,,,
82,,,,4624.13,,,,,,,,,,,
83,,,,,,,,,,,,,,,
84,,,,,,,,,,,,,,,
85,,,,,,,,,,,,,,,
86,,,,,,,,,,,,,,,
87,,,,,,,,,,,,,,,
88,,,,,,,,,,,,,,,
89,,,,,,,,,,,,,,,
90,,,,,,,,,,,,,,,
91,,,,,,,,,,,,,,,
92,,,,,,,,,,,,,,,
93,,,,,,,,,,,,,,,
94,,,,,,,,,,,,,,,
95,,,,,,,,,,,,,,,
96,,,,,,,,,,,,,,,
97,,,,,,,,,,,,,,,
98,,,,,,,,,,,,,,,
99,,,,,,,,,,,,,,,
100,,,,,,,,,,,,,,,
101,,,,,,,,,,,,,,,
102,,,,,,,,,,,,,,,
103,,,,,,,,,,,,,,,
104,,,,,,,,,,,,,,,
105,,,,,,,,,,,,,,,
106,,,,,,,,,,,,,,,
107,,,,,,,,,,,,,,,
108,,,,,,,,,,,,,,,
109,,,,,,,,,,,,,,,
110,,,,,,,,,,,,,,,
111,,,,,,,,,,,,,,,
112,,,,,,,,,,,,,,,
113,,,,,,,,,,,,,,,
114,,,,,,,,,,,,,,,
115,,,,,,,,,,,,,,,
116,,,,,,,,,,,,,,,
117,,,,,,,,,,,,,,,
118,,,,,,,,,,,,,,,
119,,,,,,,,,,,,,,,
120,,,,,,,,,,,,,,,
121,,,,,,,,,,,,,,,
122,,,,,,,,,,,,,,,
123,,,,,,,,,,,,,,,
124,,,,,,,,,,,,,,,
125,,,,,,,,,,,,,,,
126,,,,,,,,,,,,,,,
127,,,,,,,,,,,,,,,
128,,,,,,,,,,,,,,,
129,,,,,,,,,,,,,,,
130,,,,,,,,,,,,,,,
131,,,,,,,,,,,,,,,
132,,,,,,,,,,,,,,,
133,,,,,,,,,,,,,,,
134,,,,,,,,,,,,,,,
135,,,,,,,,,,,,,,,
136,,,,,,,,,,,,,,,
137,,,,,,,,,,,,,,,
138,,,,,,,,,,,,,,,
139,,,,,,,,,,,,,,,
140,,,,,,,,,,,,,,,
141,,,,,,,,,,,,,,,
142,,,,,,,,,,,,,,,
143,,,,,,,,,,,,,,,
144,,,,,,,,,,,,,,,
145,,,,,,,,,,,,,,,
146,,,,,,,,,,,,,,,
147,,,,,,,,,,,,,,,
148,,,,,,,,,,,,,,,
149,,,,,,,,,,,,,,,
150,,,,,,,,,,,,,,,
151,,,,,,,,,,,,,,,
152,,,,,,,,,,,,,,,
153,,,,,,,,,,,,,,,
154,,,,,,,,,,,,,,,
155,,,,,,,,,,,,,,,
156,,,,,,,,,,,,,,,
157,,,,,,,,,,,,,,,
158,,,,,,,,,,,,,,,
159,,,,,,,,,,,,,,,
160,,,,,,,,,,,,,,,
161,,,,,,,,,,,,,,,
162,,,,,,,,,,,,,,,
163,,,,,,,,,,,,,,,
164,,,,,,,,,,,,,,,
165,,,,,,,,,,,,,,,
166,,,,,,,,,,,,,,,
167,,,,,,,,,,,,,,,
168,,,,,,,,,,,,,,,
169,,,,,,,,,,,,,,,
170,,,,,,,,,,,,,,,
171,,,,,,,,,,,,,,,
172,,,,,,,,,,,,,,,
173,,,,,,,,,,,,,,,
174,,,,,,,,,,,,,,,
175,,,,,,,,,,,,,,,
176,,,,,,,,,,,,,,,
177,,,,,,,,,,,,,,,
178,,,,,,,,,,,,,,,
179,,,,,,,,,,,,,,,
180,,,,,,,,,,,,,,,
181,,,,,,,,,,,,,,,
182,,,,,,,,,,,,,,,
183,,,,,,,,,,,,,,,
184,,,,,,,,,,,,,,,
185,,,,,,,,,,,,,,,
186,,,,,,,,,,,,,,,
187,,,,,,,,,,,,,,,
188,,,,,,,,,,,,,,,
189,,,,,,,,,,,,,,,
190,,,,,,,,,,,,,,,
191,,,,,,,,,,,,,,,
192,,,,,,,,,,,,,,,
193,,,,,,,,,,,,,,,
194,,,,,,,,,,,,,,,
195,,,,,,,,,,,,,,,
196,,,,,,,,,,,,,,,
197,,,,,,,,,,,,,,,
198,,,,,,,,,,,,,,,
199,,,,,,,,,,,,,,,
200,,,,,,,,,,,,,,,
201,,,,,,,,,,,,,,,
202,,,,,,,,,,,,,,,
203,,,,,,,,,,,,,,,
204,,,,,,,,,,,,,,,
205,,,,,,,,,,,,,,,
206,,,,,,,,,,,,,,,
207,,,,,,,,,,,,,,,
208,,,,,,,,,,,,,,,
209,,,,,,,,,,,,,,,
210,,,,,,,,,,,,,,,
211,,,,,,,,,,,,,,,
212,,,,,,,,,,,,,,,
213,,,,,,,,,,,,,,,
214,,,,,,,,,,,,,,,
215,,,,,,,,,,,,,,,
216,,,,,,,,,,,,,,,
217,,,,,,,,,,,,,,,
218,,,,,,,,,,,,,,,
219,,,,,,,,,,,,,,,
220,,,,,,,,,,,,,,,
221,,,,,,,,,,,,,,,
222,,,,,,,,,,,,,,,
223,,,,,,,,,,,,,,,
224,,,,,,,,,,,,,,,
225,,,,,,,,,,,,,,,
226,,,,,,,,,,,,,,,
227,,,,,,,,,,,,,,,
228,,,,,,,,,,,,,,,
229,,,,,,,,,,,,,,,
230,,,,,,,,,,,,,,,
231,,,,,,,,,,,,,,,
232,,,,,,,,,,,,,,,
233,,,,,,,,,,,,,,,
234,,,,,,,,,,,,,,,
235,,,,,,,,,,,,,,,
236,,,,,,,,,,,,,,,
237,,,,,,,,,,,,,,,
238,,,,,,,,,,,,,,,
239,,,,,,,,,,,,,,,
240,,,,,,,,,,,,,,,
241,,,,,,,,,,,,,,,
242,,,,,,,,,,,,,,,
243,,,,,,,,,,,,,,,
244,,,,,,,,,,,,,,,
245,,,,,,,,,,,,,,,
246,,,,,,,,,,,,,,,
247,,,,,,,,,,,,,,,
248,,,,,,,,,,,,,,,
249,,,,,,,,,,,,,,,
250,,,,,,,,,,,,,,,
251,,,,,,,,,,,,,,,
252,,,,,,,,,,,,,,,
253,,,,,,,,,,,,,,,
254,,,,,,,,,,,,,,,
255,,,,,,,,,,,,,,,
256,,,,,,,,,,,,,,,
