,increasing,decreasing,enumeration,bioptsat-msh-trim,inc norm,dec norm
set-cover-generated/fixed-set-card-100-20-10-1.dat,37.6512,2.8031,0.000494,40.52,0.9292003948667324,0.0691781836130306
set-cover-generated/fixed-set-card-100-20-10-2.dat,83.9464,12.3416,0.000832,96.35,0.8712651790347691,0.12809133367929423
set-cover-generated/fixed-set-card-100-20-10-3.dat,40.6485,3.6562,0.000618,44.37,0.9161257606490872,0.08240252422808204
set-cover-generated/fixed-set-card-100-20-10-4.dat,38.481,2.13529,0.000275,40.68,0.9459439528023599,0.05248992133726647
set-cover-generated/fixed-set-card-100-20-10-5.dat,13.0163,16.3958,0.000283,29.46,0.44182959945689065,0.5565444670739986
set-cover-generated/fixed-set-card-100-20-5-1.dat,94.927,5.74839,0.000922,100.69,0.9427649220379383,0.05708997914390704
set-cover-generated/fixed-set-card-100-20-5-2.dat,30.979,4.14123,0.0003,35.14,0.8815879339783722,0.1178494593056346
set-cover-generated/fixed-set-card-100-20-5-3.dat,64.574,2.42609,0.000393,67.02,0.9635034318113996,0.03619949268874963
set-cover-generated/fixed-set-card-100-20-5-4.dat,14.0616,1.1393,0.00027,15.21,0.9244970414201183,0.07490466798159105
set-cover-generated/fixed-set-card-100-20-5-5.dat,94.317,6.32419,0.000569,100.66,0.9369858931055036,0.06282724021458375
set-cover-generated/fixed-set-card-100-40-10-1.dat,516.488,140.544,0.001557,657.06,0.7860591118010534,0.21389827413021645
set-cover-generated/fixed-set-card-100-40-10-2.dat,1166.39,376.614,0.001058,1543.03,0.7559088287330772,0.24407432130289106
set-cover-generated/fixed-set-card-100-40-10-3.dat,133.729,24.4262,0.000634,158.20999999999998,0.8452626256241706,0.1543909993047216
set-cover-generated/fixed-set-card-100-40-10-4.dat,211.777,30.3351,0.000724,242.16,0.8745333663693425,0.12526883052527255
set-cover-generated/fixed-set-card-100-40-10-5.dat,455.822,83.6116,0.001074,539.4599999999999,0.8449597745894043,0.1549912875838802
set-cover-generated/fixed-set-card-100-40-5-1.dat,496.921,61.0065,0.001437,557.97,0.8905873075613384,0.10933652346900372
set-cover-generated/fixed-set-card-100-40-5-2.dat,798.148,248.543,0.000846,1046.75,0.7625010747551947,0.23744256030570815
set-cover-generated/fixed-set-card-100-40-5-3.dat,306.951,80.8763,0.000925,387.87,0.7913759764869673,0.2085139350813417
set-cover-generated/fixed-set-card-100-40-5-4.dat,1155.15,280.105,0.000891,1435.28,0.8048255392675995,0.19515704252828717
set-cover-generated/fixed-set-card-100-40-5-5.dat,nan,nan,nan,5400.0,nan,nan
set-cover-generated/fixed-set-card-100-60-10-1.dat,4390.38,965.933,0.001149,5356.339999999999,0.8196604397779081,0.18033451946665077
set-cover-generated/fixed-set-card-100-60-10-2.dat,nan,nan,nan,5400.0,nan,nan
set-cover-generated/fixed-set-card-100-60-10-3.dat,nan,nan,nan,5400.0,nan,nan
set-cover-generated/fixed-set-card-100-60-10-4.dat,2192.77,518.091,0.001166,2710.88,0.8088775600542997,0.191115431151508
set-cover-generated/fixed-set-card-100-60-10-5.dat,3159.18,695.986,0.001356,3855.2,0.8194594314173065,0.18053174932558622
set-cover-generated/fixed-set-card-100-60-5-1.dat,nan,nan,nan,5400.0,nan,nan
set-cover-generated/fixed-set-card-100-60-5-2.dat,nan,nan,nan,5400.0,nan,nan
set-cover-generated/fixed-set-card-100-60-5-3.dat,nan,nan,nan,5400.0,nan,nan
set-cover-generated/fixed-set-card-100-60-5-4.dat,nan,nan,nan,5400.0,nan,nan
set-cover-generated/fixed-set-card-100-60-5-5.dat,nan,nan,nan,5400.0,nan,nan
set-cover-generated/fixed-set-card-100-80-10-1.dat,nan,nan,nan,5400.0,nan,nan
set-cover-generated/fixed-set-card-100-80-10-2.dat,nan,nan,nan,5400.0,nan,nan
set-cover-generated/fixed-set-card-100-80-10-3.dat,nan,nan,nan,5400.0,nan,nan
set-cover-generated/fixed-set-card-100-80-10-4.dat,nan,nan,nan,5400.0,nan,nan
set-cover-generated/fixed-set-card-100-80-10-5.dat,nan,nan,nan,5400.0,nan,nan
set-cover-generated/fixed-set-card-100-80-5-1.dat,nan,nan,nan,5400.0,nan,nan
set-cover-generated/fixed-set-card-100-80-5-2.dat,nan,nan,nan,5400.0,nan,nan
set-cover-generated/fixed-set-card-100-80-5-3.dat,nan,nan,nan,5400.0,nan,nan
set-cover-generated/fixed-set-card-100-80-5-4.dat,nan,nan,nan,5400.0,nan,nan
set-cover-generated/fixed-set-card-100-80-5-5.dat,nan,nan,nan,5400.0,nan,nan
set-cover-generated/fixed-set-card-150-20-10-1.dat,178.65,16.2243,0.000728,194.99,0.9162008308118365,0.08320580542591927
set-cover-generated/fixed-set-card-150-20-10-2.dat,51.0011,3.71352,0.000574,54.74,0.93169711362806,0.06783924004384362
set-cover-generated/fixed-set-card-150-20-10-3.dat,747.278,129.006,0.001651,876.36,0.8527066502350632,0.14720662741339174
set-cover-generated/fixed-set-card-150-20-10-4.dat,617.411,77.4871,0.002602,695.0,0.8883611510791366,0.11149223021582734
set-cover-generated/fixed-set-card-150-20-10-5.dat,396.379,35.416,0.001865,431.9,0.9177564250984025,0.08200046307015513
set-cover-generated/fixed-set-card-150-20-5-1.dat,98.1043,3.9493,0.000534,102.06,0.9612414266117969,0.03869586517734666
set-cover-generated/fixed-set-card-150-20-5-2.dat,123.69,9.98538,0.000946,133.69,0.9252000897598923,0.07469055277133667
set-cover-generated/fixed-set-card-150-20-5-3.dat,nan,nan,nan,5400.0,nan,nan
set-cover-generated/fixed-set-card-150-20-5-4.dat,539.017,25.1686,0.001103,564.2199999999999,0.9553312537662616,0.044607777108220205
set-cover-generated/fixed-set-card-150-20-5-5.dat,1001.43,69.5704,0.001548,1071.03,0.93501582588723,0.06495653716515878
set-cover-generated/fixed-set-card-150-40-10-1.dat,nan,nan,nan,5400.0,nan,nan
set-cover-generated/fixed-set-card-150-40-10-2.dat,2697.56,726.2,0.001842,3423.79,0.7878871075620876,0.2121041302182669
set-cover-generated/fixed-set-card-150-40-10-3.dat,nan,nan,nan,5400.0,nan,nan
set-cover-generated/fixed-set-card-150-40-10-4.dat,nan,nan,nan,5400.0,nan,nan
set-cover-generated/fixed-set-card-150-40-10-5.dat,nan,nan,nan,5400.0,nan,nan
set-cover-generated/fixed-set-card-150-40-5-1.dat,nan,nan,nan,5400.0,nan,nan
set-cover-generated/fixed-set-card-150-40-5-2.dat,nan,nan,nan,5400.0,nan,nan
set-cover-generated/fixed-set-card-150-40-5-3.dat,nan,nan,nan,5400.0,nan,nan
set-cover-generated/fixed-set-card-150-40-5-4.dat,nan,nan,nan,5400.0,nan,nan
set-cover-generated/fixed-set-card-150-40-5-5.dat,nan,nan,nan,5400.0,nan,nan
set-cover-generated/fixed-set-card-150-60-10-1.dat,nan,nan,nan,5400.0,nan,nan
set-cover-generated/fixed-set-card-150-60-10-2.dat,nan,nan,nan,5400.0,nan,nan
set-cover-generated/fixed-set-card-150-60-10-3.dat,nan,nan,nan,5400.0,nan,nan
set-cover-generated/fixed-set-card-150-60-10-4.dat,nan,nan,nan,5400.0,nan,nan
set-cover-generated/fixed-set-card-150-60-10-5.dat,nan,nan,nan,5400.0,nan,nan
set-cover-generated/fixed-set-card-150-60-5-1.dat,nan,nan,nan,5400.0,nan,nan
set-cover-generated/fixed-set-card-150-60-5-2.dat,nan,nan,nan,5400.0,nan,nan
set-cover-generated/fixed-set-card-150-60-5-3.dat,nan,nan,nan,5400.0,nan,nan
set-cover-generated/fixed-set-card-150-60-5-4.dat,nan,nan,nan,5400.0,nan,nan
set-cover-generated/fixed-set-card-150-60-5-5.dat,nan,nan,nan,5400.0,nan,nan
set-cover-generated/fixed-set-card-150-80-10-1.dat,nan,nan,nan,5400.0,nan,nan
set-cover-generated/fixed-set-card-150-80-10-2.dat,nan,nan,nan,5400.0,nan,nan
set-cover-generated/fixed-set-card-150-80-10-3.dat,nan,nan,nan,5400.0,nan,nan
set-cover-generated/fixed-set-card-150-80-10-4.dat,nan,nan,nan,5400.0,nan,nan
set-cover-generated/fixed-set-card-150-80-10-5.dat,nan,nan,nan,5400.0,nan,nan
set-cover-generated/fixed-set-card-150-80-5-1.dat,nan,nan,nan,5400.0,nan,nan
set-cover-generated/fixed-set-card-150-80-5-2.dat,nan,nan,nan,5400.0,nan,nan
set-cover-generated/fixed-set-card-150-80-5-3.dat,nan,nan,nan,5400.0,nan,nan
set-cover-generated/fixed-set-card-150-80-5-4.dat,nan,nan,nan,5400.0,nan,nan
set-cover-generated/fixed-set-card-150-80-5-5.dat,nan,nan,nan,5400.0,nan,nan
set-cover-generated/fixed-set-card-200-20-10-1.dat,102.544,7.59577,0.000927,110.17,0.9307797040936734,0.0689459017881456
set-cover-generated/fixed-set-card-200-20-10-2.dat,328.552,40.9539,0.002032,369.54,0.8890837257130486,0.11082399740217566
set-cover-generated/fixed-set-card-200-20-10-3.dat,497.024,29.9553,0.001291,527.01,0.9431016489250679,0.056840097910855585
set-cover-generated/fixed-set-card-200-20-10-4.dat,543.027,19.3422,0.001256,562.4,0.9655529871977242,0.034392247510668564
set-cover-generated/fixed-set-card-200-20-10-5.dat,176.103,38.7554,0.001902,214.89,0.8195030015356695,0.18034994648424776
set-cover-generated/fixed-set-card-200-20-5-1.dat,218.828,14.6716,0.000683,233.52,0.9370846180198698,0.0628280232956492
set-cover-generated/fixed-set-card-200-20-5-2.dat,96.3324,14.7308,0.00133,111.08,0.8672344256391791,0.13261433201296363
set-cover-generated/fixed-set-card-200-20-5-3.dat,3273.3,351.336,0.001599,3624.67,0.9030615200832076,0.0969290997525292
set-cover-generated/fixed-set-card-200-20-5-4.dat,73.4416,2.06196,0.000335,75.52,0.972478813559322,0.027303495762711866
set-cover-generated/fixed-set-card-200-20-5-5.dat,317.169,25.8776,0.001618,343.07,0.9245022881627656,0.07542950418281984
set-cover-generated/fixed-set-card-200-40-10-1.dat,nan,nan,nan,5400.0,nan,nan
set-cover-generated/fixed-set-card-200-40-10-2.dat,nan,nan,nan,5400.0,nan,nan
set-cover-generated/fixed-set-card-200-40-10-3.dat,nan,nan,nan,5400.0,nan,nan
set-cover-generated/fixed-set-card-200-40-10-4.dat,nan,nan,nan,5400.0,nan,nan
set-cover-generated/fixed-set-card-200-40-10-5.dat,nan,nan,nan,5400.0,nan,nan
set-cover-generated/fixed-set-card-200-40-5-1.dat,nan,nan,nan,5400.0,nan,nan
set-cover-generated/fixed-set-card-200-40-5-2.dat,nan,nan,nan,5400.0,nan,nan
set-cover-generated/fixed-set-card-200-40-5-3.dat,nan,nan,nan,5400.0,nan,nan
set-cover-generated/fixed-set-card-200-40-5-4.dat,nan,nan,nan,5400.0,nan,nan
set-cover-generated/fixed-set-card-200-40-5-5.dat,nan,nan,nan,5400.0,nan,nan
set-cover-generated/fixed-set-card-200-60-10-1.dat,nan,nan,nan,5400.0,nan,nan
set-cover-generated/fixed-set-card-200-60-10-2.dat,nan,nan,nan,5400.0,nan,nan
set-cover-generated/fixed-set-card-200-60-10-3.dat,nan,nan,nan,5400.0,nan,nan
set-cover-generated/fixed-set-card-200-60-10-4.dat,nan,nan,nan,5400.0,nan,nan
set-cover-generated/fixed-set-card-200-60-10-5.dat,nan,nan,nan,5400.0,nan,nan
set-cover-generated/fixed-set-card-200-60-5-1.dat,nan,nan,nan,5400.0,nan,nan
set-cover-generated/fixed-set-card-200-60-5-2.dat,nan,nan,nan,5400.0,nan,nan
set-cover-generated/fixed-set-card-200-60-5-3.dat,nan,nan,nan,5400.0,nan,nan
set-cover-generated/fixed-set-card-200-60-5-4.dat,nan,nan,nan,5400.0,nan,nan
set-cover-generated/fixed-set-card-200-60-5-5.dat,nan,nan,nan,5400.0,nan,nan
set-cover-generated/fixed-set-card-200-80-10-1.dat,nan,nan,nan,5400.0,nan,nan
set-cover-generated/fixed-set-card-200-80-10-2.dat,nan,nan,nan,5400.0,nan,nan
set-cover-generated/fixed-set-card-200-80-10-3.dat,nan,nan,nan,5400.0,nan,nan
set-cover-generated/fixed-set-card-200-80-10-4.dat,nan,nan,nan,5400.0,nan,nan
set-cover-generated/fixed-set-card-200-80-10-5.dat,nan,nan,nan,5400.0,nan,nan
set-cover-generated/fixed-set-card-200-80-5-1.dat,nan,nan,nan,5400.0,nan,nan
set-cover-generated/fixed-set-card-200-80-5-2.dat,nan,nan,nan,5400.0,nan,nan
set-cover-generated/fixed-set-card-200-80-5-3.dat,nan,nan,nan,5400.0,nan,nan
set-cover-generated/fixed-set-card-200-80-5-4.dat,nan,nan,nan,5400.0,nan,nan
set-cover-generated/fixed-set-card-200-80-5-5.dat,nan,nan,nan,5400.0,nan,nan
