inst+var,bioptsat-oll,inst var,bioptsat-osh,bioptsat-us,bioptsat-msu3,mococg-openwbo,mocoihs-openwbo,bioptsat-msh-swap,bioptsat-msh-enum,bioptsat-msh-min,bioptsat-msh-nomin,bioptsat-msh-nolazy,bioptsat-msh-trim,seesaw-sat-exmin,bioptsat-su,pminimal-2,bioptsat-msh-tot,leximaxIST-mod,paretomcs
fixed-element-prob-150-20-0.2-4,0.75,nan,0.88,2.28,3.23,7.87,10.89,22.42,24.47,24.57,78.17,77.97999999999999,78.27000000000001,29.11,86.17,128.22,126.85,122.68,5400.0
fixed-element-prob-100-20-0.2-5,4.76,def,4.42,1.73,2.26,4.37,6.29,34.09,30.77,29.63,28.38,28.73,28.85,53.95,31.19,55.1,74.46,264.77000000000004,5400.0
fixed-element-prob-200-20-0.2-5,49.29,def,37.28,6.14,5.59,11.36,18.88,182.47,165.0,177.44,166.95999999999998,167.66,167.14999999999998,120.88,178.41,299.32,426.35,557.4,5400.0
fixed-element-prob-200-20-0.2-2,9.36,nan,8.93,6.48,5.79,12.41,19.09,172.04999999999998,207.21,212.13,217.06,217.41,217.19,755.7399999999999,215.61,293.66,338.16,133.37,5400.0
fixed-element-prob-100-20-0.2-1,50.48,def,23.880000000000003,6.21,6.46,9.22,19.3,47.15,40.04,40.44,36.65,35.78,36.39,108.59,49.58,82.46,133.95,474.92,5400.0
fixed-element-prob-100-40-0.2-5,14.03,def,9.47,6.37,7.31,8.04,13.86,43.92,35.22,35.14,35.620000000000005,35.81,35.93,201.48,41.32,66.08,103.82,328.8,5400.0
fixed-element-prob-100-20-0.1-5,20.87,def,10.22,8.22,8.31,6.58,10.67,49.39,30.55,30.13,33.03,33.05,33.24,50.07,37.17,70.45,110.26,195.36,5400.0
fixed-element-prob-150-20-0.2-3,32.65,def,29.4,7.84,7.229999999999999,12.71,21.12,68.96,93.32,93.34,94.65,95.98,94.31,95.73,114.55,161.46,225.84,1660.1,5400.0
fixed-element-prob-100-20-0.2-3,42.68,def,25.34,7.37,7.439999999999999,11.29,17.45,49.49,47.64,46.76,47.24,48.05,48.16,92.51,45.97,82.39,187.36,1229.06,5400.0
fixed-element-prob-200-20-0.2-4,50.05,def,53.74,8.540000000000001,7.77,18.18,33.06,277.39,268.91,267.9,265.1,263.75,262.92,179.52,283.64,323.89,734.3000000000001,1296.52,5400.0
fixed-element-prob-150-20-0.2-5,61.23,def,38.97,7.869999999999999,8.23,12.1,19.62,119.15,99.05,105.25,87.21000000000001,87.94,88.82,256.08,106.19,180.5,323.09,676.65,5400.0
fixed-element-prob-100-20-0.2-2,64.88000000000001,def,22.32,8.38,8.23,10.39,17.42,49.43,43.64,43.23,40.04,39.63,40.18,67.46000000000001,46.26,83.77,174.71,1031.49,5400.0
fixed-element-prob-150-20-0.2-2,54.23,def,36.37,8.52,8.68,13.83,25.11,97.37,123.77,120.56,122.35,121.5,122.5,192.48,128.04,186.43,306.41,1629.8,5400.0
fixed-element-prob-200-20-0.2-3,41.07,def,24.18,9.9,11.87,19.38,31.32,184.26,187.6,192.44,204.32,204.3,214.13,258.25,204.67,286.91,470.2,962.99,5400.0
fixed-element-prob-100-20-0.2-4,33.31,def,14.65,9.99,11.02,13.5,24.72,43.53,45.25,45.7,47.4,47.85,47.22,43.61,51.81999999999999,87.50999999999999,141.24,253.9,5400.0
fixed-element-prob-100-20-0.1-2,24.1,nan,21.6,14.54,14.98,10.2,18.88,51.31,47.45,47.510000000000005,43.23,48.8,48.74,43.57,60.75,83.31,167.54,145.59,5400.0
fixed-element-prob-200-20-0.2-1,84.15,def,35.04,11.35,12.31,18.25,39.06,156.35,172.23,196.09,156.66,156.44,156.18,112.98,182.76,311.89,417.03,1259.7099999999998,5400.0
fixed-element-prob-100-20-0.1-4,16.34,def,17.369999999999997,16.82,16.57,12.5,18.92,51.56,52.25,48.38,57.42,56.38,56.97,51.91,61.95,80.32000000000001,167.42999999999998,211.86,5400.0
fixed-element-prob-100-20-0.1-3,58.84,def,37.29,24.540000000000003,27.42,15.84,27.87,64.95,45.45,45.57,45.59,45.56,45.81,73.21000000000001,50.63,80.87,200.59,396.84,5400.0
fixed-element-prob-150-20-0.2-1,184.93,def,75.18,16.13,16.77,21.76,40.01,126.91,120.63,139.07,130.09,129.54,129.39,458.54,136.26999999999998,206.1,399.64,1988.37,5400.0
fixed-element-prob-200-20-0.1-5,78.61999999999999,def,51.1,17.3,16.759999999999998,22.72,44.09,239.26,291.02000000000004,257.45,264.74,265.45,262.92,462.33,275.64,362.61,651.85,1069.69,5400.0
fixed-element-prob-100-20-0.1-1,102.73,def,61.97,35.959999999999994,36.72,21.22,38.96,78.89,92.01,74.93,75.01,76.59,77.56,234.48,100.42,132.14,399.9,451.22,5400.0
fixed-element-prob-150-40-0.2-4,141.31,nan,83.87,24.16,24.4,31.0,54.43,178.85,175.11,165.81,186.78,187.12,187.67,907.91,189.84,334.59,598.78,821.4300000000001,5400.0
fixed-element-prob-100-60-0.2-5,256.39,def,98.7,60.85,78.21000000000001,29.34,74.54,113.67,78.55,80.25999999999999,82.13000000000001,83.31,82.9,1681.68,85.13,198.63,454.6,1738.57,5400.0
fixed-element-prob-200-40-0.2-5,479.96,def,229.85,31.37,31.4,56.97,125.5,303.71,321.03,339.57,336.62,335.28000000000003,332.53000000000003,1168.46,334.1,577.67,1109.8,3813.74,5400.0
fixed-element-prob-200-20-0.1-4,202.63,def,131.96,37.7,36.71,31.5,51.48,308.76,278.75,281.1,272.02,244.5,240.65,314.19,290.9,442.13,610.04,2106.67,5400.0
fixed-element-prob-100-40-0.2-1,230.02,def,109.21,32.22,31.54,44.92,99.31,76.24000000000001,70.61999999999999,72.86,70.66000000000001,68.25999999999999,67.75999999999999,698.03,81.32,154.54999999999998,343.22,1212.23,5400.0
fixed-element-prob-100-40-0.2-4,184.77,def,37.89,36.91,35.17,44.52,88.3,57.25,77.2,68.10000000000001,65.92999999999999,65.76,65.53999999999999,190.4,76.03,153.94000000000003,309.03000000000003,2726.8300000000004,5400.0
fixed-element-prob-150-20-0.1-5,442.56,def,206.01,68.75,62.26,35.37,68.95,248.76,200.41,185.94,175.04,171.78,174.35,816.8299999999999,187.81,466.32,726.66,1511.85,5400.0
fixed-element-prob-200-40-0.2-4,217.57,def,127.12,35.64,36.45,48.45,108.02,326.95000000000005,295.28,304.81,253.03,258.36,256.18,841.33,295.8,578.79,654.2199999999999,2231.07,5400.0
fixed-element-prob-100-40-0.1-5,605.19,nan,181.57,110.15,115.0,35.71,77.19,155.17,96.59,87.75999999999999,89.74,96.0,96.18,1536.48,105.61,244.28,581.7,521.4599999999999,5400.0
fixed-element-prob-200-40-0.2-2,348.05,nan,217.41,44.96,43.580000000000005,104.27,274.29,436.42,442.28,446.32,480.36,477.65,495.69,5400.0,469.76,721.43,1553.23,3039.3,5400.0
fixed-element-prob-200-60-0.2-5,637.22,nan,283.54999999999995,44.07,45.09,93.07,221.45,474.99,342.81,369.59,367.22,361.25,356.0,3745.58,375.03,641.3399999999999,1099.8200000000002,2857.7,5400.0
fixed-element-prob-150-40-0.2-1,932.99,def,187.17,52.75,53.48,46.72,105.26,188.31,157.42,147.13,150.17,151.51,150.01,1264.73,190.35,371.47,553.13,3275.94,5400.0
fixed-element-prob-100-40-0.2-3,288.89000000000004,def,70.11,61.11000000000001,59.01,50.33,134.35,94.35,77.84,71.14,73.33,73.83999999999999,73.69,563.33,65.59,170.30999999999997,442.49,1557.12,5400.0
fixed-element-prob-150-20-0.1-4,324.45,def,135.82,100.01,97.99,52.59,81.67,262.39,233.82,227.65,226.96,229.45,227.54,601.52,244.74,498.5,808.55,2832.85,5400.0
fixed-element-prob-200-20-0.1-3,237.65,def,123.8,61.92,57.370000000000005,73.52000000000001,164.55,343.47,395.56,354.31,405.16,400.0700000000001,403.48,1148.23,397.15,584.07,1122.54,1554.38,5400.0
fixed-element-prob-200-40-0.2-1,894.5,def,320.64,64.71,73.46,93.55,324.21000000000004,430.09,426.91,444.91,413.7,415.78,414.35,2722.05,429.9,932.32,1330.77,4834.37,5400.0
fixed-element-prob-150-20-0.1-3,756.26,def,343.75,97.96,102.82,67.61,121.46,206.83,225.72,253.5,231.89,232.33,230.74,672.82,269.99,551.11,972.61,5400.0,5400.0
fixed-element-prob-150-20-0.1-1,403.28,def,172.5,83.95,89.26,68.39999999999999,87.09,238.87,218.33,204.75,219.4,224.95,225.77,1118.74,219.68,487.42,613.08,2887.83,5400.0
fixed-element-prob-100-40-0.2-2,890.5,def,240.59,101.49,112.81,76.31,108.78,121.28,144.48999999999998,143.53,118.72,118.95,119.91,806.4,138.74,275.64000000000004,763.82,5400.0,5400.0
fixed-element-prob-100-60-0.2-1,696.09,nan,302.26,86.47000000000001,79.93,197.63,358.63,153.97,153.07999999999998,153.91,150.59,154.52999999999997,156.26999999999998,4189.42,150.64,332.94,855.0699999999999,3337.18,5400.0
fixed-element-prob-100-40-0.1-4,284.43,nan,85.78,282.58,329.87,124.23,304.66,112.3,140.78,138.07,169.70999999999998,169.04000000000002,166.58,403.11,168.29,332.25,855.78,343.6,5400.0
fixed-element-prob-150-60-0.2-4,1005.77,def,311.57,92.86,96.26,115.46,306.37,349.0,317.31,297.39,320.81,316.68,308.46,3221.12,343.92,694.37,1327.41,5400.0,5400.0
fixed-element-prob-150-40-0.2-3,782.16,def,315.9,94.27,100.96,138.9,360.32,210.76,209.87,196.14,212.68,221.41,223.56,1458.71,213.67,611.37,925.67,5400.0,5400.0
fixed-element-prob-150-40-0.2-2,678.34,def,243.84,96.8,97.41,124.37,259.59,264.04,211.53,208.31,223.46,221.77,221.1,1276.68,255.85,600.03,916.5,5400.0,5400.0
fixed-element-prob-100-60-0.2-4,595.0400000000001,def,133.23000000000002,98.66,105.42,133.17999999999998,296.61,120.08,147.35000000000002,124.8,120.14,122.23,121.21,823.4399999999999,153.98000000000002,299.46000000000004,790.15,5400.0,5400.0
fixed-element-prob-200-40-0.2-3,932.44,def,560.06,104.47,105.6,178.52,457.09,522.91,430.18,480.51,461.6,458.42,462.62,4457.46,476.22,1153.7,1701.31,5400.0,5400.0
fixed-element-prob-200-80-0.2-5,2428.52,nan,629.09,108.51,111.11,194.5,648.9,506.44,585.9,607.15,552.87,537.0300000000001,535.72,5400.0,545.09,1128.88,2202.95,5400.0,5400.0
fixed-element-prob-150-60-0.2-1,2356.0,nan,585.53,116.44,110.33,129.13,414.73,313.91,341.05,309.87,299.25,299.42,300.38,5400.0,312.9,695.65,1492.41,5400.0,5400.0
fixed-element-prob-150-60-0.2-2,823.37,def,316.23,122.63,120.28,245.96,580.9,255.21,286.31,306.56,286.11,302.73,301.27,1810.15,343.14000000000004,816.35,1286.79,5400.0,5400.0
fixed-element-prob-100-80-0.2-5,1559.96,nan,374.03,196.38,239.42,124.97,337.85,202.9,179.92000000000002,172.72,162.43,161.68,163.36,5400.0,170.48000000000002,453.17,1096.65,2542.52,5400.0
fixed-element-prob-150-20-0.1-2,1438.93,def,531.5500000000001,268.21,262.56,129.74,231.32,284.72,323.95,336.63,320.98,321.46000000000004,322.23,1849.46,342.27000000000004,658.93,1242.79,1946.86,5400.0
fixed-element-prob-100-60-0.2-3,1268.53,def,332.90000000000003,233.71,253.64,149.49,478.95,171.16000000000005,159.34,164.14,149.57999999999998,148.59,148.04999999999998,1858.44,150.76,448.65,980.64,4817.12,5400.0
fixed-element-prob-150-40-0.2-5,1586.53,nan,380.87,158.14,158.1,152.26999999999998,358.41,292.87,234.86,238.64,230.11,231.76,233.37,5400.0,223.5,590.99,1100.89,5400.0,5400.0
fixed-element-prob-100-40-0.1-1,371.74,nan,181.08,191.36,210.79,152.54,247.9,191.0,205.62,216.93,211.75,210.25,210.05,971.39,234.55,407.46,988.82,477.92,5400.0
fixed-element-prob-150-80-0.2-2,854.22,def,351.24,161.12,171.52,304.88000000000005,779.6300000000001,298.28,386.16,362.66,405.02,407.64,405.33,2319.71,407.95,872.4,1586.7800000000002,5400.0,5400.0
fixed-element-prob-100-80-0.2-4,1280.33,def,251.97,232.03,237.86,321.63,1136.98,167.06,246.13,225.36,235.89,249.42,248.89,1081.52,258.39,480.19,1245.49,5400.0,5400.0
fixed-element-prob-100-80-0.2-1,1151.45,def,408.43,170.82000000000002,182.54,405.72,1408.99,283.76,232.62,209.86,236.3,204.86,204.73,4785.259999999999,243.88,537.84,1527.72,5400.0,5400.0
fixed-element-prob-200-60-0.2-2,2236.03,nan,787.37,172.86,175.9,313.97,870.63,783.48,693.8199999999999,647.3100000000001,677.5699999999999,678.6600000000001,680.9300000000001,5400.0,863.5,1567.33,2437.51,5400.0,5400.0
fixed-element-prob-100-60-0.2-2,1949.05,def,692.28,301.49,299.9,194.59,520.56,248.04,318.83,295.19,281.85,288.98,287.97,1956.32,286.12,506.72,1571.21,5400.0,5400.0
fixed-element-prob-200-20-0.1-1,3173.75,def,1276.42,409.47,439.54,232.9,507.64,768.15,758.15,687.7099999999999,684.89,687.77,684.0600000000001,2841.89,759.81,1911.14,2880.15,5400.0,5400.0
fixed-element-prob-200-20-0.1-2,862.98,nan,568.89,235.68,257.89,273.59,384.58,512.19,488.23,496.21,433.87,413.21,410.75,5400.0,524.94,1273.77,1521.73,4786.05,5400.0
fixed-element-prob-100-60-0.1-5,5267.95,nan,1062.16,763.49,773.58,236.47,495.44,529.22,496.32,499.11,457.81,461.34,461.21,5400.0,496.62,977.38,2374.81,5400.0,5400.0
fixed-element-prob-150-80-0.2-4,3815.22,nan,765.3000000000001,253.29,242.46,281.14,761.09,540.4,409.43,410.16,389.14,386.52,388.86,5400.0,396.41,1044.0,1816.09,5400.0,5400.0
fixed-element-prob-200-60-0.2-4,3198.08,nan,1149.58,252.68,254.88,418.21,1023.74,787.3100000000001,807.67,821.8100000000001,834.78,822.3399999999999,814.3000000000001,5400.0,857.77,1786.77,2664.55,5400.0,5400.0
fixed-element-prob-100-40-0.1-3,1046.81,def,307.45,487.01,569.81,274.23999999999995,455.25,411.2000000000001,361.77,326.47,348.02,349.83,348.98,1642.78,323.59,687.74,2297.14,4412.38,5400.0
fixed-element-prob-100-80-0.2-3,3426.1600000000003,def,710.81,584.08,619.53,468.49,1161.51,335.69,355.67,342.11,327.71,337.44,332.32,4256.76,315.06,821.8,2101.74,5400.0,5400.0
fixed-element-prob-200-60-0.2-1,5400.0,nan,1221.3100000000002,327.72,339.85,587.1,1749.28,801.6600000000001,893.82,852.8599999999999,887.53,884.51,885.9399999999999,5400.0,743.6,2380.77,3298.63,5400.0,5400.0
fixed-element-prob-100-40-0.1-2,1799.71,nan,544.28,594.09,618.1999999999999,367.42,884.9,475.71,355.55,358.79,362.43,350.98,353.14,1487.38,376.44,713.84,2729.3,958.31,5400.0
fixed-element-prob-150-60-0.2-3,3659.1,nan,1409.51,397.14,429.29,593.16,1554.7,477.87,569.93,519.57,518.01,515.82,515.87,5400.0,561.03,1420.26,2732.02,5400.0,5400.0
fixed-element-prob-200-40-0.1-5,3732.95,nan,1330.5700000000002,507.95,533.62,571.29,1323.7,1017.19,878.93,734.34,765.01,756.29,758.9300000000001,5400.0,840.72,2324.42,2894.76,5400.0,5400.0
fixed-element-prob-100-80-0.1-5,5400.0,nan,1231.35,1784.86,1894.6,670.75,2006.17,872.04,710.4399999999999,780.2399999999999,595.4,710.51,709.98,5400.0,860.5899999999999,1726.42,5400.0,3307.1,5400.0
fixed-element-prob-200-80-0.2-4,5400.0,nan,2789.43,669.8699999999999,666.8000000000001,1063.82,2435.99,974.96,929.92,866.58,913.38,902.54,901.3,5400.0,806.54,2439.94,3109.49,5400.0,5400.0
fixed-element-prob-100-60-0.1-4,3301.7200000000003,nan,815.2900000000001,1881.71,3394.1,709.43,2019.17,829.74,960.17,706.3299999999999,799.7700000000001,728.1,731.06,2279.99,767.8299999999999,1490.01,4565.25,1733.8,5400.0
fixed-element-prob-150-80-0.2-1,5400.0,nan,2786.42,878.0600000000001,818.7199999999999,1483.35,5318.150000000001,725.64,826.85,706.75,760.16,778.5600000000001,777.37,5400.0,819.22,2188.51,3881.65,5400.0,5400.0
fixed-element-prob-150-40-0.1-1,5400.0,nan,3770.74,3185.64,3107.03,744.04,1849.35,1730.25,1931.5,1817.32,1710.02,1717.15,1708.53,5400.0,1809.23,4344.660000000001,5400.0,5400.0,5400.0
fixed-element-prob-200-80-0.2-2,5400.0,def,2866.69,801.5,826.43,1774.1899999999998,5400.0,1451.12,1332.1799999999998,1312.05,1311.84,1327.67,1318.51,5400.0,1337.66,3497.9700000000003,5209.05,5400.0,5400.0
fixed-element-prob-200-60-0.2-3,5400.0,nan,3240.9300000000003,861.08,836.5400000000001,1536.87,4321.25,1486.22,1417.35,1378.9399999999998,1253.4599999999998,1263.52,1263.27,5400.0,1203.26,3981.23,5400.0,5400.0,5400.0
fixed-element-prob-200-40-0.1-4,4093.85,nan,1041.19,870.03,850.48,1026.57,4249.72,1037.61,1127.07,1038.74,1052.04,1044.02,1052.35,5400.0,1129.98,3238.81,3920.57,5400.0,5400.0
fixed-element-prob-150-60-0.2-5,5400.0,nan,3777.0,1377.07,1443.74,1262.6699999999998,1854.62,875.29,1099.54,1060.97,902.21,935.58,937.68,5400.0,1066.98,2127.46,5400.0,5400.0,5400.0
fixed-element-prob-100-80-0.2-2,5400.0,nan,3131.98,2344.6,2338.65,2121.55,3368.78,1116.21,1238.81,1083.03,1053.6999999999998,1047.48,1040.58,5400.0,1163.96,2341.65,5400.0,5400.0,5400.0
fixed-element-prob-150-80-0.2-3,5400.0,nan,5400.0,1450.27,1382.8,1933.87,4721.5,1274.01,1420.36,1138.35,1156.36,1194.97,1195.98,5400.0,1292.43,2797.84,5400.0,5400.0,5400.0
fixed-element-prob-100-60-0.1-1,5400.0,nan,1364.45,2373.76,3970.16,1451.53,4630.49,1530.46,1421.3300000000002,1146.09,1243.74,1230.26,1230.9499999999998,5400.0,1376.25,2662.79,5400.0,4351.62,5400.0
fixed-element-prob-150-40-0.1-3,5400.0,nan,1813.82,2314.14,2397.07,1413.01,4610.96,1406.21,1671.51,1473.69,1374.5,1361.12,1368.61,5400.0,1232.52,2991.48,4658.63,5400.0,5400.0
fixed-element-prob-150-40-0.1-5,5400.0,nan,2778.51,3081.61,2867.46,1458.87,3735.22,1871.44,1597.41,1492.62,1574.3,1592.62,1564.89,5400.0,1581.13,4299.11,5400.0,5400.0,5400.0
fixed-element-prob-200-80-0.2-1,5400.0,def,5400.0,1498.0,1527.27,2730.7,5400.0,1770.0300000000002,1658.5,1644.61,1745.16,1751.0,1740.66,5400.0,1670.41,4958.83,5400.0,5400.0,5400.0
fixed-element-prob-150-40-0.1-4,5400.0,nan,2005.24,3065.25,2829.03,2345.55,3282.42,2618.03,2379.87,2317.91,1948.3,1990.73,1954.86,5400.0,2088.34,3979.81,5400.0,5400.0,5400.0
fixed-element-prob-100-60-0.1-2,5400.0,def,3885.02,5400.0,5400.0,4089.33,5400.0,3456.33,3059.3700000000003,2970.8,2594.36,2581.17,2599.19,5400.0,2785.25,4876.08,5400.0,3434.25,5400.0
fixed-element-prob-150-40-0.1-2,5400.0,def,5400.0,5400.0,5400.0,2750.36,5400.0,4102.62,5094.4800000000005,4715.02,3551.65,3624.53,3620.39,5400.0,4774.08,5400.0,5400.0,5400.0,5400.0
fixed-element-prob-100-80-0.1-1,5400.0,def,3537.6,5400.0,5400.0,5400.0,5400.0,3328.5800000000004,3983.25,3449.63,3202.75,3359.65,3358.49,5400.0,4118.52,5400.0,5400.0,5400.0,5400.0
fixed-element-prob-100-60-0.1-3,5400.0,def,4085.06,5400.0,5400.0,3849.89,5400.0,5400.0,5400.0,5400.0,5400.0,5400.0,5400.0,5400.0,5400.0,5400.0,5400.0,5400.0,5400.0
fixed-element-prob-200-80-0.2-3,5400.0,def,5400.0,5093.56,4607.96,5400.0,5400.0,4032.16,4712.6,4119.14,4249.13,4259.4800000000005,4218.73,5400.0,3967.86,5400.0,5400.0,5400.0,5400.0
fixed-element-prob-150-60-0.1-5,5400.0,def,5400.0,5400.0,5400.0,4317.29,5400.0,5400.0,5168.28,4106.31,4495.22,4472.85,4456.47,5400.0,4256.41,5400.0,5400.0,5400.0,5400.0
fixed-element-prob-150-80-0.2-5,5400.0,def,5400.0,5400.0,5400.0,5400.0,5400.0,4544.740000000001,5225.91,4228.47,4539.29,4545.589999999999,4536.82,5400.0,4510.26,5400.0,5400.0,5400.0,5400.0
fixed-element-prob-100-80-0.1-4,5400.0,def,4312.86,5400.0,5400.0,4757.0,5400.0,4649.43,5400.0,5400.0,5400.0,5400.0,5400.0,5400.0,5400.0,5400.0,5400.0,5400.0,5400.0
fixed-element-prob-100-80-0.1-2,5400.0,def,5400.0,5400.0,5400.0,5400.0,5400.0,5400.0,5400.0,5400.0,5400.0,5400.0,5400.0,5400.0,5400.0,5400.0,5400.0,5400.0,5400.0
fixed-element-prob-100-80-0.1-3,5400.0,def,5400.0,5400.0,5400.0,5400.0,5400.0,5400.0,5400.0,5400.0,5400.0,5400.0,5400.0,5400.0,5400.0,5400.0,5400.0,5400.0,5400.0
fixed-element-prob-150-60-0.1-1,5400.0,def,5400.0,5400.0,5400.0,5400.0,5400.0,5400.0,5400.0,5400.0,5400.0,5400.0,5400.0,5400.0,5400.0,5400.0,5400.0,5400.0,5400.0
fixed-element-prob-150-60-0.1-2,5400.0,def,5400.0,5400.0,5400.0,5400.0,5400.0,5400.0,5400.0,5400.0,5400.0,5400.0,5400.0,5400.0,5400.0,5400.0,5400.0,5400.0,5400.0
fixed-element-prob-150-60-0.1-3,5400.0,def,5400.0,5400.0,5400.0,5400.0,5400.0,5400.0,5400.0,5400.0,5400.0,5400.0,5400.0,5400.0,5400.0,5400.0,5400.0,5400.0,5400.0
fixed-element-prob-150-60-0.1-4,5400.0,def,5400.0,5400.0,5400.0,5400.0,5400.0,5400.0,5400.0,5400.0,5400.0,5400.0,5400.0,5400.0,5400.0,5400.0,5400.0,5400.0,5400.0
fixed-element-prob-150-80-0.1-1,5400.0,def,5400.0,5400.0,5400.0,5400.0,5400.0,5400.0,5400.0,5400.0,5400.0,5400.0,5400.0,5400.0,5400.0,5400.0,5400.0,5400.0,5400.0
fixed-element-prob-150-80-0.1-2,5400.0,def,5400.0,5400.0,5400.0,5400.0,5400.0,5400.0,5400.0,5400.0,5400.0,5400.0,5400.0,5400.0,5400.0,5400.0,5400.0,5400.0,5400.0
fixed-element-prob-150-80-0.1-3,5400.0,def,5400.0,5400.0,5400.0,5400.0,5400.0,5400.0,5400.0,5400.0,5400.0,5400.0,5400.0,5400.0,5400.0,5400.0,5400.0,5400.0,5400.0
fixed-element-prob-150-80-0.1-4,5400.0,def,5400.0,5400.0,5400.0,5400.0,5400.0,5400.0,5400.0,5400.0,5400.0,5400.0,5400.0,5400.0,5400.0,5400.0,5400.0,5400.0,5400.0
fixed-element-prob-150-80-0.1-5,5400.0,def,5400.0,5400.0,5400.0,5400.0,5400.0,5400.0,5400.0,5400.0,5400.0,5400.0,5400.0,5400.0,5400.0,5400.0,5400.0,5400.0,5400.0
fixed-element-prob-200-40-0.1-1,5400.0,def,5400.0,5400.0,5400.0,5400.0,5400.0,5400.0,5400.0,5400.0,5400.0,5400.0,5400.0,5400.0,5400.0,5400.0,5400.0,5400.0,5400.0
fixed-element-prob-200-40-0.1-2,5400.0,def,5400.0,5400.0,5400.0,5400.0,5400.0,5400.0,5400.0,5400.0,5400.0,5400.0,5400.0,5400.0,5400.0,5400.0,5400.0,5400.0,5400.0
fixed-element-prob-200-40-0.1-3,5400.0,def,5400.0,5400.0,5400.0,5400.0,5400.0,5400.0,5400.0,5400.0,5400.0,5400.0,5400.0,5400.0,5400.0,5400.0,5400.0,5400.0,5400.0
fixed-element-prob-200-60-0.1-1,5400.0,def,5400.0,5400.0,5400.0,5400.0,5400.0,5400.0,5400.0,5400.0,5400.0,5400.0,5400.0,5400.0,5400.0,5400.0,5400.0,5400.0,5400.0
fixed-element-prob-200-60-0.1-2,5400.0,def,5400.0,5400.0,5400.0,5400.0,5400.0,5400.0,5400.0,5400.0,5400.0,5400.0,5400.0,5400.0,5400.0,5400.0,5400.0,5400.0,5400.0
fixed-element-prob-200-60-0.1-3,5400.0,def,5400.0,5400.0,5400.0,5400.0,5400.0,5400.0,5400.0,5400.0,5400.0,5400.0,5400.0,5400.0,5400.0,5400.0,5400.0,5400.0,5400.0
fixed-element-prob-200-60-0.1-4,5400.0,def,5400.0,5400.0,5400.0,5400.0,5400.0,5400.0,5400.0,5400.0,5400.0,5400.0,5400.0,5400.0,5400.0,5400.0,5400.0,5400.0,5400.0
fixed-element-prob-200-60-0.1-5,5400.0,def,5400.0,5400.0,5400.0,5400.0,5400.0,5400.0,5400.0,5400.0,5400.0,5400.0,5400.0,5400.0,5400.0,5400.0,5400.0,5400.0,5400.0
fixed-element-prob-200-80-0.1-1,5400.0,def,5400.0,5400.0,5400.0,5400.0,5400.0,5400.0,5400.0,5400.0,5400.0,5400.0,5400.0,5400.0,5400.0,5400.0,5400.0,5400.0,5400.0
fixed-element-prob-200-80-0.1-2,5400.0,def,5400.0,5400.0,5400.0,5400.0,5400.0,5400.0,5400.0,5400.0,5400.0,5400.0,5400.0,5400.0,5400.0,5400.0,5400.0,5400.0,5400.0
fixed-element-prob-200-80-0.1-3,5400.0,def,5400.0,5400.0,5400.0,5400.0,5400.0,5400.0,5400.0,5400.0,5400.0,5400.0,5400.0,5400.0,5400.0,5400.0,5400.0,5400.0,5400.0
fixed-element-prob-200-80-0.1-4,5400.0,def,5400.0,5400.0,5400.0,5400.0,5400.0,5400.0,5400.0,5400.0,5400.0,5400.0,5400.0,5400.0,5400.0,5400.0,5400.0,5400.0,5400.0
fixed-element-prob-200-80-0.1-5,5400.0,def,5400.0,5400.0,5400.0,5400.0,5400.0,5400.0,5400.0,5400.0,5400.0,5400.0,5400.0,5400.0,5400.0,5400.0,5400.0,5400.0,5400.0
