nsolved,bioptsat-oll,bioptsat-osh,bioptsat-msu3,bioptsat-us,bioptsat-msh-trim,bioptsat-msh-nolazy,bioptsat-msh-tot,bioptsat-msh-nomin,bioptsat-msh-min,pminimal-2,leximaxIST-mod,bioptsat-su,bioptsat-msh-swap,seesaw-sat-exmin,bioptsat-msh-enum,mococg-openwbo,mocoihs-openwbo
1,0.01,0.02,0.03,0.03,0.04,0.04,0.04,0.04,0.04,0.05,0.060000000000000005,0.060000000000000005,0.08,0.8799999999999999,1.6300000000000001,2.0300000000000002,2.3
2,0.02,0.03,0.03,0.04,0.04,0.04,0.05,0.04,0.05,0.11,0.08,0.09,0.1,2.72,10.51,2.2,2.34
3,0.04,0.09,0.13,0.060000000000000005,0.060000000000000005,0.06,0.08,0.060000000000000005,0.060000000000000005,0.14,0.52,0.12,0.13,26.610000000000003,nan,2.34,4.05
4,0.04,0.15000000000000002,0.19,0.14,0.15,0.15,0.23,0.15000000000000002,0.15000000000000002,0.14,0.74,0.14,0.15,29.02,nan,2.44,4.82
5,0.06999999999999999,0.54,0.31,0.32,0.39,0.4,0.34,0.39,0.35000000000000003,0.15000000000000002,10.350000000000001,0.14,0.19,32.269999999999996,nan,2258.4300000000003,nan
6,0.08,0.95,0.4,0.75,0.73,0.72,0.95,0.74,0.49,0.32,32.96,0.27,0.27,35.61,nan,nan,nan
7,0.16,3.3499999999999996,0.5700000000000001,1.6,0.78,0.76,1.17,0.79,0.83,0.73,398.96000000000004,0.71,0.78,nan,nan,nan,nan
8,0.22999999999999998,26.220000000000002,2.0599999999999996,2.36,1.91,1.83,2.1,1.89,2.75,0.78,4472.84,0.76,1.07,nan,nan,nan,nan
9,0.63,590.1600000000001,18.33,7.58,3.63,3.61,2.9699999999999998,3.62,3.75,2.26,nan,2.26,1.78,nan,nan,nan,nan
10,0.86,637.38,43.49,8.059999999999999,6.180000000000001,6.510000000000001,6.12,6.16,6.16,2.7899999999999996,nan,2.55,3.21,nan,nan,nan,nan
11,1.62,nan,51.19,12.25,8.629999999999999,8.59,8.29,8.69,8.61,2.99,nan,2.99,4.52,nan,nan,nan,nan
12,2.15,nan,76.47,13.58,18.169999999999998,18.36,21.900000000000002,17.06,23.32,3.9,nan,3.52,8.290000000000001,nan,nan,nan,nan
13,7.3999999999999995,nan,274.33000000000004,19.59,45.05,45.01,44.349999999999994,45.01,42.2,5.04,nan,6.03,11.92,nan,nan,nan,nan
14,18.24,nan,283.6,21.89,427.94,429.71,381.73999999999995,420.11,436.95000000000005,10.649999999999999,nan,13.530000000000001,13.430000000000001,nan,nan,nan,nan
15,23.23,nan,291.96,239.04,505.94,502.17999999999995,987.09,518.22,666.4499999999999,66.83,nan,69.5,22.4,nan,nan,nan,nan
16,71.47,nan,631.44,462.68,1059.07,1065.14,1054.43,1058.92,764.61,193.27999999999997,nan,279.46999999999997,nan,nan,nan,nan,nan
17,94.63,nan,803.88,563.64,nan,nan,nan,nan,nan,278.49,nan,363.46,nan,nan,nan,nan,nan
18,175.14000000000001,nan,1165.92,754.45,nan,nan,nan,nan,nan,278.6,nan,396.57,nan,nan,nan,nan,nan
19,273.15999999999997,nan,nan,765.76,nan,nan,nan,nan,nan,330.45,nan,402.90999999999997,nan,nan,nan,nan,nan
20,294.39,nan,nan,822.61,nan,nan,nan,nan,nan,578.93,nan,760.13,nan,nan,nan,nan,nan
21,607.13,nan,nan,nan,nan,nan,nan,nan,nan,nan,nan,nan,nan,nan,nan,nan,nan
22,635.9599999999999,nan,nan,nan,nan,nan,nan,nan,nan,nan,nan,nan,nan,nan,nan,nan,nan
23,672.73,nan,nan,nan,nan,nan,nan,nan,nan,nan,nan,nan,nan,nan,nan,nan,nan
24,1020.46,nan,nan,nan,nan,nan,nan,nan,nan,nan,nan,nan,nan,nan,nan,nan,nan
25,nan,nan,nan,nan,nan,nan,nan,nan,nan,nan,nan,nan,nan,nan,nan,nan,nan
26,nan,nan,nan,nan,nan,nan,nan,nan,nan,nan,nan,nan,nan,nan,nan,nan,nan
27,nan,nan,nan,nan,nan,nan,nan,nan,nan,nan,nan,nan,nan,nan,nan,nan,nan
28,nan,nan,nan,nan,nan,nan,nan,nan,nan,nan,nan,nan,nan,nan,nan,nan,nan
29,nan,nan,nan,nan,nan,nan,nan,nan,nan,nan,nan,nan,nan,nan,nan,nan,nan
30,nan,nan,nan,nan,nan,nan,nan,nan,nan,nan,nan,nan,nan,nan,nan,nan,nan
31,nan,nan,nan,nan,nan,nan,nan,nan,nan,nan,nan,nan,nan,nan,nan,nan,nan
32,nan,nan,nan,nan,nan,nan,nan,nan,nan,nan,nan,nan,nan,nan,nan,nan,nan
